0-apology=54**aa16.83.0.9.61.16.83.0.9.61_ab_ac_ba50_bb18.1_bc217.500.9.0.1.0_bd18_be181_ca74.0.41.74.21.0.29.0.3.0.60.80_da1.0.0.100_db_dd9.3.30.35.59.50_dh1.30.50.50.0_di7_qa_qb_dc5.1.1.1.1_eh_ea34.eae2d5.EAE2D5.56.0.0_ec10.61.eae2d5.eae2d5.56.62.51.1_ed21.58.1.1.eae2d5.7E7E7E_ef_eg_r00_fa4.50.50.50.37.51.000000_fb7_fh_fc2.DE0000.55.2.DE0000.55.56.61.61.56.50.50_fj0.0.0_fd1.0.10.eae2d5.56_fe56.62_ff0000000000_fg1.51.56.0.0.1.0.0_fi_pa3.0.0.0.4.61.100.73.0.0_t00_pb_pc_pd_pe_ga0_gb1_gc0.0_ge0000000000_gh_gf_gg_gd0000000_ha80.80_hb68.1.21.80_hc0.78.46.0.78.46_hd51.1.50.50_ia_if_ib_id_ic3.55.55.61.0_jc_ie_ja_jb_jd_je_jf_jg_ka12.55.60.55.0_kb12.55.60.55_kc_kd_ke_kf_la11.000000.55.0.1_lb_oa_os_ob_oc_od_oe_of_lc_m0064.1.55.42.1.2.25.29.51.72.4.61_n0018.000000.0.0.0.10.18.72.77.5.61_n010.61.0.0.0.0.16.62.85.5.61_s00_og_oh_oo_op_oq_or_om_on_ok_ol_oi_oj_ad0.0.0.0.0.0.0.0.0.0
0-annoyed=54**aa6.62.1.16.28.6.73.1.42.54_ab_ac_ba50_bb29.1_bc217.500.9.0.1.0_bd29_be180_ca74.0.41.74.21.0.29.0.3.0.60.80_da1.0.0.100_db_dd9.3.30.35.59.50_dh1.30.50.50.0_di7_qa_qb_dc5.1.1.1.1_eh_ea34.eae2d5.EAE2D5.56.0.0_ec10.61.eae2d5.eae2d5.56.62.51.1_ed21.58.1.1.eae2d5.7E7E7E_ef_eg_r00_fa4.50.50.50.37.51.000000_fb7_fh_fc2.DE0000.55.2.DE0000.55.56.61.61.56.50.50_fj0.0.0_fd1.0.10.eae2d5.56_fe56.62_ff0000000000_fg1.51.56.0.0.1.0.0_fi_pa3.0.0.0.4.61.100.73.0.0_t00_pb_pc_pd_pe_ga0_gb1_gc0.0_ge0000000000_gh_gf_gg_gd0000000_ha84.84_hb50.1.50.80_hc2.54.22.2.54.22_hd11.1.50.49_ia_if_ib_id_ic3.55.55.61.0_jc_ie_ja_jb_jd_je_jf_jg_ka12.55.60.55.0_kb12.55.60.55_kc_kd_ke_kf_la11.000000.55.0.1_lb_oa_os_ob_oc_od_oe_of_lc_m0064.1.55.42.1.2.25.29.51.72.4.61_n0018.000000.0.0.0.10.18.72.77.5.61_n010.61.0.0.0.0.16.62.85.5.61_s00_og_oh_oo_op_oq_or_om_on_ok_ol_oi_oj_ad0.0.0.0.0.0.0.0.0.0
0-awkward=54**aa5.92.0.1.70.5.92.0.1.70_ab_ac_ba50_bb43.1_bc217.500.9.0.1.0_bd43_be180_ca74.0.41.74.21.0.29.0.3.0.60.80_da1.0.0.100_db_dd9.3.30.35.59.50_dh1.30.50.50.0_di7_qa_qb_dc5.1.1.1.1_eh_ea34.eae2d5.EAE2D5.56.0.0_ec10.61.eae2d5.eae2d5.56.62.51.1_ed21.58.1.1.eae2d5.7E7E7E_ef_eg_r00_fa4.50.50.50.37.51.000000_fb7_fh_fc2.DE0000.55.2.DE0000.55.56.61.61.56.50.50_fj0.0.0_fd1.0.10.eae2d5.56_fe56.62_ff0000000000_fg1.51.56.0.0.1.0.0_fi_pa3.0.0.0.4.61.100.73.0.0_t00_pb_pc_pd_pe_ga0_gb1_gc25.0_ge0000000000_gh_gf_gg_gd0000000_ha82.82_hb98.1.44.80_hc4.63.45.4.63.45_hd33.1.49.49_ia_if_ib_id_ic3.55.55.61.0_jc_ie_ja_jb_jd_je_jf_jg_ka12.55.60.55.0_kb12.55.60.55_kc_kd_ke_kf_la11.000000.55.0.1_lb_oa_os_ob_oc_od_oe_of_lc_m0064.1.55.42.1.2.25.29.51.72.4.61_n0018.000000.0.0.0.10.18.72.77.5.61_n010.61.0.0.0.0.16.62.85.5.61_s00_og_oh_oo_op_oq_or_om_on_ok_ol_oi_oj_ad0.0.0.0.0.0.0.0.0.0
0-calm=54**aa10.87.0.0.35.11.86.0.42.49_ab_ac_ba50_bb17.1_bc217.500.9.0.1.0_bd17_be180_ca74.0.41.74.21.0.29.0.3.0.60.80_da1.0.0.100_db_dd9.3.30.35.59.50_dh1.30.50.50.0_di7_qa_qb_dc5.1.1.1.1_eh_ea34.eae2d5.EAE2D5.56.0.0_ec10.61.eae2d5.eae2d5.56.62.51.1_ed21.58.1.1.eae2d5.7E7E7E_ef_eg_r00_fa4.50.50.50.37.51.000000_fb7_fh_fc2.DE0000.55.2.DE0000.55.56.61.61.56.50.50_fj0.0.0_fd1.0.10.eae2d5.56_fe56.62_ff0000000000_fg1.51.56.0.0.1.0.0_fi_pa3.0.0.0.4.61.100.73.0.0_t00_pb_pc_pd_pe_ga0_gb1_gc0.0_ge0000000000_gh_gf_gg_gd0000000_ha89.89_hb50.1.60.99_hc0.59.39.0.59.39_hd0.1.49.49_ia_if_ib_id_ic3.55.55.61.0_jc_ie_ja_jb_jd_je_jf_jg_ka12.55.60.55.0_kb12.55.60.55_kc_kd_ke_kf_la11.000000.55.0.1_lb_oa_os_ob_oc_od_oe_of_lc_m0064.1.55.42.1.2.25.29.51.72.4.61_n0018.000000.0.0.0.10.18.72.77.5.61_n010.61.0.0.0.0.16.62.85.5.61_s00_og_oh_oo_op_oq_or_om_on_ok_ol_oi_oj_ad0.0.0.0.0.0.0.0.0.0
0-cheer=54**aa24.41.1.8.62.9.97.0.0.33_ab_ac_ba50_bb18.1_bc217.500.9.0.1.0_bd18_be180_ca74.0.41.74.21.0.29.0.3.0.60.80_da1.0.0.100_db_dd9.3.30.35.59.50_dh1.30.50.50.0_di7_qa_qb_dc5.1.1.1.1_eh_ea34.eae2d5.EAE2D5.56.0.0_ec10.61.eae2d5.eae2d5.56.62.51.1_ed21.58.1.1.eae2d5.7E7E7E_ef_eg_r00_fa4.50.50.50.37.51.000000_fb7_fh_fc2.DE0000.55.2.DE0000.55.56.61.61.56.50.50_fj0.0.0_fd1.0.10.eae2d5.56_fe56.62_ff0000000000_fg1.51.56.0.0.1.0.0_fi_pa3.0.0.0.4.61.100.73.0.0_t00_pb_pc_pd_pe_ga0_gb1_gc0.0_ge0000000000_gh_gf_gg_gd0000000_ha0.0_hb49.1.44.80_hc0.78.46.0.78.46_hd23.1.50.50_ia_if_ib_id_ic3.55.55.61.0_jc_ie_ja_jb_jd_je_jf_jg_ka12.55.60.55.0_kb12.55.60.55_kc_kd_ke_kf_la11.000000.55.0.1_lb_oa_os_ob_oc_od_oe_of_lc_m0064.1.55.42.1.2.25.29.51.72.4.61_n0018.000000.0.0.0.10.18.72.77.5.61_n010.61.0.0.0.0.16.62.85.5.61_s00_og_oh_oo_op_oq_or_om_on_ok_ol_oi_oj_ad0.0.0.0.0.0.0.0.0.0
0-concerned=54**aa12.90.0.28.59.19.51.1.28.59_ab_ac_ba50_bb17.1_bc217.500.9.0.1.0_bd17_be180_ca74.0.41.74.21.0.29.0.3.0.60.80_da1.0.0.100_db_dd9.3.30.35.59.50_dh1.30.50.50.0_di7_qa_qb_dc5.1.1.1.1_eh_ea34.eae2d5.EAE2D5.56.0.0_ec10.61.eae2d5.eae2d5.56.62.51.1_ed21.58.1.1.eae2d5.7E7E7E_ef_eg_r00_fa4.50.50.50.37.51.000000_fb7_fh_fc2.DE0000.55.2.DE0000.55.56.61.61.56.50.50_fj0.0.0_fd1.0.10.eae2d5.56_fe56.62_ff0000000000_fg1.51.56.0.0.1.0.0_fi_pa3.0.0.0.4.61.100.73.0.0_t00_pb_pc_pd_pe_ga0_gb1_gc0.0_ge0000000000_gh_gf_gg_gd0000000_ha89.89_hb49.1.53.80_hc4.65.58.4.65.58_hd39.1.49.49_ia_if_ib_id_ic3.55.55.61.0_jc_ie_ja_jb_jd_je_jf_jg_ka12.55.60.55.0_kb12.55.60.55_kc_kd_ke_kf_la11.000000.55.0.1_lb_oa_os_ob_oc_od_oe_of_lc_m0064.1.55.42.1.2.25.29.51.72.4.61_n0018.000000.0.0.0.10.18.72.77.5.61_n010.61.0.0.0.0.16.62.85.5.61_s00_og_oh_oo_op_oq_or_om_on_ok_ol_oi_oj_ad0.0.0.0.0.0.0.0.0.0
0-confident=54**aa26.43.1.43.66.15.62.0.42.47_ab_ac_ba50_bb17.1_bc217.500.9.0.1.0_bd17_be180_ca74.0.41.74.21.0.29.0.3.0.60.80_da1.0.0.100_db_dd9.3.30.35.59.50_dh1.30.50.50.0_di7_qa_qb_dc5.1.1.1.1_eh_ea34.eae2d5.EAE2D5.56.0.0_ec10.61.eae2d5.eae2d5.56.62.51.1_ed21.58.1.1.eae2d5.7E7E7E_ef_eg_r00_fa4.50.50.50.37.51.000000_fb7_fh_fc2.DE0000.55.2.DE0000.55.56.61.61.56.50.50_fj0.0.0_fd1.0.10.eae2d5.56_fe56.62_ff0000000000_fg1.51.56.0.0.1.0.0_fi_pa3.0.0.0.4.61.100.73.0.0_t00_pb_pc_pd_pe_ga0_gb1_gc0.0_ge0000000000_gh_gf_gg_gd0000000_ha89.89_hb49.1.62.99_hc1.33.39.1.33.39_hd24.1.49.49_ia_if_ib_id_ic3.55.55.61.0_jc_ie_ja_jb_jd_je_jf_jg_ka12.55.60.55.0_kb12.55.60.55_kc_kd_ke_kf_la11.000000.55.0.1_lb_oa_os_ob_oc_od_oe_of_lc_m0064.1.55.42.1.2.25.29.51.72.4.61_n0018.000000.0.0.0.10.18.72.77.5.61_n010.61.0.0.0.0.16.62.85.5.61_s00_og_oh_oo_op_oq_or_om_on_ok_ol_oi_oj_ad0.0.0.0.0.0.0.0.0.0
0-disappointed=54**aa87.34.0.36.26.0.0.0.36.26_ab_ac_ba50_bb17.1_bc217.500.9.0.1.0_bd17_be180_ca74.0.41.74.21.0.29.0.3.0.60.80_da1.0.0.100_db_dd9.3.30.35.59.50_dh1.30.50.50.0_di7_qa_qb_dc5.1.1.1.1_eh_ea34.eae2d5.EAE2D5.56.0.0_ec10.61.eae2d5.eae2d5.56.62.51.1_ed21.58.1.1.eae2d5.7E7E7E_ef_eg_r00_fa4.50.50.50.37.51.000000_fb7_fh_fc2.DE0000.55.2.DE0000.55.56.61.61.56.50.50_fj0.0.0_fd1.0.10.eae2d5.56_fe56.62_ff0000000000_fg1.51.56.0.0.1.0.0_fi_pa3.0.0.0.4.61.100.73.0.0_t00_pb_pc_pd_pe_ga0_gb1_gc5.0_ge0000000000_gh_gf_gg_gd0000000_ha84.84_hb25.1.16.99_hc0.62.10.0.62.10_hd6.1.49.49_ia_if_ib_id_ic3.55.55.61.0_jc_ie_ja_jb_jd_je_jf_jg_ka12.55.60.55.0_kb12.55.60.55_kc_kd_ke_kf_la11.000000.55.0.1_lb_oa_os_ob_oc_od_oe_of_lc_m0064.1.55.42.1.2.25.29.51.72.4.61_n0018.000000.0.0.0.10.18.72.77.5.61_n010.61.0.0.0.0.16.62.85.5.61_s00_og_oh_oo_op_oq_or_om_on_ok_ol_oi_oj_ad0.0.0.0.0.0.0.0.0.0
0-encourage=54**aa16.44.1.8.50.16.44.1.8.50_ab_ac_ba50_bb17.1_bc217.500.9.0.1.0_bd17_be180_ca74.0.41.74.21.0.29.0.3.0.60.80_da1.0.0.100_db_dd9.3.30.35.59.50_dh1.30.50.50.0_di7_qa_qb_dc5.1.1.1.1_eh_ea34.eae2d5.EAE2D5.56.0.0_ec10.61.eae2d5.eae2d5.56.62.51.1_ed21.58.1.1.eae2d5.7E7E7E_ef_eg_r00_fa4.50.50.50.37.51.000000_fb7_fh_fc2.DE0000.55.2.DE0000.55.56.61.61.56.50.50_fj0.0.0_fd1.0.10.eae2d5.56_fe56.62_ff0000000000_fg1.51.56.0.0.1.0.0_fi_pa3.0.0.0.4.61.100.73.0.0_t00_pb_pc_pd_pe_ga0_gb1_gc0.0_ge0000000000_gh_gf_gg_gd0000000_ha0.0_hb49.1.44.99_hc0.59.39.0.59.39_hd0.1.49.49_ia_if_ib_id_ic3.55.55.61.0_jc_ie_ja_jb_jd_je_jf_jg_ka12.55.60.55.0_kb12.55.60.55_kc_kd_ke_kf_la11.000000.55.0.1_lb_oa_os_ob_oc_od_oe_of_lc_m0064.1.55.42.1.2.25.29.51.72.4.61_n0018.000000.0.0.0.10.18.72.77.5.61_n010.61.0.0.0.0.16.62.85.5.61_s00_og_oh_oo_op_oq_or_om_on_ok_ol_oi_oj_ad0.0.0.0.0.0.0.0.0.0
0-happy=54**aa6.41.0.8.72.6.41.0.8.72_ab_ac_ba50_bb44.1_bc217.500.9.0.1.0_bd44_be180_ca74.0.41.74.21.0.29.0.3.0.60.80_da1.0.0.100_db_dd9.3.30.35.59.50_dh1.30.50.50.0_di7_qa_qb_dc5.1.1.1.1_eh_ea34.eae2d5.EAE2D5.56.0.0_ec10.61.eae2d5.eae2d5.56.62.51.1_ed21.58.1.1.eae2d5.7E7E7E_ef_eg_r00_fa4.50.50.50.37.51.000000_fb7_fh_fc2.DE0000.55.2.DE0000.55.56.61.61.56.50.50_fj0.0.0_fd1.0.10.eae2d5.56_fe56.62_ff0000000000_fg1.51.56.0.0.1.0.0_fi_pa3.0.0.0.4.61.100.73.0.0_t00_pb_pc_pd_pe_ga0_gb1_gc0.0_ge0000000000_gh_gf_gg_gd0000000_ha0.0_hb49.1.44.99_hc0.79.54.0.79.54_hd25.1.49.49_ia_if_ib_id_ic3.55.55.61.0_jc_ie_ja_jb_jd_je_jf_jg_ka12.55.60.55.0_kb12.55.60.55_kc_kd_ke_kf_la11.000000.55.0.1_lb_oa_os_ob_oc_od_oe_of_lc_m0064.1.55.42.1.2.25.29.51.72.4.61_n0018.000000.0.0.0.10.18.72.77.5.61_n010.61.0.0.0.0.16.62.85.5.61_s00_og_oh_oo_op_oq_or_om_on_ok_ol_oi_oj_ad0.0.0.0.0.0.0.0.0.0
0-horny=54**aa12.54.0.28.77.13.68.1.16.34_ab_ac_ba50_bb43.1_bc217.500.9.0.1.0_bd43_be180_ca74.0.41.74.21.0.29.0.3.0.60.80_da1.0.0.100_db_dd9.3.30.35.59.50_dh1.30.50.50.0_di7_qa_qb_dc5.1.1.1.1_eh_ea34.eae2d5.EAE2D5.56.0.0_ec10.61.eae2d5.eae2d5.56.62.51.1_ed21.58.1.1.eae2d5.7E7E7E_ef_eg_r00_fa4.50.50.50.37.51.000000_fb7_fh_fc2.DE0000.55.2.DE0000.55.56.61.61.56.50.50_fj0.0.0_fd1.0.10.eae2d5.56_fe56.62_ff0000000000_fg1.51.56.0.0.1.0.0_fi_pa3.0.0.0.4.61.100.73.0.0_t00_pb_pc_pd_pe_ga0_gb1_gc55.0_ge0000000000_gh_gf_gg_gd0000000_ha82.82_hb54.1.38.80_hc0.38.23.0.38.23_hd38.1.44.11_ia_if_ib_id_ic3.55.55.61.0_jc_ie_ja_jb_jd_je_jf_jg_ka12.55.60.55.0_kb12.55.60.55_kc_kd_ke_kf_la11.000000.55.0.1_lb_oa_os_ob_oc_od_oe_of_lc_m0064.1.55.42.1.2.25.29.51.72.4.61_n0018.000000.0.0.0.10.18.72.77.5.61_n010.61.0.0.0.0.16.62.85.5.61_s00_og_oh_oo_op_oq_or_om_on_ok_ol_oi_oj_ad0.0.0.0.0.0.0.0.0.0
0-humble=54**aa84.31.0.8.55.16.84.0.8.55_ab_ac_ba50_bb17.1_bc217.500.9.0.1.0_bd17_be180_ca74.0.41.74.21.0.29.0.3.0.60.80_da1.0.0.100_db_dd10.3.30.35.59.50_dh1.30.50.50.0_di7_qa_qb_dc5.1.1.1.1_eh_ea34.eae2d5.EAE2D5.56.0.0_ec10.61.eae2d5.eae2d5.56.62.51.1_ed21.58.1.1.eae2d5.7E7E7E_ef_eg_r00_fa4.50.50.50.37.51.000000_fb7_fh_fc2.DE0000.55.2.DE0000.55.56.61.61.56.50.50_fj0.0.0_fd1.0.10.eae2d5.56_fe56.62_ff0000000000_fg1.51.56.0.0.1.0.0_fi_pa3.0.0.0.4.61.100.73.0.0_t00_pb_pc_pd_pe_ga0_gb1_gc0.0_ge0000000000_gh_gf_gg_gd0000000_ha0.0_hb49.1.44.99_hc0.48.10.0.48.10_hd34.1.49.49_ia_if_ib_id_ic3.55.55.61.0_jc_ie_ja_jb_jd_je_jf_jg_ka12.55.60.55.0_kb12.55.60.55_kc_kd_ke_kf_la11.000000.55.0.1_lb_oa_os_ob_oc_od_oe_of_lc_m0064.1.55.42.1.2.25.29.51.72.4.61_n0018.000000.0.0.0.10.18.72.77.5.61_n010.61.0.0.0.0.16.62.85.5.61_s00_og_oh_oo_op_oq_or_om_on_ok_ol_oi_oj_ad0.0.0.0.0.0.0.0.0.0
0-loss=54**aa16.40.0.41.32.16.40.0.41.32_ab_ac_ba50_bb17.1_bc217.500.9.0.1.0_bd17_be180_ca74.0.41.74.21.0.29.0.3.0.60.80_da1.0.0.100_db_dd9.3.30.35.59.50_dh1.30.50.50.0_di7_qa_qb_dc5.1.1.1.1_eh_ea34.eae2d5.EAE2D5.56.0.0_ec10.61.eae2d5.eae2d5.56.62.51.1_ed21.58.1.1.eae2d5.7E7E7E_ef_eg_r00_fa4.50.50.50.37.51.000000_fb7_fh_fc2.DE0000.55.2.DE0000.55.56.61.61.56.50.50_fj0.0.0_fd1.0.10.eae2d5.56_fe56.62_ff0000000000_fg1.51.56.0.0.1.0.0_fi_pa3.0.0.0.4.61.100.73.0.0_t00_pb_pc_pd_pe_ga0_gb1_gc5.0_ge0000000000_gh_gf_gg_gd0000000_ha89.89_hb50.1.50.99_hc0.65.56.0.65.56_hd32.1.49.49_ia_if_ib_id_ic3.55.55.61.0_jc_ie_ja_jb_jd_je_jf_jg_ka12.55.60.55.0_kb12.55.60.55_kc_kd_ke_kf_la11.000000.55.0.1_lb_oa_os_ob_oc_od_oe_of_lc_m0064.1.55.42.1.2.25.29.51.72.4.61_n0018.000000.0.0.0.10.18.72.77.5.61_n010.61.0.0.0.0.16.62.85.5.61_s00_og_oh_oo_op_oq_or_om_on_ok_ol_oi_oj_ad0.0.0.0.0.0.0.0.0.0
0-serene=54**aa2.89.1.17.29.2.89.1.17.29_ab_ac_ba50_bb17.1_bc217.500.9.0.1.0_bd17_be180_ca74.0.41.74.21.0.29.0.3.0.60.80_da1.0.0.100_db_dd9.3.30.35.59.50_dh1.30.50.50.0_di7_qa_qb_dc5.1.1.1.1_eh_ea34.eae2d5.EAE2D5.56.0.0_ec10.61.eae2d5.eae2d5.56.62.51.1_ed21.58.1.1.eae2d5.7E7E7E_ef_eg_r00_fa4.50.50.50.37.51.000000_fb_fh_fc2.DE0000.55.2.DE0000.55.56.61.61.56.50.50_fj0.0.0_fd1.0.10.eae2d5.56_fe56.62_ff0000000000_fg1.51.56.0.0.1.0.0_fi_pa3.0.0.0.4.61.100.73.0.0_t00_pb_pc_pd_pe_ga0_gb1_gc0.0_ge0000000000_gh_gf_gg_gd0000000_ha35.35_hb25.1.16.100_hc0.62.19.0.62.19_hd0.1.49.49_ia_if_ib_id_ic3.55.55.61.0_jc_ie_ja_jb_jd_je_jf_jg_ka12.55.60.55.0_kb12.55.60.55_kc_kd_ke_kf_la11.000000.55.0.1_lb_oa_os_ob_oc_od_oe_of_lc_m0064.1.55.42.1.2.25.29.51.72.4.61_n0018.000000.0.0.0.10.18.72.77.5.61_n010.61.0.0.0.0.16.62.85.5.61_s00_og_oh_oo_op_oq_or_om_on_ok_ol_oi_oj_ad0.0.0.0.0.0.0.0.0.0
0-shock=54**aa77.31.1.42.28.77.31.1.42.28_ab_ac_ba50_bb44.1_bc217.500.9.0.1.0_bd44_be180_ca74.0.41.74.21.0.29.0.3.0.60.80_da1.0.0.100_db_dd9.3.30.35.59.50_dh1.30.50.50.0_di7_qa_qb_dc5.1.1.1.1_eh_ea34.eae2d5.EAE2D5.56.0.0_ec10.61.eae2d5.eae2d5.56.62.51.1_ed21.58.1.1.eae2d5.7E7E7E_ef_eg_r00_fa4.50.50.50.37.51.000000_fb7_fh_fc2.DE0000.55.2.DE0000.55.56.61.61.56.50.50_fj0.0.0_fd1.0.10.eae2d5.56_fe56.62_ff0000000000_fg1.51.56.0.0.1.0.0_fi_pa3.0.0.0.4.61.100.73.0.0_t00_pb_pc_pd_pe_ga0_gb1_gc0.0_ge0000000000_gh_gf_gg_gd0000000_ha99.99_hb49.1.60.61_hc0.78.56.0.78.56_hd41.1.49.49_ia_if_ib_id_ic3.55.55.61.0_jc_ie_ja_jb_jd_je_jf_jg_ka12.55.60.55.0_kb12.55.60.55_kc_kd_ke_kf_la11.000000.55.0.1_lb_oa_os_ob_oc_od_oe_of_lc_m0064.1.55.42.1.2.25.29.51.72.4.61_n0018.000000.0.0.0.10.18.72.77.5.61_n010.61.0.0.0.0.16.62.85.5.61_s00_og_oh_oo_op_oq_or_om_on_ok_ol_oi_oj_ad0.0.0.0.0.0.0.0.0.0
0-start=54**aa78.28.0.0.35.8.3.1.0.50_ab_ac_ba50_bb17.1_bc217.500.9.0.1.0_bd17_be180_ca74.0.41.74.21.0.29.0.3.0.60.80_da1.0.0.100_db_dd9.3.30.35.59.50_dh1.30.50.50.0_di7_qa_qb_dc5.1.1.1.1_eh_ea34.eae2d5.EAE2D5.56.0.0_ec10.61.eae2d5.eae2d5.56.62.51.1_ed21.58.1.1.eae2d5.7E7E7E_ef_eg_r00_fa4.50.50.50.37.51.000000_fb7_fh_fc0.F90303.55.0.F90303.55.56.61.61.56.50.50_fj0.0.0_fd1.0.10.eae2d5.56_fe56.62_ff0000000000_fg1.51.56.0.0.1.0.0_fi_pa3.0.0.0.4.61.100.73.0.0_t00_pb_pc_pd_pe_ga0_gb1_gc0.0_ge0000000000_gh_gf_gg_gd0000000_ha89.89_hb75.1.34.99_hc0.56.45.0.56.45_hd0.1.57.49_ia_if_ib_id_ic3.55.55.61.0_jc_ie_ja_jb_jd_je_jf_jg_ka12.55.60.55.0_kb12.55.60.55_kc_kd_ke_kf_la11.000000.55.0.1_lb_oa_os_ob_oc_od_oe_of_lc_m0064.1.55.42.1.2.25.29.51.72.4.61_n0018.000000.0.0.0.10.18.72.77.5.61_n010.61.0.0.0.0.16.62.85.5.61_s00_og_oh_oo_op_oq_or_om_on_ok_ol_oi_oj_ad0.0.0.0.0.0.0.0.0.0
0-unsure=54**aa7.79.1.16.35.7.73.1.16.54_ab_ac_ba50_bb17.0_bc217.500.9.0.1.0_bd17_be180_ca74.0.41.74.21.0.29.0.3.0.60.80_da1.0.0.100_db_dd9.3.30.35.59.50_dh1.30.50.50.0_di7_qa_qb_dc5.1.1.1.1_eh_ea34.eae2d5.EAE2D5.56.0.0_ec10.61.eae2d5.eae2d5.56.62.51.1_ed21.58.1.1.eae2d5.7E7E7E_ef_eg_r00_fa4.50.50.50.37.51.000000_fb7_fh_fc2.DE0000.55.2.DE0000.55.56.61.61.56.50.50_fj0.0.0_fd1.0.10.eae2d5.56_fe56.62_ff0000000000_fg1.51.56.0.0.1.0.0_fi_pa3.0.0.0.4.61.100.73.0.0_t00_pb_pc_pd_pe_ga0_gb1_gc0.0_ge0000000000_gh_gf_gg_gd0000000_ha84.84_hb65.1.28.80_hc0.54.23.0.54.23_hd5.1.49.49_ia_if_ib_id_ic3.55.55.61.0_jc_ie_ja_jb_jd_je_jf_jg_ka12.55.60.55.0_kb12.55.60.55_kc_kd_ke_kf_la11.000000.55.0.1_lb_oa_os_ob_oc_od_oe_of_lc_m0064.1.55.42.1.2.25.29.51.72.4.61_n0018.000000.0.0.0.10.18.72.77.5.61_n010.61.0.0.0.0.16.62.85.5.61_s00_og_oh_oo_op_oq_or_om_on_ok_ol_oi_oj_ad0.0.0.0.0.0.0.0.0.0
0-strip=54**aa77.25.1.48.45.21.78.0.8.42_ab_ac_ba50_bb17.1_bc217.500.9.0.1.0_bd17_be180_ca74.0.41.74.21.0.29.0.3.0.60.80_da1.0.0.100_db_dd9.3.30.35.59.50_dh1.30.50.50.0_di7_qa_qb_dc5.1.1.1.1_eh_ea34.eae2d5.EAE2D5.56.0.0_ec10.61.eae2d5.eae2d5.56.62.51.1_ed21.58.1.1.eae2d5.7E7E7E_ef_eg_r00_fa4.50.50.50.37.51.000000_fb7_fh_fc2.DE0000.55.2.DE0000.55.56.61.61.56.50.50_fj0.0.0_fd1.0.10.eae2d5.56_fe56.62_ff0000000000_fg1.51.56.0.0.1.0.0_fi_pa3.0.0.0.4.61.100.73.0.0_t00_pb_pc_pd_pe_ga0_gb1_gc5.0_ge0000000000_gh_gf_gg_gd0000000_ha89.89_hb49.1.44.99_hc0.59.39.0.59.39_hd23.1.49.49_ia_if_ib_id_ic3.55.55.61.0_jc_ie_ja_jb_jd_je_jf_jg_ka12.55.60.55.0_kb12.55.60.55_kc_kd_ke_kf_la11.000000.55.0.1_lb_oa_os_ob_oc_od_oe_of_lc_m0064.1.55.42.1.2.25.29.51.72.4.61_n0018.000000.0.0.0.10.18.72.77.5.61_n010.61.0.0.0.0.16.62.85.5.61_s00_og_oh_oo_op_oq_or_om_on_ok_ol_oi_oj_ad0.0.0.0.0.0.0.0.0.0

1-stripped=54**aa69.37.0.48.45.12.43.1.34.42_ab_ac_ba50_bb17.1_bc217.500.9.0.1.0_bd17_be180_ca74.0.41.74.21.0.29.0.3.0.60.80_da1.0.0.100_db_dd9.3.30.35.59.50_dh1.30.50.50.0_di7_qa_qb_dc5.1.1.1.1_eh_ea34.eae2d5.EAE2D5.56.0.0_ec10.61.eae2d5.eae2d5.56.62.51.1_ed21.58.1.1.eae2d5.7E7E7E_ef_eg_r00_fa4.50.50.50.37.51.000000_fb7_fh_fc2.DE0000.55.2.DE0000.55.56.61.61.56.50.50_fj0.0.0_fd1.0.10.eae2d5.56_fe56.62_ff0000000000_fg1.51.56.0.0.1.0.0_fi_pa3.0.0.0.4.61.100.73.0.0_t00_pb_pc_pd_pe_ga0_gb1_gc7.0_ge0000000000_gh_gf_gg_gd0000000_ha89.89_hb49.1.44.99_hc0.79.45.0.79.45_hd23.1.49.49_ia_if_ib_id_ic3.55.55.61.0_jc_ie_ja_jb_jd_je_jf_jg_ka12.55.60.55.0_kb12.55.60.55_kc_kd_ke_kf_la_lb_oa_os_ob_oc_od_oe_of_lc_m00_n00_s00_og_oh_oo_op_oq_or_om_on_ok_ol_oi_oj_ad0.0.0.0.0.0.0.0.0.0
1-annoyed=54**aa6.62.1.16.28.6.73.1.42.54_ab_ac_ba50_bb29.1_bc217.500.9.0.1.0_bd29_be180_ca74.0.41.74.21.0.29.0.3.0.60.80_da1.0.0.100_db_dd9.3.30.35.59.50_dh1.30.50.50.0_di7_qa_qb_dc5.1.1.1.1_eh_ea34.eae2d5.EAE2D5.56.0.0_ec10.61.eae2d5.eae2d5.56.62.51.1_ed21.58.1.1.eae2d5.7E7E7E_ef_eg_r00_fa4.50.50.50.37.51.000000_fb7_fh_fc2.DE0000.55.2.DE0000.55.56.61.61.56.50.50_fj0.0.0_fd1.0.10.eae2d5.56_fe56.62_ff0000000000_fg1.51.56.0.0.1.0.0_fi_pa3.0.0.0.4.61.100.73.0.0_t00_pb_pc_pd_pe_ga0_gb1_gc10.0_ge0000000000_gh_gf_gg_gd0000000_ha84.84_hb50.1.50.80_hc2.54.22.2.54.22_hd11.1.50.49_ia_if_ib_id_ic3.55.55.61.0_jc_ie_ja_jb_jd_je_jf_jg_ka12.55.60.55.0_kb12.55.60.55_kc_kd_ke_kf_la_lb_oa_os_ob_oc_od_oe_of_lc_m00_n00_s00_og_oh_oo_op_oq_or_om_on_ok_ol_oi_oj_ad0.0.0.0.0.0.0.0.0.0
1-apology=54**aa16.83.0.9.61.16.83.0.9.61_ab_ac_ba55_bb15.1_bc217.500.9.0.1.0_bd20_be178_ca74.0.41.74.21.0.29.0.3.0.60.80_da1.0.0.100_db_dd9.3.30.35.59.50_dh1.30.50.50.0_di7_qa_qb_dc5.1.1.1.1_eh_ea34.eae2d5.EAE2D5.56.0.0_ec10.61.eae2d5.eae2d5.56.62.51.1_ed21.58.1.1.eae2d5.7E7E7E_ef_eg_r00_fa4.50.50.50.37.51.000000_fb7_fh_fc2.DE0000.55.2.DE0000.55.56.61.61.56.50.50_fj0.0.0_fd1.0.10.eae2d5.56_fe56.62_ff0000000000_fg1.51.56.0.0.1.0.0_fi_pa3.0.0.0.4.61.100.73.0.0_t00_pb_pc_pd_pe_ga0_gb1_gc10.0_ge0000000000_gh_gf_gg_gd0000000_ha80.80_hb68.1.21.80_hc0.78.46.0.78.46_hd51.1.50.50_ia_if_ib_id_ic3.55.55.61.0_jc_ie_ja_jb_jd_je_jf_jg_ka12.55.60.55.0_kb12.55.60.55_kc_kd_ke_kf_la_lb_oa_os_ob_oc_od_oe_of_lc_m00_n00_s00_og_oh_oo_op_oq_or_om_on_ok_ol_oi_oj_ad0.0.0.0.0.0.0.0.0.0
1-awkward=54**aa5.92.0.1.70.5.92.0.1.70_ab_ac_ba61_bb43.1_bc217.500.9.0.1.0_bd43_be180_ca74.0.41.74.21.0.29.0.3.0.60.80_da1.0.0.100_db_dd9.3.30.35.59.50_dh1.30.50.50.0_di7_qa_qb_dc5.1.1.1.1_eh_ea34.eae2d5.EAE2D5.56.0.0_ec10.61.eae2d5.eae2d5.56.62.51.1_ed21.58.1.1.eae2d5.7E7E7E_ef_eg_r00_fa4.50.50.50.37.51.000000_fb7_fh_fc2.DE0000.55.2.DE0000.55.56.61.61.56.50.50_fj0.0.0_fd1.0.10.eae2d5.56_fe56.62_ff0000000000_fg1.51.56.0.0.1.0.0_fi_pa3.0.0.0.4.61.100.73.0.0_t00_pb_pc_pd_pe_ga0_gb1_gc35.0_ge0000000000_gh_gf_gg_gd0000000_ha82.82_hb100.1.44.80_hc4.63.45.4.63.45_hd33.1.49.49_ia_if_ib_id_ic3.55.55.61.0_jc_ie_ja_jb_jd_je_jf_jg_ka12.55.60.55.0_kb12.55.60.55_kc_kd_ke_kf_la_lb_oa_os_ob_oc_od_oe_of_lc_m00_n00_s00_og_oh_oo_op_oq_or_om_on_ok_ol_oi_oj_ad0.0.0.0.0.0.0.0.0.0
1-calm=54**aa10.87.0.0.35.11.86.0.42.49_ab_ac_ba50_bb17.1_bc217.500.9.0.1.0_bd17_be180_ca74.0.41.74.21.0.29.0.3.0.60.80_da1.0.0.100_db_dd9.3.30.35.59.50_dh1.30.50.50.0_di7_qa_qb_dc5.1.1.1.1_eh_ea34.eae2d5.EAE2D5.56.0.0_ec10.61.eae2d5.eae2d5.56.62.51.1_ed21.58.1.1.eae2d5.7E7E7E_ef_eg_r00_fa4.50.50.50.37.51.000000_fb7_fh_fc2.DE0000.55.2.DE0000.55.56.61.61.56.50.50_fj0.0.0_fd1.0.10.eae2d5.56_fe56.62_ff0000000000_fg1.51.56.0.0.1.0.0_fi_pa3.0.0.0.4.61.100.73.0.0_t00_pb_pc_pd_pe_ga0_gb1_gc10.0_ge0000000000_gh_gf_gg_gd0000000_ha89.89_hb50.1.60.99_hc0.59.39.0.59.39_hd0.1.49.49_ia_if_ib_id_ic3.55.55.61.0_jc_ie_ja_jb_jd_je_jf_jg_ka12.55.60.55.0_kb12.55.60.55_kc_kd_ke_kf_la_lb_oa_os_ob_oc_od_oe_of_lc_m00_n00_s00_og_oh_oo_op_oq_or_om_on_ok_ol_oi_oj_ad0.0.0.0.0.0.0.0.0.0
1-cheer=54**aa24.41.1.8.62.9.95.0.0.33_ab_ac_ba59_bb45.1_bc217.500.9.0.1.0_bd43_be182_ca74.0.41.74.21.0.29.0.3.0.60.80_da1.0.0.100_db_dd9.3.30.35.59.50_dh1.30.50.50.0_di7_qa_qb_dc5.1.1.1.1_eh_ea34.eae2d5.EAE2D5.56.0.0_ec10.61.eae2d5.eae2d5.56.62.51.1_ed21.58.1.1.eae2d5.7E7E7E_ef_eg_r00_fa4.50.50.50.37.51.000000_fb7_fh_fc2.DE0000.55.2.DE0000.55.56.61.61.56.50.50_fj0.0.0_fd1.0.10.eae2d5.56_fe56.62_ff0000000000_fg1.51.56.0.0.1.0.0_fi_pa3.0.0.0.4.61.100.73.0.0_t00_pb_pc_pd_pe_ga0_gb1_gc10.0_ge0000000000_gh_gf_gg_gd0000000_ha0.0_hb49.1.44.80_hc0.78.46.0.78.46_hd23.1.50.50_ia_if_ib_id_ic3.55.55.61.0_jc_ie_ja_jb_jd_je_jf_jg_ka12.55.60.55.0_kb12.55.60.55_kc_kd_ke_kf_la_lb_oa_os_ob_oc_od_oe_of_lc_m00_n00_s00_og_oh_oo_op_oq_or_om_on_ok_ol_oi_oj_ad0.0.0.0.0.0.0.0.0.0
1-concerned=54**aa12.90.0.28.59.19.51.1.28.59_ab_ac_ba50_bb17.1_bc217.500.9.0.1.0_bd17_be180_ca74.0.41.74.21.0.29.0.3.0.60.80_da1.0.0.100_db_dd9.3.30.35.59.50_dh1.30.50.50.0_di7_qa_qb_dc5.1.1.1.1_eh_ea34.eae2d5.EAE2D5.56.0.0_ec10.61.eae2d5.eae2d5.56.62.51.1_ed21.58.1.1.eae2d5.7E7E7E_ef_eg_r00_fa4.50.50.50.37.51.000000_fb7_fh_fc2.DE0000.55.2.DE0000.55.56.61.61.56.50.50_fj0.0.0_fd1.0.10.eae2d5.56_fe56.62_ff0000000000_fg1.51.56.0.0.1.0.0_fi_pa3.0.0.0.4.61.100.73.0.0_t00_pb_pc_pd_pe_ga0_gb1_gc10.0_ge0000000000_gh_gf_gg_gd0000000_ha89.89_hb49.1.53.80_hc4.65.58.4.65.58_hd39.1.49.49_ia_if_ib_id_ic3.55.55.61.0_jc_ie_ja_jb_jd_je_jf_jg_ka12.55.60.55.0_kb12.55.60.55_kc_kd_ke_kf_la_lb_oa_os_ob_oc_od_oe_of_lc_m00_n00_s00_og_oh_oo_op_oq_or_om_on_ok_ol_oi_oj_ad0.0.0.0.0.0.0.0.0.0
1-confident=54**aa26.43.1.43.66.15.62.0.42.47_ab_ac_ba50_bb18.1_bc217.500.9.0.1.0_bd18_be180_ca74.0.41.74.21.0.29.0.3.0.60.80_da1.0.0.100_db_dd9.3.30.35.59.50_dh1.30.50.50.0_di7_qa_qb_dc5.1.1.1.1_eh_ea34.eae2d5.EAE2D5.56.0.0_ec10.61.eae2d5.eae2d5.56.62.51.1_ed21.58.1.1.eae2d5.7E7E7E_ef_eg_r00_fa4.50.50.50.37.51.000000_fb7_fh_fc2.DE0000.55.2.DE0000.55.56.61.61.56.50.50_fj0.0.0_fd1.0.10.eae2d5.56_fe56.62_ff0000000000_fg1.51.56.0.0.1.0.0_fi_pa3.0.0.0.4.61.100.73.0.0_t00_pb_pc_pd_pe_ga0_gb1_gc5.0_ge0000000000_gh_gf_gg_gd0000000_ha89.89_hb49.1.62.99_hc1.33.39.1.33.39_hd24.1.49.49_ia_if_ib_id_ic3.55.55.61.0_jc_ie_ja_jb_jd_je_jf_jg_ka12.55.60.55.0_kb12.55.60.55_kc_kd_ke_kf_la_lb_oa_os_ob_oc_od_oe_of_lc_m00_n00_s00_og_oh_oo_op_oq_or_om_on_ok_ol_oi_oj_ad0.0.0.0.0.0.0.0.0.0
1-disappointed=54**aa87.34.0.36.26.0.0.0.36.26_ab_ac_ba44_bb17.1_bc217.500.9.0.1.0_bd17_be180_ca74.0.41.74.21.0.29.0.3.0.60.80_da1.0.0.100_db_dd9.3.30.35.59.50_dh1.30.50.50.0_di7_qa_qb_dc5.1.1.1.1_eh_ea34.eae2d5.EAE2D5.56.0.0_ec10.61.eae2d5.eae2d5.56.62.51.1_ed21.58.1.1.eae2d5.7E7E7E_ef_eg_r00_fa4.50.50.50.37.51.000000_fb7_fh_fc2.DE0000.55.2.DE0000.55.56.61.61.56.50.50_fj0.0.0_fd1.0.10.eae2d5.56_fe56.62_ff0000000000_fg1.51.56.0.0.1.0.0_fi_pa3.0.0.0.4.61.100.73.0.0_t00_pb_pc_pd_pe_ga0_gb1_gc15.0_ge0000000000_gh_gf_gg_gd0000000_ha84.84_hb25.1.16.99_hc0.62.10.0.62.10_hd6.1.49.49_ia_if_ib_id_ic3.55.55.61.0_jc_ie_ja_jb_jd_je_jf_jg_ka12.55.60.55.0_kb12.55.60.55_kc_kd_ke_kf_la_lb_oa_os_ob_oc_od_oe_of_lc_m00_n00_s00_og_oh_oo_op_oq_or_om_on_ok_ol_oi_oj_ad0.0.0.0.0.0.0.0.0.0
1-encourage=54**aa16.44.1.8.50.16.44.1.8.50_ab_ac_ba44_bb5.1_bc217.500.9.0.1.0_bd20_be177_ca74.0.41.74.21.0.29.0.3.0.60.80_da1.0.0.100_db_dd9.3.30.35.59.50_dh1.30.50.50.0_di7_qa_qb_dc5.1.1.1.1_eh_ea34.eae2d5.EAE2D5.56.0.0_ec10.61.eae2d5.eae2d5.56.62.51.1_ed21.58.1.1.eae2d5.7E7E7E_ef_eg_r00_fa4.50.50.50.37.51.000000_fb7_fh_fc2.DE0000.55.2.DE0000.55.56.61.61.56.50.50_fj0.0.0_fd1.0.10.eae2d5.56_fe56.62_ff0000000000_fg1.51.56.0.0.1.0.0_fi_pa3.0.0.0.4.61.100.73.0.0_t00_pb_pc_pd_pe_ga0_gb1_gc10.0_ge0000000000_gh_gf_gg_gd0000000_ha0.0_hb49.1.44.99_hc0.59.39.0.59.39_hd0.1.49.49_ia_if_ib_id_ic3.55.55.61.0_jc_ie_ja_jb_jd_je_jf_jg_ka12.55.60.55.0_kb12.55.60.55_kc_kd_ke_kf_la_lb_oa_os_ob_oc_od_oe_of_lc_m00_n00_s00_og_oh_oo_op_oq_or_om_on_ok_ol_oi_oj_ad0.0.0.0.0.0.0.0.0.0
1-happy=54**aa6.41.0.8.72.6.41.0.8.72_ab_ac_ba50_bb44.1_bc217.500.9.0.1.0_bd44_be180_ca74.0.41.74.21.0.29.0.3.0.60.80_da1.0.0.100_db_dd9.3.30.35.59.50_dh1.30.50.50.0_di7_qa_qb_dc5.1.1.1.1_eh_ea34.eae2d5.EAE2D5.56.0.0_ec10.61.eae2d5.eae2d5.56.62.51.1_ed21.58.1.1.eae2d5.7E7E7E_ef_eg_r00_fa4.50.50.50.37.51.000000_fb7_fh_fc2.DE0000.55.2.DE0000.55.56.61.61.56.50.50_fj0.0.0_fd1.0.10.eae2d5.56_fe56.62_ff0000000000_fg1.51.56.0.0.1.0.0_fi_pa3.0.0.0.4.61.100.73.0.0_t00_pb_pc_pd_pe_ga0_gb1_gc10.0_ge0000000000_gh_gf_gg_gd0000000_ha0.0_hb49.1.44.99_hc0.79.54.0.79.54_hd25.1.49.49_ia_if_ib_id_ic3.55.55.61.0_jc_ie_ja_jb_jd_je_jf_jg_ka12.55.60.55.0_kb12.55.60.55_kc_kd_ke_kf_la_lb_oa_os_ob_oc_od_oe_of_lc_m00_n00_s00_og_oh_oo_op_oq_or_om_on_ok_ol_oi_oj_ad0.0.0.0.0.0.0.0.0.0
1-horny=54**aa12.54.0.28.77.13.68.1.16.34_ab_ac_ba57_bb43.1_bc217.500.9.0.1.0_bd43_be180_ca74.0.41.74.21.0.29.0.3.0.60.80_da1.0.0.100_db_dd12.3.30.35.59.50_dh1.30.50.50.0_di7_qa_qb_dc5.1.1.1.1_eh_ea34.eae2d5.EAE2D5.56.0.0_ec10.61.eae2d5.eae2d5.56.62.51.1_ed21.58.1.1.eae2d5.7E7E7E_ef_eg_r00_fa4.50.50.50.37.51.000000_fb7_fh_fc2.DE0000.55.2.DE0000.55.56.61.61.56.50.50_fj0.0.0_fd1.0.10.eae2d5.56_fe56.62_ff0000000000_fg1.51.56.0.0.1.0.0_fi_pa3.0.0.0.4.61.100.73.0.0_t00_pb_pc_pd_pe_ga0_gb1_gc60.0_ge0000000000_gh_gf_gg_gd0000000_ha82.82_hb54.1.38.80_hc0.38.23.0.38.23_hd38.1.44.11_ia_if_ib_id_ic3.55.55.61.0_jc_ie_ja_jb_jd_je_jf_jg_ka12.55.60.55.0_kb12.55.60.55_kc_kd_ke_kf_la_lb_oa_os_ob_oc_od_oe_of_lc_m00_n00_s00_og_oh_oo_op_oq_or_om_on_ok_ol_oi_oj_ad0.0.0.0.0.0.0.0.0.0
1-humble=54**aa84.31.0.8.55.16.84.0.8.55_ab_ac_ba50_bb17.1_bc217.500.9.0.1.0_bd17_be180_ca74.0.41.74.21.0.29.0.3.0.60.80_da1.0.0.100_db_dd10.3.30.35.59.50_dh1.30.50.50.0_di7_qa_qb_dc5.1.1.1.1_eh_ea34.eae2d5.EAE2D5.56.0.0_ec10.61.eae2d5.eae2d5.56.62.51.1_ed21.58.1.1.eae2d5.7E7E7E_ef_eg_r00_fa4.50.50.50.37.51.000000_fb7_fh_fc2.DE0000.55.2.DE0000.55.56.61.61.56.50.50_fj0.0.0_fd1.0.10.eae2d5.56_fe56.62_ff0000000000_fg1.51.56.0.0.1.0.0_fi_pa3.0.0.0.4.61.100.73.0.0_t00_pb_pc_pd_pe_ga0_gb1_gc10.0_ge0000000000_gh_gf_gg_gd0000000_ha0.0_hb49.1.44.99_hc0.48.10.0.48.10_hd34.1.49.49_ia_if_ib_id_ic3.55.55.61.0_jc_ie_ja_jb_jd_je_jf_jg_ka12.55.60.55.0_kb12.55.60.55_kc_kd_ke_kf_la_lb_oa_os_ob_oc_od_oe_of_lc_m00_n00_s00_og_oh_oo_op_oq_or_om_on_ok_ol_oi_oj_ad0.0.0.0.0.0.0.0.0.0
1-loss=54**aa20.81.1.28.33.25.59.0.16.38_ab_ac_ba50_bb47.1_bc217.500.9.0.1.0_bd47_be180_ca74.0.41.74.21.0.29.0.3.0.60.80_da1.0.0.100_db_dd8.3.30.35.59.50_dh1.30.50.50.0_di7_qa_qb_dc5.1.1.1.1_eh_ea34.eae2d5.EAE2D5.56.0.0_ec10.61.eae2d5.eae2d5.56.62.51.1_ed21.58.1.1.eae2d5.7E7E7E_ef_eg_r00_fa4.50.50.50.37.51.000000_fb7_fh_fc2.DE0000.55.2.DE0000.55.56.61.61.56.50.50_fj0.0.0_fd1.0.10.eae2d5.56_fe56.62_ff0000000000_fg1.51.56.0.0.1.0.0_fi_pa3.0.0.0.4.61.100.73.0.0_t00_pb_pc_pd_pe_ga0_gb1_gc0.5_ge0000000000_gh_gf_gg_gd0000000_ha86.86_hb49.1.60.81_hc3.86.48.3.86.48_hd21.1.49.49_ia_if_ib_id_ic3.55.55.61.0_jc_ie_ja_jb_jd_je_jf_jg_ka12.55.60.55.0_kb12.55.60.55_kc_kd_ke_kf_la_lb_oa_os_ob_oc_od_oe_of_lc_m00_n00_s00_og_oh_oo_op_oq_or_om_on_ok_ol_oi_oj_ad0.0.0.0.0.0.0.0.0.0
1-mirror=54**aa41.28.1.39.47.41.28.1.39.47_ab_ac_ba50_bb17.1_bc217.500.9.0.1.0_bd17_be180_ca74.0.41.74.21.0.29.0.3.0.60.80_da1.0.0.100_db_dd9.3.30.35.59.50_dh1.30.50.50.0_di7_qa_qb_dc5.1.1.1.1_eh_ea34.eae2d5.EAE2D5.56.0.0_ec10.61.eae2d5.eae2d5.56.62.51.1_ed21.58.1.1.eae2d5.7E7E7E_ef_eg_r00_fa4.50.50.50.37.51.000000_fb7_fh_fc2.DE0000.55.2.DE0000.55.56.61.61.56.50.50_fj0.0.0_fd1.0.10.eae2d5.56_fe56.62_ff0000000000_fg1.51.56.0.0.1.0.0_fi_pa3.0.0.0.4.61.100.73.0.0_t00_pb_pc_pd_pe_ga0_gb1_gc30.0_ge0000100010_gh_gf_gg_gd0000000_ha89.89_hb49.1.44.99_hc0.59.65.0.59.65_hd25.1.49.49_ia_if_ib_id_ic3.55.55.61.0_jc_ie_ja_jb_jd_je_jf_jg_ka12.55.60.55.0_kb12.55.60.55_kc_kd_ke_kf_la_lb_oa_os_ob_oc_od_oe_of_lc_m00_n00_s00_og_oh_oo_op_oq_or_om_on_ok_ol_oi_oj_ad0.0.0.0.0.0.0.0.0.0
1-serene=54**aa2.89.1.17.29.2.89.1.17.29_ab_ac_ba50_bb15.1_bc217.500.9.0.1.0_bd15_be180_ca74.0.41.74.21.0.29.0.3.0.60.80_da1.0.0.100_db_dd9.3.30.35.59.50_dh1.30.50.50.0_di7_qa_qb_dc5.1.1.1.1_eh_ea34.eae2d5.EAE2D5.56.0.0_ec10.61.eae2d5.eae2d5.56.62.51.1_ed21.58.1.1.eae2d5.7E7E7E_ef_eg_r00_fa4.50.50.50.37.51.000000_fb_fh_fc2.DE0000.55.2.DE0000.55.56.61.61.56.50.50_fj0.0.0_fd1.0.10.eae2d5.56_fe56.62_ff0000000000_fg1.51.56.0.0.1.0.0_fi_pa3.0.0.0.4.61.100.73.0.0_t00_pb_pc_pd_pe_ga0_gb1_gc10.0_ge0000000000_gh_gf_gg_gd0000000_ha35.35_hb25.1.16.100_hc0.62.19.0.62.19_hd0.1.49.49_ia_if_ib_id_ic3.55.55.61.0_jc_ie_ja_jb_jd_je_jf_jg_ka12.55.60.55.0_kb12.55.60.55_kc_kd_ke_kf_la_lb_oa_os_ob_oc_od_oe_of_lc_m00_n00_s00_og_oh_oo_op_oq_or_om_on_ok_ol_oi_oj_ad0.0.0.0.0.0.0.0.0.0
1-shock=54**aa77.31.1.42.28.77.31.1.42.28_ab_ac_ba50_bb44.1_bc217.500.9.0.1.0_bd44_be180_ca74.0.41.74.21.0.29.0.3.0.60.80_da1.0.0.100_db_dd9.3.30.35.59.50_dh1.30.50.50.0_di7_qa_qb_dc5.1.1.1.1_eh_ea34.eae2d5.EAE2D5.56.0.0_ec10.61.eae2d5.eae2d5.56.62.51.1_ed21.58.1.1.eae2d5.7E7E7E_ef_eg_r00_fa4.50.50.50.37.51.000000_fb7_fh_fc2.DE0000.55.2.DE0000.55.56.61.61.56.50.50_fj0.0.0_fd1.0.10.eae2d5.56_fe56.62_ff0000000000_fg1.51.56.0.0.1.0.0_fi_pa3.0.0.0.4.61.100.73.0.0_t00_pb_pc_pd_pe_ga0_gb1_gc10.0_ge0000000000_gh_gf_gg_gd0000000_ha99.99_hb49.1.60.61_hc0.78.56.0.78.56_hd41.1.49.49_ia_if_ib_id_ic3.55.55.61.0_jc_ie_ja_jb_jd_je_jf_jg_ka12.55.60.55.0_kb12.55.60.55_kc_kd_ke_kf_la_lb_oa_os_ob_oc_od_oe_of_lc_m00_n00_s00_og_oh_oo_op_oq_or_om_on_ok_ol_oi_oj_ad0.0.0.0.0.0.0.0.0.0
1-strip=54**aa27.78.1.47.55.27.78.1.47.55_ab_ac_ba50_bb15.1_bc217.500.9.0.1.0_bd15_be180_ca74.0.41.74.21.10.29.5.10.0.60.80_da1.0.0.100_db_dd9.3.30.35.59.50_dh1.30.50.50.0_di7_qa_qb_dc5.1.1.1.1_eh_ea34.eae2d5.EAE2D5.56.0.0_ec10.61.eae2d5.eae2d5.56.62.51.1_ed21.58.1.1.eae2d5.7E7E7E_ef_eg_r00_fa4.50.50.50.37.51.000000_fb7_fh_fc2.DE0000.55.2.DE0000.55.56.61.61.56.50.50_fj0.0.0_fd1.0.10.eae2d5.56_fe56.62_ff0000000000_fg1.51.56.0.0.1.0.0_fi_pa3.0.0.0.4.61.100.73.0.0_t00_pb_pc_pd_pe_ga0_gb1_gc49.0_ge0000000000_gh_gf_gg_gd0000000_ha95.95_hb49.1.2.81_hc0.59.39.0.59.39_hd6.1.49.49_ia_if_ib_id_ic3.55.55.61.0_jc_ie_ja_jb_jd_je_jf_jg_ka12.55.60.55.0_kb12.55.60.55_kc_kd_ke_kf_la_lb_oa_os_ob_oc_od_oe_of_lc_m00_n00_s00_og_oh_oo_op_oq_or_om_on_ok_ol_oi_oj_ad0.0.0.0.0.0.0.0.0.0
1-unsure=54**aa7.79.1.16.35.7.73.1.16.54_ab_ac_ba60_bb13.0_bc217.500.9.0.1.0_bd20_be177_ca74.0.41.74.21.10.29.5.10.0.60.80_da1.0.0.100_db_dd9.3.30.35.59.50_dh1.30.50.50.0_di7_qa_qb_dc5.1.1.1.1_eh_ea34.eae2d5.EAE2D5.56.0.0_ec10.61.eae2d5.eae2d5.56.62.51.1_ed21.58.1.1.eae2d5.7E7E7E_ef_eg_r00_fa4.50.50.50.37.51.000000_fb7_fh_fc2.DE0000.55.2.DE0000.55.56.61.61.56.50.50_fj0.0.0_fd1.0.10.eae2d5.56_fe56.62_ff0000000000_fg1.51.56.0.0.1.0.0_fi_pa3.0.0.0.4.61.100.73.0.0_t00_pb_pc_pd_pe_ga0_gb1_gc10.0_ge0000000000_gh_gf_gg_gd0000000_ha84.84_hb65.1.28.80_hc0.54.23.0.54.23_hd5.1.49.49_ia_if_ib_id_ic3.55.55.61.0_jc_ie_ja_jb_jd_je_jf_jg_ka12.55.60.55.0_kb12.55.60.55_kc_kd_ke_kf_la_lb_oa_os_ob_oc_od_oe_of_lc_m00_n00_s00_og_oh_oo_op_oq_or_om_on_ok_ol_oi_oj_ad0.0.0.0.0.0.0.0.0.0

2-annoyed=54**aa6.62.1.16.28.6.73.1.42.54_ab_ac_ba50_bb29.1_bc217.500.9.0.1.0_bd29_be180_ca74.0.41.74.21.10.29.5.10.0.60.80_da1.0.0.100_db_dd9.3.30.35.59.50_dh1.30.50.50.0_di7_qa_qb_dc5.1.1.1.1_eh_ea34.eae2d5.EAE2D5.56.0.0_ec10.61.eae2d5.eae2d5.56.62.51.1_ed21.58.1.1.eae2d5.7E7E7E_ef_eg_r00_fa4.50.50.50.37.51.000000_fb7_fh_fc2.DE0000.55.2.DE0000.55.56.61.61.56.50.50_fj0.0.0_fd1.0.10.eae2d5.56_fe56.62_ff0000000000_fg1.51.56.0.0.1.0.0_fi_pa3.0.0.0.4.61.100.73.0.0_t00_pb_pc_pd_pe_ga0_gb1_gc20.0_ge0000000000_gh_gf_gg_gd0000000_ha84.84_hb50.1.50.80_hc2.54.22.2.54.22_hd11.1.50.49_ia_if_ib_id_ic_jc_ie_ja_jb_jd_je_jf_jg_ka12.55.60.55.0_kb12.55.60.55_kc_kd_ke_kf_la_lb_oa_os_ob_oc_od_oe_of_lc_m00_n00_s00_og_oh_oo_op_oq_or_om_on_ok_ol_oi_oj_ad0.0.0.0.0.0.0.0.0.0
2-apology=54**aa16.83.0.9.61.16.83.0.9.61_ab_ac_ba55_bb15.1_bc217.500.9.0.1.0_bd20_be178_ca74.0.41.74.21.10.29.5.10.0.60.80_da1.0.0.100_db_dd9.3.30.35.59.50_dh1.30.50.50.0_di7_qa_qb_dc5.1.1.1.1_eh_ea34.eae2d5.EAE2D5.56.0.0_ec10.61.eae2d5.eae2d5.56.62.51.1_ed21.58.1.1.eae2d5.7E7E7E_ef_eg_r00_fa4.50.50.50.37.51.000000_fb7_fh_fc2.DE0000.55.2.DE0000.55.56.61.61.56.50.50_fj0.0.0_fd1.0.10.eae2d5.56_fe56.62_ff0000000000_fg1.51.56.0.0.1.0.0_fi_pa3.0.0.0.4.61.100.73.0.0_t00_pb_pc_pd_pe_ga0_gb1_gc20.0_ge0000000000_gh_gf_gg_gd0000000_ha80.80_hb68.1.21.80_hc0.78.46.0.78.46_hd51.1.50.50_ia_if_ib_id_ic_jc_ie_ja_jb_jd_je_jf_jg_ka12.55.60.55.0_kb12.55.60.55_kc_kd_ke_kf_la_lb_oa_os_ob_oc_od_oe_of_lc_m00_n00_s00_og_oh_oo_op_oq_or_om_on_ok_ol_oi_oj_ad0.0.0.0.0.0.0.0.0.0
2-awkward=54**aa5.92.0.1.70.5.92.0.1.70_ab_ac_ba61_bb43.1_bc217.500.9.0.1.0_bd43_be180_ca74.0.41.74.21.10.29.5.10.0.60.80_da1.0.0.100_db_dd9.3.30.35.59.50_dh1.30.50.50.0_di7_qa_qb_dc5.1.1.1.1_eh_ea34.eae2d5.EAE2D5.56.0.0_ec10.61.eae2d5.eae2d5.56.62.51.1_ed21.58.1.1.eae2d5.7E7E7E_ef_eg_r00_fa4.50.50.50.37.51.000000_fb7_fh_fc2.DE0000.55.2.DE0000.55.56.61.61.56.50.50_fj0.0.0_fd1.0.10.eae2d5.56_fe56.62_ff0000000000_fg1.51.56.0.0.1.0.0_fi_pa3.0.0.0.4.61.100.73.0.0_t00_pb_pc_pd_pe_ga0_gb1_gc45.0_ge0000000000_gh_gf_gg_gd0000000_ha82.82_hb100.1.44.80_hc4.63.45.4.63.45_hd33.1.49.49_ia_if_ib_id_ic_jc_ie_ja_jb_jd_je_jf_jg_ka12.55.60.61.0_kb12.55.60.61_kc_kd_ke_kf_la_lb_oa_os_ob_oc_od_oe_of_lc_m00_n00_s00_og_oh_oo_op_oq_or_om_on_ok_ol_oi_oj_ad0.0.0.0.0.0.0.0.0.0
2-calm=54**aa10.87.0.0.35.11.86.0.42.49_ab_ac_ba50_bb17.1_bc217.500.9.0.1.0_bd17_be180_ca74.0.41.74.21.10.29.5.10.0.60.80_da1.0.0.100_db_dd9.3.30.35.59.50_dh1.30.50.50.0_di7_qa_qb_dc5.1.1.1.1_eh_ea34.eae2d5.EAE2D5.56.0.0_ec10.61.eae2d5.eae2d5.56.62.51.1_ed21.58.1.1.eae2d5.7E7E7E_ef_eg_r00_fa4.50.50.50.37.51.000000_fb7_fh_fc2.DE0000.55.2.DE0000.55.56.61.61.56.50.50_fj0.0.0_fd1.0.10.eae2d5.56_fe56.62_ff0000000000_fg1.51.56.0.0.1.0.0_fi_pa3.0.0.0.4.61.100.73.0.0_t00_pb_pc_pd_pe_ga0_gb1_gc20.0_ge0000000000_gh_gf_gg_gd0000000_ha89.89_hb50.1.60.99_hc0.59.39.0.59.39_hd0.1.49.49_ia_if_ib_id_ic_jc_ie_ja_jb_jd_je_jf_jg_ka12.55.60.61.0_kb12.55.60.61_kc_kd_ke_kf_la_lb_oa_os_ob_oc_od_oe_of_lc_m00_n00_s00_og_oh_oo_op_oq_or_om_on_ok_ol_oi_oj_ad0.0.0.0.0.0.0.0.0.0
2-cheer=54**aa24.41.1.8.62.9.95.0.0.33_ab_ac_ba59_bb45.1_bc217.500.9.0.1.0_bd43_be182_ca74.0.41.74.21.10.29.5.10.0.60.80_da1.0.0.100_db_dd9.3.30.35.59.50_dh1.30.50.50.0_di7_qa_qb_dc5.1.1.1.1_eh_ea34.eae2d5.EAE2D5.56.0.0_ec10.61.eae2d5.eae2d5.56.62.51.1_ed21.58.1.1.eae2d5.7E7E7E_ef_eg_r00_fa4.50.50.50.37.51.000000_fb7_fh_fc2.DE0000.55.2.DE0000.55.56.61.61.56.50.50_fj0.0.0_fd1.0.10.eae2d5.56_fe56.62_ff0000000000_fg1.51.56.0.0.1.0.0_fi_pa3.0.0.0.4.61.100.73.0.0_t00_pb_pc_pd_pe_ga0_gb1_gc20.0_ge0000000000_gh_gf_gg_gd0000000_ha0.0_hb49.1.44.80_hc0.78.46.0.78.46_hd23.1.50.50_ia_if_ib_id_ic_jc_ie_ja_jb_jd_je_jf_jg_ka12.55.60.61.0_kb12.55.60.61_kc_kd_ke_kf_la_lb_oa_os_ob_oc_od_oe_of_lc_m00_n00_s00_og_oh_oo_op_oq_or_om_on_ok_ol_oi_oj_ad0.0.0.0.0.0.0.0.0.0
2-concerned=54**aa7.69.1.16.48.6.56.1.28.42_ab_ac_ba50_bb17.1_bc217.500.9.0.1.0_bd17_be180_ca74.0.41.74.21.10.29.5.10.0.60.80_da1.0.0.100_db_dd9.3.30.35.59.50_dh1.30.50.50.0_di7_qa_qb_dc5.1.1.1.1_eh_ea34.eae2d5.EAE2D5.56.0.0_ec10.61.eae2d5.eae2d5.56.62.51.1_ed21.58.1.1.eae2d5.7E7E7E_ef_eg_r00_fa4.50.50.50.37.51.000000_fb7_fh_fc2.DE0000.55.2.DE0000.55.56.61.61.56.50.50_fj0.0.0_fd1.0.10.eae2d5.56_fe56.62_ff0000000000_fg1.51.56.0.0.1.0.0_fi_pa3.0.0.0.4.61.100.73.0.0_t00_pb_pc_pd_pe_ga0_gb1_gc20.0_ge0000000000_gh_gf_gg_gd0000000_ha89.89_hb49.1.53.80_hc4.65.58.4.65.58_hd39.1.49.49_ia_if_ib_id_ic_jc_ie_ja_jb_jd_je_jf_jg_ka12.55.60.61.0_kb12.55.60.61_kc_kd_ke_kf_la_lb_oa_os_ob_oc_od_oe_of_lc_m00_n00_s00_og_oh_oo_op_oq_or_om_on_ok_ol_oi_oj_ad0.0.0.0.0.0.0.0.0.0
2-confident=54**aa26.43.1.43.66.15.62.0.42.47_ab_ac_ba50_bb18.1_bc217.500.9.0.1.0_bd18_be180_ca74.0.41.74.21.10.29.5.10.0.60.80_da1.0.0.100_db_dd9.3.30.35.59.50_dh1.30.50.50.0_di7_qa_qb_dc5.1.1.1.1_eh_ea34.eae2d5.EAE2D5.56.0.0_ec10.61.eae2d5.eae2d5.56.62.51.1_ed21.58.1.1.eae2d5.7E7E7E_ef_eg_r00_fa4.50.50.50.37.51.000000_fb7_fh_fc2.DE0000.55.2.DE0000.55.56.61.61.56.50.50_fj0.0.0_fd1.0.10.eae2d5.56_fe56.62_ff0000000000_fg1.51.56.0.0.1.0.0_fi_pa3.0.0.0.4.61.100.73.0.0_t00_pb_pc_pd_pe_ga0_gb1_gc15.0_ge0000000000_gh_gf_gg_gd0000000_ha89.89_hb49.1.62.99_hc1.33.39.1.33.39_hd24.1.49.49_ia_if_ib_id_ic_jc_ie_ja_jb_jd_je_jf_jg_ka12.55.60.61.0_kb12.55.60.61_kc_kd_ke_kf_la_lb_oa_os_ob_oc_od_oe_of_lc_m00_n00_s00_og_oh_oo_op_oq_or_om_on_ok_ol_oi_oj_ad0.0.0.0.0.0.0.0.0.0
2-disappointed=54**aa6.54.1.42.45.6.71.1.16.26_ab_ac_ba42_bb25.1_bc217.500.9.0.1.0_bd15_be180_ca74.0.41.74.21.10.29.5.10.0.60.80_da1.0.0.100_db_dd9.3.30.35.59.50_dh1.30.50.50.0_di7_qa_qb_dc5.1.1.1.1_eh_ea34.eae2d5.EAE2D5.56.0.0_ec10.61.eae2d5.eae2d5.56.62.51.1_ed21.58.1.1.eae2d5.7E7E7E_ef_eg_r00_fa4.50.50.50.37.51.000000_fb7_fh_fc2.DE0000.55.2.DE0000.55.56.61.61.56.50.50_fj0.0.0_fd1.0.10.eae2d5.56_fe56.62_ff0000000000_fg1.51.56.0.0.1.0.0_fi_pa3.0.0.0.4.61.100.73.0.0_t00_pb_pc_pd_pe_ga0_gb1_gc25.0_ge0000000000_gh_gf_gg_gd0000000_ha84.84_hb25.1.16.99_hc0.62.10.0.62.10_hd6.1.49.49_ia_if_ib_id_ic_jc_ie_ja_jb_jd_je_jf_jg_ka12.55.60.61.0_kb12.55.60.61_kc_kd_ke_kf_la_lb_oa_os_ob_oc_od_oe_of_lc_m00_n00_s00_og_oh_oo_op_oq_or_om_on_ok_ol_oi_oj_ad0.0.0.0.0.0.0.0.0.0
2-encourage=54**aa16.44.1.8.50.16.44.1.8.50_ab_ac_ba44_bb5.1_bc217.500.9.0.1.0_bd20_be177_ca74.0.41.74.21.10.29.5.10.0.60.80_da1.0.0.100_db_dd9.3.30.35.59.50_dh1.30.50.50.0_di7_qa_qb_dc5.1.1.1.1_eh_ea34.eae2d5.EAE2D5.56.0.0_ec10.61.eae2d5.eae2d5.56.62.51.1_ed21.58.1.1.eae2d5.7E7E7E_ef_eg_r00_fa4.50.50.50.37.51.000000_fb7_fh_fc2.DE0000.55.2.DE0000.55.56.61.61.56.50.50_fj0.0.0_fd1.0.10.eae2d5.56_fe56.62_ff0000000000_fg1.51.56.0.0.1.0.0_fi_pa3.0.0.0.4.61.100.73.0.0_t00_pb_pc_pd_pe_ga0_gb1_gc20.0_ge0000000000_gh_gf_gg_gd0000000_ha0.0_hb49.1.44.99_hc0.59.39.0.59.39_hd0.1.49.49_ia_if_ib_id_ic_jc_ie_ja_jb_jd_je_jf_jg_ka12.55.60.61.0_kb12.55.60.61_kc_kd_ke_kf_la_lb_oa_os_ob_oc_od_oe_of_lc_m00_n00_s00_og_oh_oo_op_oq_or_om_on_ok_ol_oi_oj_ad0.0.0.0.0.0.0.0.0.0
2-happy=54**aa6.41.0.8.72.6.41.0.8.72_ab_ac_ba50_bb44.1_bc217.500.9.0.1.0_bd44_be180_ca74.0.41.74.21.10.29.5.10.0.60.80_da1.0.0.100_db_dd9.3.30.35.59.50_dh1.30.50.50.0_di7_qa_qb_dc5.1.1.1.1_eh_ea34.eae2d5.EAE2D5.56.0.0_ec10.61.eae2d5.eae2d5.56.62.51.1_ed21.58.1.1.eae2d5.7E7E7E_ef_eg_r00_fa4.50.50.50.37.51.000000_fb7_fh_fc2.DE0000.55.2.DE0000.55.56.61.61.56.50.50_fj0.0.0_fd1.0.10.eae2d5.56_fe56.62_ff0000000000_fg1.51.56.0.0.1.0.0_fi_pa3.0.0.0.4.61.100.73.0.0_t00_pb_pc_pd_pe_ga0_gb1_gc20.0_ge0000000000_gh_gf_gg_gd0000000_ha0.0_hb49.1.44.99_hc0.79.54.0.79.54_hd25.1.49.49_ia_if_ib_id_ic_jc_ie_ja_jb_jd_je_jf_jg_ka12.55.60.61.0_kb12.55.60.61_kc_kd_ke_kf_la_lb_oa_os_ob_oc_od_oe_of_lc_m00_n00_s00_og_oh_oo_op_oq_or_om_on_ok_ol_oi_oj_ad0.0.0.0.0.0.0.0.0.0
2-horny=54**aa12.54.0.28.77.13.68.1.16.34_ab_ac_ba57_bb43.1_bc217.500.9.0.1.0_bd43_be180_ca74.0.41.74.21.10.29.5.10.0.60.80_da1.0.0.100_db_dd12.3.30.35.59.50_dh1.30.50.50.0_di7_qa_qb_dc5.1.1.1.1_eh_ea34.eae2d5.EAE2D5.56.0.0_ec10.61.eae2d5.eae2d5.56.62.51.1_ed21.58.1.1.eae2d5.7E7E7E_ef_eg_r00_fa4.50.50.50.37.51.000000_fb7_fh_fc2.DE0000.55.2.DE0000.55.56.61.61.56.50.50_fj0.0.0_fd1.0.10.eae2d5.56_fe56.62_ff0000000000_fg1.51.56.0.0.1.0.0_fi_pa3.0.0.0.4.61.100.73.0.0_t00_pb_pc_pd_pe_ga0_gb1_gc65.0_ge0000000000_gh_gf_gg_gd0000000_ha82.82_hb54.1.38.80_hc0.38.23.0.38.23_hd38.1.44.11_ia_if_ib_id_ic_jc_ie_ja_jb_jd_je_jf_jg_ka12.55.60.61.0_kb12.55.60.61_kc_kd_ke_kf_la_lb_oa_os_ob_oc_od_oe_of_lc_m00_n00_s00_og_oh_oo_op_oq_or_om_on_ok_ol_oi_oj_ad0.0.0.0.0.0.0.0.0.0
2-humble=54**aa84.31.0.8.55.16.84.0.8.55_ab_ac_ba50_bb17.1_bc217.500.9.0.1.0_bd17_be180_ca74.0.41.74.21.10.29.5.10.0.60.80_da1.0.0.100_db_dd10.3.30.35.59.50_dh1.30.50.50.0_di7_qa_qb_dc5.1.1.1.1_eh_ea34.eae2d5.EAE2D5.56.0.0_ec10.61.eae2d5.eae2d5.56.62.51.1_ed21.58.1.1.eae2d5.7E7E7E_ef_eg_r00_fa4.50.50.50.37.51.000000_fb7_fh_fc2.DE0000.55.2.DE0000.55.56.61.61.56.50.50_fj0.0.0_fd1.0.10.eae2d5.56_fe56.62_ff0000000000_fg1.51.56.0.0.1.0.0_fi_pa3.0.0.0.4.61.100.73.0.0_t00_pb_pc_pd_pe_ga0_gb1_gc20.0_ge0000000000_gh_gf_gg_gd0000000_ha0.0_hb49.1.44.99_hc0.48.10.0.48.10_hd34.1.49.49_ia_if_ib_id_ic_jc_ie_ja_jb_jd_je_jf_jg_ka12.55.60.61.0_kb12.55.60.61_kc_kd_ke_kf_la_lb_oa_os_ob_oc_od_oe_of_lc_m00_n00_s00_og_oh_oo_op_oq_or_om_on_ok_ol_oi_oj_ad0.0.0.0.0.0.0.0.0.0
2-loss=54**aa6.68.1.49.34.97.29.0.29.34_ab_ac_ba56_bb43.1_bc217.500.9.0.1.0_bd43_be180_ca74.0.41.74.21.10.29.5.10.0.60.80_da1.0.0.100_db_dd9.3.30.35.59.50_dh1.30.50.50.0_di7_qa_qb_dc5.1.1.1.1_eh_ea34.eae2d5.EAE2D5.56.0.0_ec10.61.eae2d5.eae2d5.56.62.51.1_ed21.58.1.1.eae2d5.7E7E7E_ef_eg_r00_fa4.50.50.50.37.51.000000_fb7_fh_fc2.DE0000.55.2.DE0000.55.56.61.61.56.50.50_fj0.0.0_fd1.0.10.eae2d5.56_fe56.62_ff0000000000_fg1.51.56.0.0.1.0.0_fi_pa3.0.0.0.4.61.100.73.0.0_t00_pb_pc_pd_pe_ga0_gb1_gc29.0_ge0000000000_gh_gf_gg_gd0000000_ha89.89_hb78.1.44.99_hc0.59.39.0.59.39_hd33.1.49.49_ia_if_ib_id_ic_jc_ie_ja_jb_jd_je_jf_jg_ka12.55.60.61.0_kb12.55.60.61_kc_kd_ke_kf_la_lb_oa_os_ob_oc_od_oe_of_lc_m00_n00_s00_og_oh_oo_op_oq_or_om_on_ok_ol_oi_oj_ad0.0.0.0.0.0.0.0.0.0
2-serene=54**aa2.89.1.17.29.2.89.1.17.29_ab_ac_ba50_bb15.1_bc217.500.9.0.1.0_bd15_be180_ca74.0.41.74.21.10.29.5.10.0.60.80_da1.0.0.100_db_dd9.3.30.35.59.50_dh1.30.50.50.0_di7_qa_qb_dc5.1.1.1.1_eh_ea34.eae2d5.EAE2D5.56.0.0_ec10.61.eae2d5.eae2d5.56.62.51.1_ed21.58.1.1.eae2d5.7E7E7E_ef_eg_r00_fa4.50.50.50.37.51.000000_fb_fh_fc2.DE0000.55.2.DE0000.55.56.61.61.56.50.50_fj0.0.0_fd1.0.10.eae2d5.56_fe56.62_ff0000000000_fg1.51.56.0.0.1.0.0_fi_pa3.0.0.0.4.61.100.73.0.0_t00_pb_pc_pd_pe_ga0_gb1_gc20.0_ge0000000000_gh_gf_gg_gd0000000_ha35.35_hb25.1.16.100_hc0.62.19.0.62.19_hd0.1.49.49_ia_if_ib_id_ic_jc_ie_ja_jb_jd_je_jf_jg_ka12.55.60.61.0_kb12.55.60.61_kc_kd_ke_kf_la_lb_oa_os_ob_oc_od_oe_of_lc_m00_n00_s00_og_oh_oo_op_oq_or_om_on_ok_ol_oi_oj_ad0.0.0.0.0.0.0.0.0.0
2-shock=54**aa77.31.1.42.28.77.31.1.42.28_ab_ac_ba50_bb44.1_bc217.500.9.0.1.0_bd44_be180_ca74.0.41.74.21.10.29.5.10.0.60.80_da1.0.0.100_db_dd9.3.30.35.59.50_dh1.30.50.50.0_di7_qa_qb_dc5.1.1.1.1_eh_ea34.eae2d5.EAE2D5.56.0.0_ec10.61.eae2d5.eae2d5.56.62.51.1_ed21.58.1.1.eae2d5.7E7E7E_ef_eg_r00_fa4.50.50.50.37.51.000000_fb7_fh_fc2.DE0000.55.2.DE0000.55.56.61.61.56.50.50_fj0.0.0_fd1.0.10.eae2d5.56_fe56.62_ff0000000000_fg1.51.56.0.0.1.0.0_fi_pa3.0.0.0.4.61.100.73.0.0_t00_pb_pc_pd_pe_ga0_gb1_gc20.0_ge0000000000_gh_gf_gg_gd0000000_ha99.99_hb49.1.60.61_hc0.78.56.0.78.56_hd41.1.49.49_ia_if_ib_id_ic_jc_ie_ja_jb_jd_je_jf_jg_ka12.55.60.61.0_kb12.55.60.61_kc_kd_ke_kf_la_lb_oa_os_ob_oc_od_oe_of_lc_m00_n00_s00_og_oh_oo_op_oq_or_om_on_ok_ol_oi_oj_ad0.0.0.0.0.0.0.0.0.0
2-strip=54**aa25.48.1.47.100.25.48.1.47.100_ab_ac_ba44_bb29.1_bc217.500.9.0.1.0_bd29_be180_ca74.0.41.74.21.10.29.5.10.0.60.80_da1.0.0.100_db_dd9.3.30.35.59.50_dh1.30.50.50.0_di7_qa_qb_dc5.1.1.1.1_eh_ea34.eae2d5.EAE2D5.56.0.0_ec10.61.eae2d5.eae2d5.56.62.51.1_ed21.58.1.1.eae2d5.7E7E7E_ef_eg_r00_fa4.50.50.50.37.51.000000_fb7_fh_fc2.DE0000.55.2.DE0000.55.56.61.61.56.50.50_fj0.0.0_fd1.0.10.eae2d5.56_fe56.62_ff0000000000_fg1.51.56.0.0.1.0.0_fi_pa3.0.0.0.4.61.100.73.0.0_t00_pb_pc_pd_pe_ga0_gb1_gc29.0_ge0000000000_gh_gf_gg_gd0000000_ha89.89_hb49.1.6.99_hc0.59.39.0.59.39_hd33.1.49.49_ia_if_ib_id_ic_jc_ie_ja_jb_jd_je_jf_jg_ka12.55.60.61.0_kb12.55.60.61_kc_kd_ke_kf_la_lb_oa_os_ob_oc_od_oe_of_lc_m00_n00_s00_og_oh_oo_op_oq_or_om_on_ok_ol_oi_oj_ad0.0.0.0.0.0.0.0.0.0
2-stripped=54**aa9.58.1.47.39.9.58.1.47.39_ab_ac_ba50_bb18.1_bc217.500.9.0.1.0_bd18_be180_ca74.0.41.74.21.10.29.5.10.0.60.80_da1.0.0.100_db_dd9.3.30.35.59.50_dh1.30.50.50.0_di7_qa_qb_dc5.1.1.1.1_eh_ea34.eae2d5.EAE2D5.56.0.0_ec10.61.eae2d5.eae2d5.56.62.51.1_ed21.58.1.1.eae2d5.7E7E7E_ef_eg_r00_fa4.50.50.50.37.51.000000_fb7_fh_fc2.DE0000.55.2.DE0000.55.56.61.61.56.50.50_fj0.0.0_fd1.0.10.eae2d5.56_fe56.62_ff0000000000_fg1.51.56.0.0.1.0.0_fi_pa3.0.0.0.4.61.100.73.0.0_t00_pb_pc_pd_pe_ga0_gb1_gc30.0_ge0000000000_gh_gf_gg_gd0000000_ha81.81_hb70.1.2.81_hc0.59.39.0.59.39_hd4.1.49.49_ia_if_ib_id_ic_jc_ie_ja_jb_jd_je_jf_jg_ka12.55.60.61.0_kb12.55.60.61_kc_kd_ke_kf_la_lb_oa_os_ob_oc_od_oe_of_lc_m00_n00_s00_og_oh_oo_op_oq_or_om_on_ok_ol_oi_oj_ad0.0.0.0.0.0.0.0.0.0
2-unsure=54**aa7.79.1.16.35.7.73.1.16.54_ab_ac_ba60_bb13.0_bc217.500.9.0.1.0_bd20_be177_ca74.0.41.74.21.10.29.5.10.0.60.80_da1.0.0.100_db_dd9.3.30.35.59.50_dh1.30.50.50.0_di7_qa_qb_dc5.1.1.1.1_eh_ea34.eae2d5.EAE2D5.56.0.0_ec10.61.eae2d5.eae2d5.56.62.51.1_ed21.58.1.1.eae2d5.7E7E7E_ef_eg_r00_fa4.50.50.50.37.51.000000_fb7_fh_fc2.DE0000.55.2.DE0000.55.56.61.61.56.50.50_fj0.0.0_fd1.0.10.eae2d5.56_fe56.62_ff0000000000_fg1.51.56.0.0.1.0.0_fi_pa3.0.0.0.4.61.100.73.0.0_t00_pb_pc_pd_pe_ga0_gb1_gc20.0_ge0000000000_gh_gf_gg_gd0000000_ha84.84_hb65.1.28.80_hc0.54.23.0.54.23_hd5.1.49.49_ia_if_ib_id_ic_jc_ie_ja_jb_jd_je_jf_jg_ka12.55.60.61.0_kb12.55.60.61_kc_kd_ke_kf_la_lb_oa_os_ob_oc_od_oe_of_lc_m00_n00_s00_og_oh_oo_op_oq_or_om_on_ok_ol_oi_oj_ad0.0.0.0.0.0.0.0.0.0

3-annoyed=54**aa6.62.1.16.28.6.73.1.42.54_ab_ac_ba50_bb29.1_bc217.500.9.0.1.0_bd29_be180_ca74.0.41.74.21.10.29.5.10.0.60.80_da1.0.0.100_db_dd9.3.30.35.59.50_dh1.30.50.50.0_di7_qa_qb_dc5.1.1.1.1_eh_ea34.eae2d5.EAE2D5.56.0.0_ec10.61.eae2d5.eae2d5.56.62.51.1_ed21.58.1.1.eae2d5.7E7E7E_ef_eg_r00_fa4.50.50.50.37.51.000000_fb7_fh_fc2.DE0000.55.2.DE0000.55.56.61.61.56.50.50_fj0.0.0_fd1.0.10.eae2d5.56_fe56.62_ff0000000000_fg1.51.56.0.0.1.0.0_fi_pa3.0.0.0.4.61.100.73.0.0_t00_pb_pc_pd_pe_ga0_gb1_gc30.0_ge0000000000_gh_gf_gg_gd0000000_ha84.84_hb50.1.50.80_hc2.54.22.2.54.22_hd11.1.50.49_ia_if_ib_id_ic_jc_ie_ja_jb_jd_je_jf_jg_ka_kb12.55.60.61_kc_kd_ke_kf_la_lb_oa_os_ob_oc_od_oe_of_lc_m00_n00_s00_og_oh_oo_op_oq_or_om_on_ok_ol_oi_oj_ad0.0.0.0.0.0.0.0.0.0
3-apology=54**aa16.83.0.9.61.16.83.0.9.61_ab_ac_ba55_bb15.1_bc217.500.9.0.1.0_bd20_be178_ca74.0.41.74.21.10.29.5.10.0.60.80_da1.0.0.100_db_dd9.3.30.35.59.50_dh1.30.50.50.0_di7_qa_qb_dc5.1.1.1.1_eh_ea34.eae2d5.EAE2D5.56.0.0_ec10.61.eae2d5.eae2d5.56.62.51.1_ed21.58.1.1.eae2d5.7E7E7E_ef_eg_r00_fa4.50.50.50.37.51.000000_fb7_fh_fc2.DE0000.55.2.DE0000.55.56.61.61.56.50.50_fj0.0.0_fd1.0.10.eae2d5.56_fe56.62_ff0000000000_fg1.51.56.0.0.1.0.0_fi_pa3.0.0.0.4.61.100.73.0.0_t00_pb_pc_pd_pe_ga0_gb1_gc30.0_ge0000000000_gh_gf_gg_gd0000000_ha80.80_hb68.1.21.80_hc0.78.46.0.78.46_hd51.1.50.50_ia_if_ib_id_ic_jc_ie_ja_jb_jd_je_jf_jg_ka_kb12.55.60.61_kc_kd_ke_kf_la_lb_oa_os_ob_oc_od_oe_of_lc_m00_n00_s00_og_oh_oo_op_oq_or_om_on_ok_ol_oi_oj_ad0.0.0.0.0.0.0.0.0.0
3-awkward=54**aa7.55.1.16.62.7.55.1.16.62_ab_ac_ba61_bb43.1_bc217.500.9.0.1.0_bd43_be180_ca74.0.41.74.21.10.29.5.10.0.60.80_da1.0.0.100_db_dd9.3.30.35.59.50_dh1.30.50.50.0_di7_qa_qb_dc5.1.1.1.1_eh_ea34.eae2d5.EAE2D5.56.0.0_ec10.61.eae2d5.eae2d5.56.62.51.1_ed21.58.1.1.eae2d5.7E7E7E_ef_eg_r00_fa4.50.50.50.37.51.000000_fb7_fh_fc2.DE0000.55.2.DE0000.55.56.61.61.56.50.50_fj0.0.0_fd1.0.10.eae2d5.56_fe56.62_ff0000000000_fg1.51.56.0.0.1.0.0_fi_pa3.0.0.0.4.61.100.73.0.0_t00_pb_pc_pd_pe_ga0_gb1_gc55.0_ge0000000000_gh_gf_gg_gd0000000_ha82.82_hb100.1.20.80_hc4.63.45.4.63.45_hd33.1.49.49_ia_if_ib_id_ic_jc_ie_ja_jb_jd_je_jf_jg_ka_kb12.55.60.61_kc_kd_ke_kf_la_lb_oa_os_ob_oc_od_oe_of_lc_m00_n00_s00_og_oh_oo_op_oq_or_om_on_ok_ol_oi_oj_ad0.0.0.0.0.0.0.0.0.0
3-calm=54**aa10.87.0.0.35.11.86.0.42.49_ab_ac_ba50_bb17.1_bc217.500.9.0.1.0_bd17_be180_ca74.0.41.74.21.10.29.5.10.0.60.80_da1.0.0.100_db_dd9.3.30.35.59.50_dh1.30.50.50.0_di7_qa_qb_dc5.1.1.1.1_eh_ea34.eae2d5.EAE2D5.56.0.0_ec10.61.eae2d5.eae2d5.56.62.51.1_ed21.58.1.1.eae2d5.7E7E7E_ef_eg_r00_fa4.50.50.50.37.51.000000_fb7_fh_fc2.DE0000.55.2.DE0000.55.56.61.61.56.50.50_fj0.0.0_fd1.0.10.eae2d5.56_fe56.62_ff0000000000_fg1.51.56.0.0.1.0.0_fi_pa3.0.0.0.4.61.100.73.0.0_t00_pb_pc_pd_pe_ga0_gb1_gc30.0_ge0000000000_gh_gf_gg_gd0000000_ha89.89_hb50.1.60.99_hc0.59.39.0.59.39_hd0.1.49.49_ia_if_ib_id_ic_jc_ie_ja_jb_jd_je_jf_jg_ka_kb12.55.60.61_kc_kd_ke_kf_la_lb_oa_os_ob_oc_od_oe_of_lc_m00_n00_s00_og_oh_oo_op_oq_or_om_on_ok_ol_oi_oj_ad0.0.0.0.0.0.0.0.0.0
3-cheer=54**aa24.41.1.8.62.8.95.0.4.33_ab_ac_ba59_bb45.1_bc217.500.9.0.1.0_bd43_be182_ca74.0.41.74.21.10.29.5.10.0.60.80_da1.0.0.100_db_dd9.3.30.35.59.50_dh1.30.50.50.0_di7_qa_qb_dc5.1.1.1.1_eh_ea34.eae2d5.EAE2D5.56.0.0_ec10.61.eae2d5.eae2d5.56.62.51.1_ed21.58.1.1.eae2d5.7E7E7E_ef_eg_r00_fa4.50.50.50.37.51.000000_fb7_fh_fc2.DE0000.55.2.DE0000.55.56.61.61.56.50.50_fj0.0.0_fd1.0.10.eae2d5.56_fe56.62_ff0000000000_fg1.51.56.0.0.1.0.0_fi_pa3.0.0.0.4.61.100.73.0.0_t00_pb_pc_pd_pe_ga0_gb1_gc30.0_ge0000000000_gh_gf_gg_gd0000000_ha0.0_hb49.1.44.80_hc0.78.46.0.78.46_hd23.1.50.50_ia_if_ib_id_ic_jc_ie_ja_jb_jd_je_jf_jg_ka_kb12.55.60.61_kc_kd_ke_kf_la_lb_oa_os_ob_oc_od_oe_of_lc_m00_n00_s00_og_oh_oo_op_oq_or_om_on_ok_ol_oi_oj_ad0.0.0.0.0.0.0.0.0.0
3-concerned=54**aa7.69.1.16.48.6.56.1.28.42_ab_ac_ba50_bb17.1_bc217.500.9.0.1.0_bd17_be180_ca74.0.41.74.21.10.29.5.10.0.60.80_da1.0.0.100_db_dd9.3.30.35.59.50_dh1.30.50.50.0_di7_qa_qb_dc5.1.1.1.1_eh_ea34.eae2d5.EAE2D5.56.0.0_ec10.61.eae2d5.eae2d5.56.62.51.1_ed21.58.1.1.eae2d5.7E7E7E_ef_eg_r00_fa4.50.50.50.37.51.000000_fb7_fh_fc2.DE0000.55.2.DE0000.55.56.61.61.56.50.50_fj0.0.0_fd1.0.10.eae2d5.56_fe56.62_ff0000000000_fg1.51.56.0.0.1.0.0_fi_pa3.0.0.0.4.61.100.73.0.0_t00_pb_pc_pd_pe_ga0_gb1_gc30.0_ge0000000000_gh_gf_gg_gd0000000_ha89.89_hb49.1.53.80_hc4.65.58.4.65.58_hd39.1.49.49_ia_if_ib_id_ic_jc_ie_ja_jb_jd_je_jf_jg_ka_kb12.55.60.61_kc_kd_ke_kf_la_lb_oa_os_ob_oc_od_oe_of_lc_m00_n00_s00_og_oh_oo_op_oq_or_om_on_ok_ol_oi_oj_ad0.0.0.0.0.0.0.0.0.0
3-confident=54**aa26.43.1.43.66.15.62.0.42.47_ab_ac_ba50_bb17.1_bc217.500.9.0.1.0_bd17_be180_ca74.0.41.74.21.10.29.5.10.0.60.80_da1.0.0.100_db_dd9.3.30.35.59.50_dh1.30.50.50.0_di7_qa_qb_dc5.1.1.1.1_eh_ea34.eae2d5.EAE2D5.56.0.0_ec10.61.eae2d5.eae2d5.56.62.51.1_ed21.58.1.1.eae2d5.7E7E7E_ef_eg_r00_fa4.50.50.50.37.51.000000_fb7_fh_fc2.DE0000.55.2.DE0000.55.56.61.61.56.50.50_fj0.0.0_fd1.0.10.eae2d5.56_fe56.62_ff0000000000_fg1.51.56.0.0.1.0.0_fi_pa3.0.0.0.4.61.100.73.0.0_t00_pb_pc_pd_pe_ga0_gb1_gc25.0_ge0000000000_gh_gf_gg_gd0000000_ha89.89_hb49.1.62.99_hc1.33.39.1.33.39_hd24.1.49.49_ia_if_ib_id_ic_jc_ie_ja_jb_jd_je_jf_jg_ka_kb12.55.60.61_kc_kd_ke_kf_la_lb_oa_os_ob_oc_od_oe_of_lc_m00_n00_s00_og_oh_oo_op_oq_or_om_on_ok_ol_oi_oj_ad0.0.0.0.0.0.0.0.0.0
3-disappointed=54**aa6.54.1.42.45.6.71.1.16.26_ab_ac_ba42_bb25.1_bc217.500.9.0.1.0_bd15_be180_ca74.0.41.74.21.10.29.5.10.0.60.80_da1.0.0.100_db_dd9.3.30.35.59.50_dh1.30.50.50.0_di7_qa_qb_dc5.1.1.1.1_eh_ea34.eae2d5.EAE2D5.56.0.0_ec10.61.eae2d5.eae2d5.56.62.51.1_ed21.58.1.1.eae2d5.7E7E7E_ef_eg_r00_fa4.50.50.50.37.51.000000_fb7_fh_fc2.DE0000.55.2.DE0000.55.56.61.61.56.50.50_fj0.0.0_fd1.0.10.eae2d5.56_fe56.62_ff0000000000_fg1.51.56.0.0.1.0.0_fi_pa3.0.0.0.4.61.100.73.0.0_t00_pb_pc_pd_pe_ga0_gb1_gc35.0_ge0000000000_gh_gf_gg_gd0000000_ha84.84_hb25.1.16.99_hc0.62.10.0.62.10_hd6.1.49.49_ia_if_ib_id_ic_jc_ie_ja_jb_jd_je_jf_jg_ka_kb12.55.60.61_kc_kd_ke_kf_la_lb_oa_os_ob_oc_od_oe_of_lc_m00_n00_s00_og_oh_oo_op_oq_or_om_on_ok_ol_oi_oj_ad0.0.0.0.0.0.0.0.0.0
3-encourage=54**aa16.44.1.8.50.16.44.1.8.50_ab_ac_ba44_bb5.1_bc217.500.9.0.1.0_bd20_be177_ca74.0.41.74.21.10.29.5.10.0.60.80_da1.0.0.100_db_dd9.3.30.35.59.50_dh1.30.50.50.0_di7_qa_qb_dc5.1.1.1.1_eh_ea34.eae2d5.EAE2D5.56.0.0_ec10.61.eae2d5.eae2d5.56.62.51.1_ed21.58.1.1.eae2d5.7E7E7E_ef_eg_r00_fa4.50.50.50.37.51.000000_fb7_fh_fc2.DE0000.55.2.DE0000.55.56.61.61.56.50.50_fj0.0.0_fd1.0.10.eae2d5.56_fe56.62_ff0000000000_fg1.51.56.0.0.1.0.0_fi_pa3.0.0.0.4.61.100.73.0.0_t00_pb_pc_pd_pe_ga0_gb1_gc30.0_ge0000000000_gh_gf_gg_gd0000000_ha0.0_hb49.1.44.99_hc0.59.39.0.59.39_hd0.1.49.49_ia_if_ib_id_ic_jc_ie_ja_jb_jd_je_jf_jg_ka_kb12.55.60.61_kc_kd_ke_kf_la_lb_oa_os_ob_oc_od_oe_of_lc_m00_n00_s00_og_oh_oo_op_oq_or_om_on_ok_ol_oi_oj_ad0.0.0.0.0.0.0.0.0.0
3-happy=54**aa6.41.0.8.72.6.41.0.8.72_ab_ac_ba50_bb44.1_bc217.500.9.0.1.0_bd44_be180_ca74.0.41.74.21.10.29.5.10.0.60.80_da1.0.0.100_db_dd9.3.30.35.59.50_dh1.30.50.50.0_di7_qa_qb_dc5.1.1.1.1_eh_ea34.eae2d5.EAE2D5.56.0.0_ec10.61.eae2d5.eae2d5.56.62.51.1_ed21.58.1.1.eae2d5.7E7E7E_ef_eg_r00_fa4.50.50.50.37.51.000000_fb7_fh_fc2.DE0000.55.2.DE0000.55.56.61.61.56.50.50_fj0.0.0_fd1.0.10.eae2d5.56_fe56.62_ff0000000000_fg1.51.56.0.0.1.0.0_fi_pa3.0.0.0.4.61.100.73.0.0_t00_pb_pc_pd_pe_ga0_gb1_gc30.0_ge0000000000_gh_gf_gg_gd0000000_ha0.0_hb49.1.44.99_hc0.79.54.0.79.54_hd25.1.49.49_ia_if_ib_id_ic_jc_ie_ja_jb_jd_je_jf_jg_ka_kb12.55.60.61_kc_kd_ke_kf_la_lb_oa_os_ob_oc_od_oe_of_lc_m00_n00_s00_og_oh_oo_op_oq_or_om_on_ok_ol_oi_oj_ad0.0.0.0.0.0.0.0.0.0
3-help=54**aa18.52.0.12.87.18.52.0.12.86_ab_ac_ba50_bb44.1_bc217.500.9.0.1.0_bd44_be180_ca74.0.41.74.21.10.29.5.10.0.60.80_da1.0.0.100_db_dd0.3.30.35.59.50_dh1.30.50.50.0_di7_qa_qb_dc5.1.1.1.1_eh_ea34.eae2d5.EAE2D5.56.0.0_ec10.61.eae2d5.eae2d5.56.62.51.1_ed21.58.1.1.eae2d5.7E7E7E_ef_eg_r00_fa4.50.50.50.37.51.000000_fb7_fh_fc2.DE0000.55.2.DE0000.55.56.61.61.56.50.50_fj0.0.0_fd1.0.10.eae2d5.56_fe56.62_ff0000000000_fg1.51.56.0.0.1.0.0_fi_pa3.0.0.0.4.61.100.73.0.0_t00_pb_pc_pd_pe_ga0_gb1_gc30.0_ge0000000000_gh_gf_gg_gd0000000_ha82.82_hb49.1.31.80_hc0.49.39.0.49.39_hd23.1.50.35_ia_if_ib_id_ic_jc_ie_ja_jb_jd_je_jf_jg_ka_kb12.55.60.61_kc_kd_ke_kf_la_lb_oa_os_ob_oc_od_oe_of_lc_m00_n00_s00_og_oh_oo_op_oq_or_om_on_ok_ol_oi_oj_ad0.0.0.0.0.0.0.0.0.0
3-horny=54**aa12.54.0.28.77.13.68.1.16.34_ab_ac_ba57_bb43.1_bc217.500.9.0.1.0_bd43_be180_ca74.0.41.74.21.10.29.5.10.0.60.80_da1.0.0.100_db_dd12.3.30.35.59.50_dh1.30.50.50.0_di7_qa_qb_dc5.1.1.1.1_eh_ea34.eae2d5.EAE2D5.56.0.0_ec10.61.eae2d5.eae2d5.56.62.51.1_ed21.58.1.1.eae2d5.7E7E7E_ef_eg_r00_fa4.50.50.50.37.51.000000_fb7_fh_fc2.DE0000.55.2.DE0000.55.56.61.61.56.50.50_fj0.0.0_fd1.0.10.eae2d5.56_fe56.62_ff0000000000_fg1.51.56.0.0.1.0.0_fi_pa3.0.0.0.4.61.100.73.0.0_t00_pb_pc_pd_pe_ga0_gb1_gc70.0_ge0000000000_gh_gf_gg_gd0000000_ha82.82_hb54.1.38.80_hc0.38.23.0.38.23_hd38.1.44.11_ia_if_ib_id_ic_jc_ie_ja_jb_jd_je_jf_jg_ka_kb12.55.60.61_kc_kd_ke_kf_la_lb_oa_os_ob_oc_od_oe_of_lc_m00_n00_s00_og_oh_oo_op_oq_or_om_on_ok_ol_oi_oj_ad0.0.0.0.0.0.0.0.0.0
3-humble=54**aa84.31.0.8.55.16.84.0.8.55_ab_ac_ba50_bb17.1_bc217.500.9.0.1.0_bd17_be180_ca74.0.41.74.21.10.29.5.10.0.60.80_da1.0.0.100_db_dd10.3.30.35.59.50_dh1.30.50.50.0_di7_qa_qb_dc5.1.1.1.1_eh_ea34.eae2d5.EAE2D5.56.0.0_ec10.61.eae2d5.eae2d5.56.62.51.1_ed21.58.1.1.eae2d5.7E7E7E_ef_eg_r00_fa4.50.50.50.37.51.000000_fb7_fh_fc2.DE0000.55.2.DE0000.55.56.61.61.56.50.50_fj0.0.0_fd1.0.10.eae2d5.56_fe56.62_ff0000000000_fg1.51.56.0.0.1.0.0_fi_pa3.0.0.0.4.61.100.73.0.0_t00_pb_pc_pd_pe_ga0_gb1_gc30.0_ge0000000000_gh_gf_gg_gd0000000_ha0.0_hb49.1.44.99_hc0.48.10.0.48.10_hd34.1.49.49_ia_if_ib_id_ic_jc_ie_ja_jb_jd_je_jf_jg_ka_kb12.55.60.61_kc_kd_ke_kf_la_lb_oa_os_ob_oc_od_oe_of_lc_m00_n00_s00_og_oh_oo_op_oq_or_om_on_ok_ol_oi_oj_ad0.0.0.0.0.0.0.0.0.0
3-loss=54**aa11.73.1.16.29.11.71.1.49.41_ab_ac_ba50_bb28.1_bc217.500.9.0.1.0_bd28_be180_ca74.0.41.74.21.10.29.5.10.0.60.80_da1.0.0.100_db_dd9.3.30.35.59.50_dh1.30.50.50.0_di7_qa_qb_dc5.1.1.1.1_eh_ea34.eae2d5.EAE2D5.56.0.0_ec10.61.eae2d5.eae2d5.56.62.51.1_ed21.58.1.1.eae2d5.7E7E7E_ef_eg_r00_fa4.50.50.50.37.51.000000_fb7_fh_fc2.DE0000.55.2.DE0000.55.56.61.61.56.50.50_fj0.0.0_fd1.0.10.eae2d5.56_fe56.62_ff0000000000_fg1.51.56.0.0.1.0.0_fi_pa3.0.0.0.4.61.100.73.0.0_t00_pb_pc_pd_pe_ga0_gb1_gc56.34_ge0000000000_gh_gf_gg_gd0000000_ha87.87_hb49.1.44.99_hc0.59.39.0.59.39_hd11.1.49.49_ia_if_ib_id_ic_jc_ie_ja_jb_jd_je_jf_jg_ka_kb12.55.60.61_kc_kd_ke_kf_la_lb_oa_os_ob_oc_od_oe_of_lc_m00_n00_s00_og_oh_oo_op_oq_or_om_on_ok_ol_oi_oj_ad0.0.0.0.0.0.0.0.0.0
3-serene=54**aa2.89.1.17.29.2.89.1.17.29_ab_ac_ba50_bb15.1_bc217.500.9.0.1.0_bd15_be180_ca74.0.41.74.21.10.29.5.10.0.60.80_da1.0.0.100_db_dd9.3.30.35.59.50_dh1.30.50.50.0_di7_qa_qb_dc5.1.1.1.1_eh_ea34.eae2d5.EAE2D5.56.0.0_ec10.61.eae2d5.eae2d5.56.62.51.1_ed21.58.1.1.eae2d5.7E7E7E_ef_eg_r00_fa4.50.50.50.37.51.000000_fb_fh_fc2.DE0000.55.2.DE0000.55.56.61.61.56.50.50_fj0.0.0_fd1.0.10.eae2d5.56_fe56.62_ff0000000000_fg1.51.56.0.0.1.0.0_fi_pa3.0.0.0.4.61.100.73.0.0_t00_pb_pc_pd_pe_ga0_gb1_gc30.0_ge0000000000_gh_gf_gg_gd0000000_ha35.35_hb25.1.16.100_hc0.62.19.0.62.19_hd0.1.49.49_ia_if_ib_id_ic_jc_ie_ja_jb_jd_je_jf_jg_ka_kb12.55.60.61_kc_kd_ke_kf_la_lb_oa_os_ob_oc_od_oe_of_lc_m00_n00_s00_og_oh_oo_op_oq_or_om_on_ok_ol_oi_oj_ad0.0.0.0.0.0.0.0.0.0
3-shock=54**aa77.31.1.42.28.77.31.1.42.28_ab_ac_ba50_bb44.1_bc217.500.9.0.1.0_bd44_be180_ca74.0.41.74.21.10.29.5.10.0.60.80_da1.0.0.100_db_dd9.3.30.35.59.50_dh1.30.50.50.0_di7_qa_qb_dc5.1.1.1.1_eh_ea34.eae2d5.EAE2D5.56.0.0_ec10.61.eae2d5.eae2d5.56.62.51.1_ed21.58.1.1.eae2d5.7E7E7E_ef_eg_r00_fa4.50.50.50.37.51.000000_fb7_fh_fc2.DE0000.55.2.DE0000.55.56.61.61.56.50.50_fj0.0.0_fd1.0.10.eae2d5.56_fe56.62_ff0000000000_fg1.51.56.0.0.1.0.0_fi_pa3.0.0.0.4.61.100.73.0.0_t00_pb_pc_pd_pe_ga0_gb1_gc30.0_ge0000000000_gh_gf_gg_gd0000000_ha99.99_hb49.1.60.61_hc0.78.56.0.78.56_hd41.1.49.49_ia_if_ib_id_ic_jc_ie_ja_jb_jd_je_jf_jg_ka_kb12.55.60.61_kc_kd_ke_kf_la_lb_oa_os_ob_oc_od_oe_of_lc_m00_n00_s00_og_oh_oo_op_oq_or_om_on_ok_ol_oi_oj_ad0.0.0.0.0.0.0.0.0.0
3-strip=54**aa14.91.1.45.10.14.89.1.49.51_ab_ac_ba57_bb25.1_bc217.500.9.0.1.0_bd25_be180_ca74.0.41.74.21.10.29.5.10.0.60.80_da1.0.0.100_db_dd9.3.30.35.59.50_dh1.30.50.50.0_di7_qa_qb_dc5.1.1.1.1_eh_ea34.eae2d5.EAE2D5.56.0.0_ec10.61.eae2d5.eae2d5.56.62.51.1_ed21.58.1.1.eae2d5.7E7E7E_ef_eg_r00_fa4.50.50.50.37.51.000000_fb_fh_fc2.DE0000.55.2.DE0000.55.56.61.61.56.50.50_fj0.0.0_fd1.0.10.eae2d5.56_fe56.62_ff0000000000_fg1.51.56.0.0.1.0.0_fi_pa3.0.0.0.4.61.100.73.0.0_t00_pb_pc_pd_pe_ga0_gb1_gc56.34_ge0000000000_gh_gf_gg_gd0000000_ha30.30_hb100.1.21.86_hc4.70.39.4.70.39_hd51.1.49.49_ia_if_ib_id_ic_jc_ie_ja_jb_jd_je_jf_jg_ka_kb12.55.60.61_kc_kd_ke_kf_la_lb_oa_os_ob_oc_od_oe_of_lc_m00_n00_s00_og_oh_oo_op_oq_or_om_on_ok_ol_oi_oj_ad0.0.0.0.0.0.0.0.0.0
3-stripped=54**aa6.98.1.4.36.7.73.1.17.42_ab_ac_ba50_bb43.1_bc217.500.9.0.1.0_bd43_be180_ca74.0.41.74.21.10.29.5.10.0.60.80_da1.0.0.100_db_dd9.3.30.35.59.50_dh1.30.50.50.0_di7_qa_qb_dc5.1.1.1.1_eh_ea34.eae2d5.EAE2D5.56.0.0_ec10.61.eae2d5.eae2d5.56.62.51.1_ed21.58.1.1.eae2d5.7E7E7E_ef_eg_r00_fa4.50.50.50.37.51.000000_fb7_fh_fc2.DE0000.55.2.DE0000.55.56.61.61.56.50.50_fj0.0.0_fd1.0.10.eae2d5.56_fe56.62_ff0000000000_fg1.51.56.0.0.1.0.0_fi_pa3.0.0.0.4.61.100.73.0.0_t00_pb_pc_pd_pe_ga0_gb1_gc56.42_ge0000000000_gh_gf_gg_gd0000000_ha0.0_hb72.1.43.99_hc0.59.39.0.59.39_hd35.1.49.49_ia_if_ib_id_ic_jc_ie_ja_jb_jd_je_jf_jg_ka_kb12.55.60.61_kc_kd_ke_kf_la_lb_oa_os_ob_oc_od_oe_of_lc_m00_n00_s00_og_oh_oo_op_oq_or_om_on_ok_ol_oi_oj_ad0.0.0.0.0.0.0.0.0.0
3-unsure=54**aa7.79.1.16.35.7.73.1.16.54_ab_ac_ba60_bb13.0_bc217.500.9.0.1.0_bd20_be177_ca74.0.41.74.21.10.29.5.10.0.60.80_da1.0.0.100_db_dd9.3.30.35.59.50_dh1.30.50.50.0_di7_qa_qb_dc5.1.1.1.1_eh_ea34.eae2d5.EAE2D5.56.0.0_ec10.61.eae2d5.eae2d5.56.62.51.1_ed21.58.1.1.eae2d5.7E7E7E_ef_eg_r00_fa4.50.50.50.37.51.000000_fb7_fh_fc2.DE0000.55.2.DE0000.55.56.61.61.56.50.50_fj0.0.0_fd1.0.10.eae2d5.56_fe56.62_ff0000000000_fg1.51.56.0.0.1.0.0_fi_pa3.0.0.0.4.61.100.73.0.0_t00_pb_pc_pd_pe_ga0_gb1_gc30.0_ge0000000000_gh_gf_gg_gd0000000_ha84.84_hb65.1.28.80_hc0.54.23.0.54.23_hd5.1.49.49_ia_if_ib_id_ic_jc_ie_ja_jb_jd_je_jf_jg_ka_kb12.55.60.61_kc_kd_ke_kf_la_lb_oa_os_ob_oc_od_oe_of_lc_m00_n00_s00_og_oh_oo_op_oq_or_om_on_ok_ol_oi_oj_ad0.0.0.0.0.0.0.0.0.0

4-annoyed=54**aa6.62.1.16.28.6.73.1.42.54_ab_ac_ba50_bb29.1_bc185.500.9.0.1.0_bd29_be180_ca74.0.41.74.21.10.29.5.10.0.60.80_da1.0.0.100_db_dd9.3.30.35.59.50_dh1.30.50.50.0_di7_qa_qb_dc5.1.1.1.1_eh_ea34.eae2d5.EAE2D5.56.0.0_ec10.61.eae2d5.eae2d5.56.62.51.1_ed21.58.1.1.eae2d5.7E7E7E_ef_eg_r00_fa4.50.50.50.37.51.000000_fb7_fh_fc2.DE0000.55.2.DE0000.55.56.61.61.56.50.50_fj0.0.0_fd1.0.10.eae2d5.56_fe56.62_ff0000000000_fg1.51.56.0.0.1.0.0_fi_pa3.0.0.0.4.61.100.73.0.0_t00_pb_pc_pd_pe_ga0_gb1_gc40.0_ge0000000000_gh_gf_gg_gd0000000_ha84.84_hb50.1.50.80_hc2.54.22.2.54.22_hd11.1.50.49_ia_if_ib_id_ic_jc_ie_ja_jb_jd_je_jf_jg_ka_kb_kc_kd_ke_kf_la_lb_oa_os_ob_oc_od_oe_of_lc_m00_n00_s00_og_oh_oo_op_oq_or_om_on_ok_ol_oi_oj_ad0.0.0.0.0.0.0.0.0.0
4-apology=54**aa16.83.0.9.61.16.83.0.9.61_ab_ac_ba55_bb15.1_bc185.500.9.0.1.0_bd20_be178_ca74.0.41.74.21.10.29.5.10.0.60.80_da1.0.0.100_db_dd9.3.30.35.59.50_dh1.30.50.50.0_di7_qa_qb_dc5.1.1.1.1_eh_ea34.eae2d5.EAE2D5.56.0.0_ec10.61.eae2d5.eae2d5.56.62.51.1_ed21.58.1.1.eae2d5.7E7E7E_ef_eg_r00_fa4.50.50.50.37.51.000000_fb7_fh_fc2.DE0000.55.2.DE0000.55.56.61.61.56.50.50_fj0.0.0_fd1.0.10.eae2d5.56_fe56.62_ff0000000000_fg1.51.56.0.0.1.0.0_fi_pa3.0.0.0.4.61.100.73.0.0_t00_pb_pc_pd_pe_ga0_gb1_gc40.0_ge0000000000_gh_gf_gg_gd0000000_ha80.80_hb68.1.21.80_hc0.78.46.0.78.46_hd51.1.50.50_ia_if_ib_id_ic_jc_ie_ja_jb_jd_je_jf_jg_ka_kb_kc_kd_ke_kf_la_lb_oa_os_ob_oc_od_oe_of_lc_m00_n00_s00_og_oh_oo_op_oq_or_om_on_ok_ol_oi_oj_ad0.0.0.0.0.0.0.0.0.0
4-awkward=54**aa7.55.1.16.62.8.91.1.28.32_ab_ac_ba45_bb43.1_bc185.500.9.0.1.0_bd43_be180_ca74.0.41.74.21.10.29.5.10.0.60.80_da1.0.0.100_db_dd9.3.30.35.59.50_dh1.30.50.50.0_di7_qa_qb_dc5.1.1.1.1_eh_ea34.eae2d5.EAE2D5.56.0.0_ec10.61.eae2d5.eae2d5.56.62.51.1_ed21.58.1.1.eae2d5.7E7E7E_ef_eg_r00_fa4.50.50.50.37.51.000000_fb7_fh_fc2.DE0000.55.2.DE0000.55.56.61.61.56.50.50_fj0.0.0_fd1.0.10.eae2d5.56_fe56.62_ff0000000000_fg1.51.56.0.0.1.0.0_fi_pa3.0.0.0.4.61.100.73.0.0_t00_pb_pc_pd_pe_ga0_gb1_gc65.0_ge0000000000_gh_gf_gg_gd0000000_ha82.82_hb0.1.25.80_hc4.63.45.4.63.45_hd33.1.49.49_ia_if_ib_id_ic_jc_ie_ja_jb_jd_je_jf_jg_ka_kb_kc_kd_ke_kf_la_lb_oa_os_ob_oc_od_oe_of_lc_m00_n00_s00_og_oh_oo_op_oq_or_om_on_ok_ol_oi_oj_ad0.0.0.0.0.0.0.0.0.0
4-calm=54**aa10.87.0.0.35.11.86.0.42.49_ab_ac_ba50_bb17.1_bc185.500.9.0.1.0_bd17_be180_ca74.0.41.74.21.10.29.5.10.0.60.80_da1.0.0.100_db_dd9.3.30.35.59.50_dh1.30.50.50.0_di7_qa_qb_dc5.1.1.1.1_eh_ea34.eae2d5.EAE2D5.56.0.0_ec10.61.eae2d5.eae2d5.56.62.51.1_ed21.58.1.1.eae2d5.7E7E7E_ef_eg_r00_fa4.50.50.50.37.51.000000_fb7_fh_fc2.DE0000.55.2.DE0000.55.56.61.61.56.50.50_fj0.0.0_fd1.0.10.eae2d5.56_fe56.62_ff0000000000_fg1.51.56.0.0.1.0.0_fi_pa3.0.0.0.4.61.100.73.0.0_t00_pb_pc_pd_pe_ga0_gb1_gc40.0_ge0000000000_gh_gf_gg_gd0000000_ha89.89_hb50.1.60.99_hc0.59.39.0.59.39_hd0.1.49.49_ia_if_ib_id_ic_jc_ie_ja_jb_jd_je_jf_jg_ka_kb_kc_kd_ke_kf_la_lb_oa_os_ob_oc_od_oe_of_lc_m00_n00_s00_og_oh_oo_op_oq_or_om_on_ok_ol_oi_oj_ad0.0.0.0.0.0.0.0.0.0
4-cheer=54**aa24.41.1.8.62.8.95.0.4.33_ab_ac_ba59_bb45.1_bc185.500.9.0.1.0_bd43_be182_ca74.0.41.74.21.10.29.5.10.0.60.80_da1.0.0.100_db_dd9.3.30.35.59.50_dh1.30.50.50.0_di7_qa_qb_dc5.1.1.1.1_eh_ea34.eae2d5.EAE2D5.56.0.0_ec10.61.eae2d5.eae2d5.56.62.51.1_ed21.58.1.1.eae2d5.7E7E7E_ef_eg_r00_fa4.50.50.50.37.51.000000_fb7_fh_fc2.DE0000.55.2.DE0000.55.56.61.61.56.50.50_fj0.0.0_fd1.0.10.eae2d5.56_fe56.62_ff0000000000_fg1.51.56.0.0.1.0.0_fi_pa3.0.0.0.4.61.100.73.0.0_t00_pb_pc_pd_pe_ga0_gb1_gc40.0_ge0000000000_gh_gf_gg_gd0000000_ha0.0_hb49.1.44.80_hc0.78.46.0.78.46_hd23.1.50.50_ia_if_ib_id_ic_jc_ie_ja_jb_jd_je_jf_jg_ka_kb_kc_kd_ke_kf_la_lb_oa_os_ob_oc_od_oe_of_lc_m00_n00_s00_og_oh_oo_op_oq_or_om_on_ok_ol_oi_oj_ad0.0.0.0.0.0.0.0.0.0
4-concerned=54**aa7.69.1.16.48.6.56.1.28.42_ab_ac_ba50_bb17.1_bc185.500.9.0.1.0_bd17_be180_ca74.0.41.74.21.10.29.5.10.0.60.80_da1.0.0.100_db_dd9.3.30.35.59.50_dh1.30.50.50.0_di7_qa_qb_dc5.1.1.1.1_eh_ea34.eae2d5.EAE2D5.56.0.0_ec10.61.eae2d5.eae2d5.56.62.51.1_ed21.58.1.1.eae2d5.7E7E7E_ef_eg_r00_fa4.50.50.50.37.51.000000_fb7_fh_fc2.DE0000.55.2.DE0000.55.56.61.61.56.50.50_fj0.0.0_fd1.0.10.eae2d5.56_fe56.62_ff0000000000_fg1.51.56.0.0.1.0.0_fi_pa3.0.0.0.4.61.100.73.0.0_t00_pb_pc_pd_pe_ga0_gb1_gc40.0_ge0000000000_gh_gf_gg_gd0000000_ha89.89_hb49.1.53.80_hc4.65.58.4.65.58_hd39.1.49.49_ia_if_ib_id_ic_jc_ie_ja_jb_jd_je_jf_jg_ka_kb_kc_kd_ke_kf_la_lb_oa_os_ob_oc_od_oe_of_lc_m00_n00_s00_og_oh_oo_op_oq_or_om_on_ok_ol_oi_oj_ad0.0.0.0.0.0.0.0.0.0
4-confident=54**aa26.43.1.43.66.15.62.0.42.47_ab_ac_ba50_bb18.1_bc185.500.9.0.1.0_bd18_be180_ca74.0.41.74.21.10.29.5.10.0.60.80_da1.0.0.100_db_dd9.3.30.35.59.50_dh1.30.50.50.0_di7_qa_qb_dc5.1.1.1.1_eh_ea34.eae2d5.EAE2D5.56.0.0_ec10.61.eae2d5.eae2d5.56.62.51.1_ed21.58.1.1.eae2d5.7E7E7E_ef_eg_r00_fa4.50.50.50.37.51.000000_fb7_fh_fc2.DE0000.55.2.DE0000.55.56.61.61.56.50.50_fj0.0.0_fd1.0.10.eae2d5.56_fe56.62_ff0000000000_fg1.51.56.0.0.1.0.0_fi_pa3.0.0.0.4.61.100.73.0.0_t00_pb_pc_pd_pe_ga0_gb1_gc35.0_ge0000000000_gh_gf_gg_gd0000000_ha89.89_hb49.1.62.99_hc1.33.39.1.33.39_hd24.1.49.49_ia_if_ib_id_ic_jc_ie_ja_jb_jd_je_jf_jg_ka_kb_kc_kd_ke_kf_la_lb_oa_os_ob_oc_od_oe_of_lc_m00_n00_s00_og_oh_oo_op_oq_or_om_on_ok_ol_oi_oj_ad0.0.0.0.0.0.0.0.0.0
4-disappointed=54**aa6.54.1.42.45.6.71.1.16.26_ab_ac_ba42_bb25.1_bc185.500.9.0.1.0_bd15_be181_ca74.0.41.74.21.10.29.5.10.0.60.80_da1.0.0.100_db_dd9.3.30.35.59.50_dh1.30.50.50.0_di7_qa_qb_dc5.1.1.1.1_eh_ea34.eae2d5.EAE2D5.56.0.0_ec10.61.eae2d5.eae2d5.56.62.51.1_ed21.58.1.1.eae2d5.7E7E7E_ef_eg_r00_fa4.50.50.50.37.51.000000_fb7_fh_fc2.DE0000.55.2.DE0000.55.56.61.61.56.50.50_fj0.0.0_fd1.0.10.eae2d5.56_fe56.62_ff0000000000_fg1.51.56.0.0.1.0.0_fi_pa3.0.0.0.4.61.100.73.0.0_t00_pb_pc_pd_pe_ga0_gb1_gc45.0_ge0000000000_gh_gf_gg_gd0000000_ha84.84_hb25.1.16.99_hc0.62.10.0.62.10_hd6.1.49.49_ia_if_ib_id_ic_jc_ie_ja_jb_jd_je_jf_jg_ka_kb_kc_kd_ke_kf_la_lb_oa_os_ob_oc_od_oe_of_lc_m00_n00_s00_og_oh_oo_op_oq_or_om_on_ok_ol_oi_oj_ad0.0.0.0.0.0.0.0.0.0
4-encourage=54**aa16.44.1.8.50.16.44.1.8.50_ab_ac_ba44_bb5.1_bc185.500.9.0.1.0_bd20_be177_ca74.0.41.74.21.10.29.5.10.0.60.80_da1.0.0.100_db_dd9.3.30.35.59.50_dh1.30.50.50.0_di7_qa_qb_dc5.1.1.1.1_eh_ea34.eae2d5.EAE2D5.56.0.0_ec10.61.eae2d5.eae2d5.56.62.51.1_ed21.58.1.1.eae2d5.7E7E7E_ef_eg_r00_fa4.50.50.50.37.51.000000_fb7_fh_fc2.DE0000.55.2.DE0000.55.56.61.61.56.50.50_fj0.0.0_fd1.0.10.eae2d5.56_fe56.62_ff0000000000_fg1.51.56.0.0.1.0.0_fi_pa3.0.0.0.4.61.100.73.0.0_t00_pb_pc_pd_pe_ga0_gb1_gc40.0_ge0000000000_gh_gf_gg_gd0000000_ha0.0_hb49.1.44.99_hc0.59.39.0.59.39_hd0.1.49.49_ia_if_ib_id_ic_jc_ie_ja_jb_jd_je_jf_jg_ka_kb_kc_kd_ke_kf_la_lb_oa_os_ob_oc_od_oe_of_lc_m00_n00_s00_og_oh_oo_op_oq_or_om_on_ok_ol_oi_oj_ad0.0.0.0.0.0.0.0.0.0
4-happy=54**aa6.41.0.8.72.6.41.0.8.72_ab_ac_ba50_bb44.1_bc185.500.9.0.1.0_bd44_be180_ca74.0.41.74.21.10.29.5.10.0.60.80_da1.0.0.100_db_dd9.3.30.35.59.50_dh1.30.50.50.0_di7_qa_qb_dc5.1.1.1.1_eh_ea34.eae2d5.EAE2D5.56.0.0_ec10.61.eae2d5.eae2d5.56.62.51.1_ed21.58.1.1.eae2d5.7E7E7E_ef_eg_r00_fa4.50.50.50.37.51.000000_fb7_fh_fc2.DE0000.55.2.DE0000.55.56.61.61.56.50.50_fj0.0.0_fd1.0.10.eae2d5.56_fe56.62_ff0000000000_fg1.51.56.0.0.1.0.0_fi_pa3.0.0.0.4.61.100.73.0.0_t00_pb_pc_pd_pe_ga0_gb1_gc40.0_ge0000000000_gh_gf_gg_gd0000000_ha0.0_hb49.1.44.99_hc0.79.54.0.79.54_hd25.1.49.49_ia_if_ib_id_ic_jc_ie_ja_jb_jd_je_jf_jg_ka_kb_kc_kd_ke_kf_la_lb_oa_os_ob_oc_od_oe_of_lc_m00_n00_s00_og_oh_oo_op_oq_or_om_on_ok_ol_oi_oj_ad0.0.0.0.0.0.0.0.0.0
4-horny=54**aa7.93.1.49.50.9.69.1.16.34_ab_ac_ba57_bb43.1_bc185.500.9.0.1.0_bd43_be180_ca74.0.41.74.21.10.29.5.10.0.60.80_da1.0.0.100_db_dd12.3.30.35.59.50_dh1.30.50.50.0_di7_qa_qb_dc20.1.1.1.1_eh_ea34.eae2d5.EAE2D5.56.0.0_ec10.61.eae2d5.eae2d5.56.62.51.1_ed21.58.1.1.eae2d5.7E7E7E_ef_eg_r00_fa4.50.50.50.37.51.000000_fb7_fh_fc2.DE0000.55.2.DE0000.55.56.61.61.56.50.50_fj0.0.0_fd1.0.10.eae2d5.56_fe56.62_ff0000000000_fg1.51.56.0.0.1.0.0_fi_pa3.0.0.0.4.61.100.73.0.0_t00_pb_pc_pd_pe_ga0_gb1_gc75.0_ge0000000000_gh_gf_gg_gd0000000_ha67.67_hb54.1.38.80_hc0.57.23.0.57.23_hd38.1.44.11_ia_if_ib_id_ic_jc_ie_ja_jb_jd_je_jf_jg_ka_kb_kc_kd_ke_kf_la_lb_oa_os_ob_oc_od_oe_of_lc_m00_n00_s00_og_oh_oo_op_oq_or_om_on_ok_ol_oi_oj_ad0.0.0.0.0.0.0.0.0.0
4-humble=54**aa84.31.0.8.55.16.84.0.8.55_ab_ac_ba50_bb17.1_bc185.500.9.0.1.0_bd17_be180_ca74.0.41.74.21.10.29.5.10.0.60.80_da1.0.0.100_db_dd10.3.30.35.59.50_dh1.30.50.50.0_di7_qa_qb_dc5.1.1.1.1_eh_ea34.eae2d5.EAE2D5.56.0.0_ec10.61.eae2d5.eae2d5.56.62.51.1_ed21.58.1.1.eae2d5.7E7E7E_ef_eg_r00_fa4.50.50.50.37.51.000000_fb7_fh_fc2.DE0000.55.2.DE0000.55.56.61.61.56.50.50_fj0.0.0_fd1.0.10.eae2d5.56_fe56.62_ff0000000000_fg1.51.56.0.0.1.0.0_fi_pa3.0.0.0.4.61.100.73.0.0_t00_pb_pc_pd_pe_ga0_gb1_gc40.0_ge0000000000_gh_gf_gg_gd0000000_ha0.0_hb49.1.44.99_hc0.48.10.0.48.10_hd34.1.49.49_ia_if_ib_id_ic_jc_ie_ja_jb_jd_je_jf_jg_ka_kb_kc_kd_ke_kf_la_lb_oa_os_ob_oc_od_oe_of_lc_m00_n00_s00_og_oh_oo_op_oq_or_om_on_ok_ol_oi_oj_ad0.0.0.0.0.0.0.0.0.0
4-lossfirst=54**aa7.72.0.17.35.6.95.1.28.56_ab_ac_ba50_bb17.1_bc185.500.9.0.1.0_bd17_be180_ca74.0.41.74.21.10.29.5.10.0.60.80_da1.0.0.100_db_dd9.3.30.35.59.50_dh1.30.50.50.0_di7_qa_qb_dc20.1.1.1.1_eh_ea34.eae2d5.EAE2D5.56.0.0_ec10.61.eae2d5.eae2d5.56.62.51.1_ed21.58.1.1.eae2d5.7E7E7E_ef_eg_r00_fa4.50.50.50.37.51.000000_fb7_fh_fc2.DE0000.55.2.DE0000.55.56.61.61.56.50.50_fj0.0.0_fd1.0.10.eae2d5.56_fe56.62_ff0000000000_fg1.51.56.0.0.1.0.0_fi_pa3.0.0.0.4.61.100.73.0.0_t00_pb_pc_pd_pe_ga0_gb1_gc64.0_ge0000000000_gh_gf_gg_gd0000000_ha82.82_hb100.1.44.99_hc0.59.39.0.59.39_hd33.1.49.49_ia_if_ib_id_ic_jc_ie_ja_jb_jd_je_jf_jg_ka_kb_kc_kd_ke_kf_la_lb_oa_os_ob_oc_od_oe_of_lc_m00_n00_s00_og_oh_oo_op_oq_or_om_on_ok_ol_oi_oj_ad0.0.0.0.0.0.0.0.0.0
4-lossnotfirst=54**aa17.58.1.16.43.6.93.1.49.55_ab_ac_ba45_bb45.1_bc185.500.9.0.1.0_bd46_be178_ca74.0.41.74.21.10.29.5.10.0.60.80_da1.0.0.100_db_dd14.3.30.35.59.50_dh1.30.50.50.0_di7_qa_qb_dc30.1.1.1.1_eh_ea34.eae2d5.EAE2D5.56.0.0_ec10.61.eae2d5.eae2d5.56.62.51.1_ed21.58.1.1.eae2d5.7E7E7E_ef_eg_r00_fa4.50.50.50.37.51.000000_fb7_fh_fc2.DE0000.55.2.DE0000.55.56.61.61.56.50.50_fj0.0.0_fd1.0.10.eae2d5.56_fe56.62_ff0000000000_fg1.51.56.0.0.1.0.0_fi_pa3.0.0.0.4.61.100.73.0.0_t00_pb_pc_pd_pe_ga0_gb1_gc75.0_ge0000000000_gh_gf_gg_gd0000000_ha82.82_hb54.1.38.80_hc0.38.23.0.38.23_hd25.1.46.32_ia_if_ib_id_ic_jc_ie_ja_jb_jd_je_jf_jg_ka_kb_kc_kd_ke_kf_la_lb_oa_os_ob_oc_od_oe_of_lc_m00_n00_s00_og_oh_oo_op_oq_or_om_on_ok_ol_oi_oj_ad0.0.0.0.0.0.0.0.0.0
4-serene=54**aa2.89.1.17.29.2.89.1.17.29_ab_ac_ba50_bb15.1_bc185.500.9.0.1.0_bd15_be180_ca74.0.41.74.21.10.29.5.10.0.60.80_da1.0.0.100_db_dd9.3.30.35.59.50_dh1.30.50.50.0_di7_qa_qb_dc5.1.1.1.1_eh_ea34.eae2d5.EAE2D5.56.0.0_ec10.61.eae2d5.eae2d5.56.62.51.1_ed21.58.1.1.eae2d5.7E7E7E_ef_eg_r00_fa4.50.50.50.37.51.000000_fb_fh_fc2.DE0000.55.2.DE0000.55.56.61.61.56.50.50_fj0.0.0_fd1.0.10.eae2d5.56_fe56.62_ff0000000000_fg1.51.56.0.0.1.0.0_fi_pa3.0.0.0.4.61.100.73.0.0_t00_pb_pc_pd_pe_ga0_gb1_gc40.0_ge0000000000_gh_gf_gg_gd0000000_ha35.35_hb25.1.16.100_hc0.62.19.0.62.19_hd0.1.49.49_ia_if_ib_id_ic_jc_ie_ja_jb_jd_je_jf_jg_ka_kb_kc_kd_ke_kf_la_lb_oa_os_ob_oc_od_oe_of_lc_m00_n00_s00_og_oh_oo_op_oq_or_om_on_ok_ol_oi_oj_ad0.0.0.0.0.0.0.0.0.0
4-shock=54**aa77.31.1.42.28.77.31.1.42.28_ab_ac_ba50_bb44.1_bc185.500.9.0.1.0_bd44_be180_ca74.0.41.74.21.10.29.5.10.0.60.80_da1.0.0.100_db_dd9.3.30.35.59.50_dh1.30.50.50.0_di7_qa_qb_dc5.1.1.1.1_eh_ea34.eae2d5.EAE2D5.56.0.0_ec10.61.eae2d5.eae2d5.56.62.51.1_ed21.58.1.1.eae2d5.7E7E7E_ef_eg_r00_fa4.50.50.50.37.51.000000_fb7_fh_fc2.DE0000.55.2.DE0000.55.56.61.61.56.50.50_fj0.0.0_fd1.0.10.eae2d5.56_fe56.62_ff0000000000_fg1.51.56.0.0.1.0.0_fi_pa3.0.0.0.4.61.100.73.0.0_t00_pb_pc_pd_pe_ga0_gb1_gc40.0_ge0000000000_gh_gf_gg_gd0000000_ha99.99_hb49.1.60.61_hc0.78.56.0.78.56_hd41.1.49.49_ia_if_ib_id_ic_jc_ie_ja_jb_jd_je_jf_jg_ka_kb_kc_kd_ke_kf_la_lb_oa_os_ob_oc_od_oe_of_lc_m00_n00_s00_og_oh_oo_op_oq_or_om_on_ok_ol_oi_oj_ad0.0.0.0.0.0.0.0.0.0
4-start=54**aa6.69.1.47.28.6.93.1.45.59_ab_ac_ba61_bb56.1_bc185.500.9.0.1.0_bd58_be177_ca74.0.41.74.21.10.29.5.10.0.60.80_da1.0.0.100_db_dd12.3.30.35.59.50_dh1.30.50.50.0_di7_qa_qb_dc35.1.1.1.1_eh_ea34.eae2d5.EAE2D5.56.0.0_ec10.61.eae2d5.eae2d5.56.62.51.1_ed21.58.1.1.eae2d5.7E7E7E_ef_eg_r00_fa4.50.50.50.37.51.000000_fb7_fh_fc2.DE0000.55.2.DE0000.55.56.61.61.56.50.50_fj0.0.0_fd1.0.10.eae2d5.56_fe56.62_ff0000000000_fg1.51.56.0.0.1.0.0_fi_pa3.0.0.0.4.61.100.73.0.0_t00_pb_pc_pd_pe_ga0_gb1_gc80.0_ge0000000000_gh_gf_gg_gd0000000_ha70.70_hb54.1.20.80_hc0.55.13.0.55.13_hd0.1.46.32_ia_if_ib_id_ic_jc_ie_ja_jb_jd_je_jf_jg_ka_kb_kc_kd_ke_kf_la_lb_oa_os_ob_oc_od_oe_of_lc_m00_n00_s00_og_oh_oo_op_oq_or_om_on_ok_ol_oi_oj_ad0.0.0.0.0.0.0.0.0.0
4-stripped=54**aa0.91.1.45.10.0.89.1.49.51_ab_ac_ba50_bb16.1_bc185.500.9.0.1.0_bd16_be180_ca74.0.41.74.21.10.29.5.10.0.60.80_da1.0.0.100_db_dd9.3.30.35.59.50_dh1.30.50.50.0_di7_qa_qb_dc5.1.1.1.1_eh_ea34.eae2d5.EAE2D5.56.0.0_ec10.61.eae2d5.eae2d5.56.62.51.1_ed21.58.1.1.eae2d5.7E7E7E_ef_eg_r00_fa4.50.50.50.37.51.000000_fb7_fh_fc2.DE0000.55.2.DE0000.55.56.61.61.56.50.50_fj0.0.0_fd1.0.10.eae2d5.56_fe56.62_ff0000000000_fg1.51.56.0.0.1.0.0_fi_pa3.0.0.0.4.61.100.73.0.0_t00_pb_pc_pd_pe_ga0_gb1_gc24.0_ge0000000000_gh_gf_gg_gd0000000_ha89.89_hb49.1.44.99_hc0.73.39.0.73.39_hd71.1.49.49_ia_if_ib_id_ic_jc_ie_ja_jb_jd_je_jf_jg_ka_kb_kc_kd_ke_kf_la_lb_oa_os_ob_oc_od_oe_of_lc_m00_n00_s00_og_oh_oo_op_oq_or_om_on_ok_ol_oi_oj_ad0.0.0.0.0.0.0.0.0.0
4-unsure=54**aa7.91.1.28.43.7.73.1.16.54_ab_ac_ba60_bb13.0_bc185.500.9.0.1.0_bd20_be177_ca74.0.41.74.21.10.29.5.10.0.60.80_da1.0.0.100_db_dd9.3.30.35.59.50_dh1.30.50.50.0_di7_qa_qb_dc5.1.1.1.1_eh_ea34.eae2d5.EAE2D5.56.0.0_ec10.61.eae2d5.eae2d5.56.62.51.1_ed21.58.1.1.eae2d5.7E7E7E_ef_eg_r00_fa4.50.50.50.37.51.000000_fb7_fh_fc2.DE0000.55.2.DE0000.55.56.61.61.56.50.50_fj0.0.0_fd1.0.10.eae2d5.56_fe56.62_ff0000000000_fg1.51.56.0.0.1.0.0_fi_pa3.0.0.0.4.61.100.73.0.0_t00_pb_pc_pd_pe_ga0_gb1_gc30.0_ge0000000000_gh_gf_gg_gd0000000_ha84.84_hb65.1.28.80_hc0.54.23.0.54.23_hd5.1.49.49_ia_if_ib_id_ic_jc_ie_ja_jb_jd_je_jf_jg_ka_kb_kc_kd_ke_kf_la_lb_oa_os_ob_oc_od_oe_of_lc_m00_n00_s00_og_oh_oo_op_oq_or_om_on_ok_ol_oi_oj_ad0.0.0.0.0.0.0.0.0.0

5-angry=47***aa11.61.1.47.34.11.61.1.47.35_ab_ac_ba50_bb62.1_bc185.200.0.0.1_bd62_be180_ca56.0.36.75.15.34.34.0.10_cb0_da1.0.0.100_db_dd0.3.0.9.17.50_dh1.30.50.50.0_di7_qa_qb_dc2735.3.1.1.1_eh_ea27.55.55.55.1.0_ec7.11.55.55.55.47.64.0_ed0.37.1.1.55.56_ef_eg_r00_fa4.76.87.73.32.65.56_fb7_fh1_fc0.FFDA00.55.0.FFDA00.55.37.61.61.37.48.50_fd1.0.36.55.56_fe50.73_ff0000000000_fg0.52_pa0.0.0.0.40.50.85.85.0.0_t00_pb0.54.54.0_pc_pd_pe_ga0_gb1_gc68.0_ge0000000000_gh_gf_gg_gd11000000_ha72.72_hb50.1.50.99_hc1.43.3.1.43.3_hd38.1.60.38_ia_if_ib_id_ic_jc_ie_ja_jb_jd_je_jf_jg_ka_kb_kc_kd_ke_kf_la_lb_oa_os_ob_oc_od_oe_of_lc_m00_n00_s00_og_oh_oo_op_oq_or_om_on_ok_ol_oi_oj_ad1.1.1.1.1.1.1.1.1.1*0*0*0*0*0*0*0*0#/]a00_b00_c00_d00_w00_x00_e00_y00_z00_ua1.55.0.0.100_uf0.3.0.0_ue_ub_u0_v0_uc7.0.30_ud7.8
5-angry=54**aa8.70.1.16.28.8.70.1.16.28_ab_ac_ba50_bb72.1_bc185.200.0.0.1.0_bd72_be180_ca74.0.41.74.21.10.29.5.10.0.60.80_da1.0.0.100_db_dd11.3.30.35.59.50_dh1.30.50.50.0_di7_qa_qb_dc40.1.1.1.1_eh_ea34.eae2d5.EAE2D5.56.0.0_ec10.61.eae2d5.eae2d5.56.62.51.1_ed21.58.1.1.eae2d5.7E7E7E_ef_eg_r00_fa4.50.50.50.37.51.000000_fb7_fh_fc2.DE0000.55.2.DE0000.55.56.61.61.56.50.50_fj0.0.0_fd1.0.10.eae2d5.56_fe56.62_ff0000000000_fg1.51.56.0.0.1.0.0_fi_pa3.0.0.0.4.61.100.73.0.0_t00_pb_pc_pd_pe_ga0_gb1_gc80.37_ge0000000000_gh_gf_gg_gd0010000_ha73.73_hb49.1.50.99_hc2.12.0.2.12.0_hd41.1.67.45_ia_if_ib_id_ic_jc_ie_ja_jb_jd_je_jf_jg_ka_kb_kc_kd_ke_kf_la_lb_oa_os_ob_oc_od_oe_of_lc_m00_n00_s00_og_oh_oo_op_oq_or_om_on_ok_ol_oi_oj_ad0.0.0.0.0.0.0.0.0.0
5-awkward=54**aa16.82.1.16.24.10.4.0.4.73_ab_ac_ba60_bb64.1_bc185.200.0.0.1.0_bd61_be178_ca74.0.41.74.21.10.29.5.10.0.60.80_da1.0.0.100_db_dd14.3.30.35.59.50_dh1.30.50.50.0_di7_qa_qb_dc40.1.1.1.1_eh_ea34.eae2d5.EAE2D5.56.0.0_ec10.61.eae2d5.eae2d5.56.62.51.1_ed21.58.1.1.eae2d5.7E7E7E_ef_eg_r00_fa4.50.50.50.37.51.000000_fb7_fh_fc2.DE0000.55.2.DE0000.55.56.61.61.56.50.50_fj0.0.0_fd1.0.10.eae2d5.56_fe56.62_ff0000000000_fg1.51.56.0.0.1.0.0_fi_pa3.0.0.0.4.61.100.73.0.0_t00_pb_pc_pd_pe_ga0_gb1_gc80.0_ge0000000000_gh_gf_gg_gd0000000_ha82.82_hb100.1.0.80_hc4.63.45.4.63.45_hd33.1.49.49_ia_if_ib_id_ic_jc_ie_ja_jb_jd_je_jf_jg_ka_kb_kc_kd_ke_kf_la_lb_oa_os_ob_oc_od_oe_of_lc_m00_n00_s00_og_oh_oo_op_oq_or_om_on_ok_ol_oi_oj_ad0.0.0.0.0.0.0.0.0.0
5-base=54**aa16.84.1.25.15.11.68.1.49.47_ab_ac_ba51_bb62.1_bc185.200.0.0.1.0_bd62_be183_ca74.0.41.74.21.10.29.5.10.0.60.80_da1.0.0.100_db_dd12.3.30.35.59.50_dh1.30.50.50.0_di7_qa_qb_dc40.1.1.1.1_eh_ea34.eae2d5.EAE2D5.56.0.0_ec10.61.eae2d5.eae2d5.56.62.51.1_ed21.58.1.1.eae2d5.7E7E7E_ef_eg_r00_fa4.50.50.50.37.51.000000_fb7_fh_fc2.DE0000.55.2.DE0000.55.56.61.61.56.50.50_fj0.0.0_fd1.0.10.eae2d5.56_fe56.62_ff0000000000_fg1.51.56.0.0.1.0.0_fi_pa3.0.0.0.4.61.100.73.0.0_t00_pb_pc_pd_pe_ga0_gb1_gc80.0_ge0000000000_gh_gf_gg_gd0000000_ha75.75_hb54.1.13.80_hc0.69.32.0.69.32_hd23.1.46.32_ia_if_ib_id_ic_jc_ie_ja_jb_jd_je_jf_jg_ka_kb_kc_kd_ke_kf_la_lb_oa_os_ob_oc_od_oe_of_lc_m00_n00_s00_og_oh_oo_op_oq_or_om_on_ok_ol_oi_oj_ad0.0.0.0.0.0.0.0.0.0
5-cheer=54**aa17.82.1.25.19.19.56.1.34.20_ab_ac_ba50_bb64.1_bc185.200.0.0.1.0_bd64_be180_ca74.0.41.74.21.10.29.5.10.0.60.80_da1.0.0.100_db_dd12.3.30.35.59.50_dh1.30.50.50.0_di7_qa_qb_dc40.1.1.1.1_eh_ea34.eae2d5.EAE2D5.56.0.0_ec10.61.eae2d5.eae2d5.56.62.51.1_ed21.58.1.1.eae2d5.7E7E7E_ef_eg_r00_fa4.50.50.50.37.51.000000_fb7_fh_fc2.DE0000.55.2.DE0000.55.56.61.61.56.50.50_fj0.0.0_fd1.0.10.eae2d5.56_fe56.62_ff0000000000_fg1.51.56.0.0.1.0.0_fi_pa3.0.0.0.4.61.100.73.0.0_t00_pb_pc_pd_pe_ga0_gb1_gc80.0_ge0000000000_gh_gf_gg_gd0000000_ha15.15_hb54.1.67.76_hc0.55.13.0.55.13_hd23.1.46.32_ia_if_ib_id_ic_jc_ie_ja_jb_jd_je_jf_jg_ka_kb_kc_kd_ke_kf_la_lb_oa_os_ob_oc_od_oe_of_lc_m00_n00_s00_og_oh_oo_op_oq_or_om_on_ok_ol_oi_oj_ad0.0.0.0.0.0.0.0.0.0
5-disappointed=54**aa12.58.1.16.40.12.58.1.42.40_ab_ac_ba44_bb61.0_bc185.200.0.0.1.0_bd72_be181_ca74.0.41.74.21.10.29.5.10.0.60.80_da1.0.0.100_db_dd12.3.30.35.59.50_dh1.30.50.50.0_di7_qa_qb_dc40.1.1.1.1_eh_ea34.eae2d5.EAE2D5.56.0.0_ec10.61.eae2d5.eae2d5.56.62.51.1_ed21.58.1.1.eae2d5.7E7E7E_ef_eg_r00_fa4.50.50.50.37.51.000000_fb7_fh_fc2.DE0000.55.2.DE0000.55.56.61.61.56.50.50_fj0.0.0_fd1.0.10.eae2d5.56_fe56.62_ff0000000000_fg1.51.56.0.0.1.0.0_fi_pa3.0.0.0.4.61.100.73.0.0_t00_pb_pc_pd_pe_ga0_gb1_gc75.0_ge0000000000_gh_gf_gg_gd0000000_ha67.67_hb23.1.6.80_hc3.78.19.3.78.19_hd4.1.46.32_ia_if_ib_id_ic_jc_ie_ja_jb_jd_je_jf_jg_ka_kb_kc_kd_ke_kf_la_lb_oa_os_ob_oc_od_oe_of_lc_m00_n00_s00_og_oh_oo_op_oq_or_om_on_ok_ol_oi_oj_ad0.0.0.0.0.0.0.0.0.0

5-happy=54**aa15.87.1.23.11.11.68.1.45.57_ab_ac_ba57_bb61.1_bc185.200.0.0.1.0_bd61_be177_ca74.0.41.74.21.10.29.5.10.0.60.80_da1.0.0.100_db_dd11.3.30.35.59.50_dh1.30.50.50.0_di7_qa_qb_dc40.1.1.1.1_eh_ea34.eae2d5.EAE2D5.56.0.0_ec10.61.eae2d5.eae2d5.56.62.51.1_ed21.58.1.1.eae2d5.7E7E7E_ef_eg_r00_fa4.50.50.50.37.51.000000_fb7_fh_fc2.DE0000.55.2.DE0000.55.56.61.61.56.50.50_fj0.0.0_fd1.0.10.eae2d5.56_fe56.62_ff0000000000_fg1.51.56.0.0.1.0.0_fi_pa3.0.0.0.4.61.100.73.0.0_t00_pb_pc_pd_pe_ga0_gb1_gc73.0_ge0000000000_gh_gf_gg_gd0000000_ha3.3_hb54.1.33.76_hc0.55.13.0.55.13_hd25.1.46.36_ia_if_ib_id_ic_jc_ie_ja_jb_jd_je_jf_jg_ka_kb_kc_kd_ke_kf_la_lb_oa_os_ob_oc_od_oe_of_lc_m00_n00_s00_og_oh_oo_op_oq_or_om_on_ok_ol_oi_oj_ad0.0.0.0.0.0.0.0.0.0
5-heavy=54**aa16.84.1.25.28.83.27.1.50.47_ab_ac_ba62_bb65.1_bc185.200.0.0.1.0_bd77_be173_ca74.0.41.74.21.10.29.5.10.0.60.80_da1.0.0.100_db_dd14.3.30.35.59.50_dh1.30.50.50.0_di7_qa_qb_dc50.1.1.1.1_eh_ea34.eae2d5.EAE2D5.56.0.0_ec10.61.eae2d5.eae2d5.56.62.51.1_ed21.58.1.1.eae2d5.7E7E7E_ef_eg_r00_fa4.50.50.50.37.51.000000_fb7_fh0_fc2.DE0000.55.2.DE0000.55.56.61.61.56.50.50_fj0.0.0_fd1.0.10.eae2d5.56_fe56.62_ff0000000000_fg1.51.56.0.0.1.0.0_fi_pa3.0.0.0.4.61.100.73.0.0_t00_pb_pc_pd_pe_ga0_gb1_gc90.0_ge0000000000_gh_gf_gg_gd0000100_ha49.49_hb54.1.100.80_hc3.72.23.3.72.23_hd26.1.46.32_ia_if_ib_id_ic_jc_ie_ja_jb_jd_je_jf_jg_ka_kb_kc_kd_ke_kf_la_lb_oa_os_ob_oc_od_oe_of_lc_m00_n00_s00_og_oh_oo_op_oq_or_om_on_ok_ol_oi_oj_ad0.0.0.0.0.0.0.0.0.0
5-horny=54**aa13.82.1.25.71.7.70.1.47.21_ab_ac_ba50_bb61.1_bc185.200.0.0.1.0_bd67_be177_ca74.0.41.74.21.10.29.5.10.0.60.80_da1.0.0.100_db_dd13.3.30.35.59.50_dh1.30.50.50.0_di7_qa_qb_dc45.1.1.1.1_eh_ea34.eae2d5.EAE2D5.56.0.0_ec10.61.eae2d5.eae2d5.56.62.51.1_ed21.58.1.1.eae2d5.7E7E7E_ef_eg_r00_fa4.50.50.50.37.51.000000_fb7_fh_fc2.DE0000.55.2.DE0000.55.56.61.61.56.50.50_fj0.0.0_fd1.0.10.eae2d5.56_fe56.62_ff0000000000_fg1.51.56.0.0.1.0.0_fi_pa3.0.0.0.4.61.100.73.0.0_t00_pb_pc_pd_pe_ga0_gb1_gc85.0_ge0000000000_gh_gf_gg_gd0000000_ha60.60_hb54.1.43.80_hc3.85.23.3.85.23_hd20.1.46.32_ia_if_ib_id_ic_jc_ie_ja_jb_jd_je_jf_jg_ka_kb_kc_kd_ke_kf_la_lb_oa_os_ob_oc_od_oe_of_lc_m00_n00_s00_og_oh_oo_op_oq_or_om_on_ok_ol_oi_oj_ad0.0.0.0.0.0.0.0.0.0

5-invite=54**aa17.78.1.22.100.6.61.1.24.38_ab_ac_ba36_bb67.1_bc185.200.0.0.1.0_bd67_be180_ca74.0.41.74.21.10.29.5.10.0.60.80_da1.0.0.100_db_dd14.3.30.35.59.50_dh1.30.50.50.0_di7_qa_qb_dc65.1.1.1.1_eh_ea34.eae2d5.EAE2D5.56.0.0_ec10.61.eae2d5.eae2d5.56.62.51.1_ed21.58.1.1.eae2d5.7E7E7E_ef_eg_r00_fa4.50.50.50.37.51.000000_fb7_fh_fc2.DE0000.55.2.DE0000.55.56.61.61.56.50.50_fj0.0.0_fd1.0.10.eae2d5.56_fe56.62_ff0000000000_fg1.51.56.0.0.1.0.0_fi_pa3.0.0.0.4.61.100.73.0.0_t00_pb_pc_pd_pe_ga0_gb1_gc95.0_ge0000000001_gh_gf_gg_gd0000100_ha57.57_hb50.1.63.80_hc0.55.42.0.55.42_hd23.1.46.32_ia_if_ib_id_ic_jc_ie_ja_jb_jd_je_jf_jg_ka_kb_kc_kd_ke_kf_la_lb_oa_os_ob_oc_od_oe_of_lc_m00_n00_s00_og_oh_oo_op_oq_or_om_on_ok_ol_oi_oj_ad0.0.0.0.0.0.0.0.0.0

5-sad=54**aa8.86.1.47.28.13.53.1.42.24_ab_ac_ba49_bb72.1_bc185.200.0.0.1.0_bd61_be178_ca74.0.41.74.21.10.29.5.10.0.60.80_da1.0.0.100_db_dd11.3.30.35.59.50_dh1.30.50.50.0_di7_qa_qb_dc40.1.1.1.1_eh_ea34.eae2d5.EAE2D5.56.0.0_ec10.61.eae2d5.eae2d5.56.62.51.1_ed21.58.1.1.eae2d5.7E7E7E_ef_eg_r00_fa4.50.50.50.37.51.000000_fb7_fh0_fc2.DE0000.55.2.DE0000.55.56.61.61.56.50.50_fj0.0.0_fd1.0.10.eae2d5.56_fe56.62_ff0000000000_fg1.51.56.0.0.1.0.0_fi_pa3.0.0.0.4.61.100.73.0.0_t00_pb_pc_pd_pe_ga0_gb1_gc80.0_ge0000000000_gh_gf_gg_gd1000000_ha60.60_hb50.1.6.80_hc4.76.13.4.76.13_hd4.1.45.32_ia_if_ib_id_ic_jc_ie_ja_jb_jd_je_jf_jg_ka_kb_kc_kd_ke_kf_la_lb_oa_os_ob_oc_od_oe_of_lc_m00_n00_s00_og_oh_oo_op_oq_or_om_on_ok_ol_oi_oj_ad0.0.0.0.0.0.0.0.0.0
5-shock=54**aa77.31.1.42.28.77.31.1.42.28_ab_ac_ba53_bb64.1_bc185.200.0.0.1.0_bd64_be178_ca74.0.41.74.21.10.29.5.10.0.60.80_da1.0.0.100_db_dd13.3.30.35.59.50_dh1.30.50.50.0_di7_qa_qb_dc40.1.1.1.1_eh_ea34.eae2d5.EAE2D5.56.0.0_ec10.61.eae2d5.eae2d5.56.62.51.1_ed21.58.1.1.eae2d5.7E7E7E_ef_eg_r00_fa4.50.50.50.37.51.000000_fb7_fh_fc2.DE0000.55.2.DE0000.55.56.61.61.56.50.50_fj0.0.0_fd1.0.10.eae2d5.56_fe56.62_ff0000000000_fg1.51.56.0.0.1.0.0_fi_pa3.0.0.0.4.61.100.73.0.0_t00_pb_pc_pd_pe_ga0_gb1_gc80.0_ge0000000000_gh_gf_gg_gd0000000_ha99.99_hb49.1.60.61_hc0.78.71.0.78.71_hd41.1.49.49_ia_if_ib_id_ic_jc_ie_ja_jb_jd_je_jf_jg_ka_kb_kc_kd_ke_kf_la_lb_oa_os_ob_oc_od_oe_of_lc_m00_n00_s00_og_oh_oo_op_oq_or_om_on_ok_ol_oi_oj_ad0.0.0.0.0.0.0.0.0.0
5-unsure=54**aa10.0.1.4.84.6.73.1.17.41_ab_ac_ba57_bb60.1_bc185.200.0.0.1.0_bd60_be180_ca74.0.41.74.21.10.29.5.10.0.60.80_da1.0.0.100_db_dd11.3.30.35.59.50_dh1.30.50.50.0_di7_qa_qb_dc40.1.1.1.1_eh_ea34.eae2d5.EAE2D5.56.0.0_ec10.61.eae2d5.eae2d5.56.62.51.1_ed21.58.1.1.eae2d5.7E7E7E_ef_eg_r00_fa4.50.50.50.37.51.000000_fb7_fh_fc2.DE0000.55.2.DE0000.55.56.61.61.56.50.50_fj0.0.0_fd1.0.10.eae2d5.56_fe56.62_ff0000000000_fg1.51.56.0.0.1.0.0_fi_pa3.0.0.0.4.61.100.73.0.0_t00_pb_pc_pd_pe_ga0_gb1_gc80.0_ge0000000000_gh_gf_gg_gd0000000_ha66.66_hb84.1.34.80_hc3.58.13.3.58.13_hd5.1.46.31_ia_if_ib_id_ic_jc_ie_ja_jb_jd_je_jf_jg_ka_kb_kc_kd_ke_kf_la_lb_oa_os_ob_oc_od_oe_of_lc_m00_n00_s00_og_oh_oo_op_oq_or_om_on_ok_ol_oi_oj_ad0.0.0.0.0.0.0.0.0.0
6-awkward=54**aa12.83.1.28.72.17.61.0.28.80_ab_ac_ba64_bb65.0_bc185.200.0.0.1.0_bd63_be180_ca74.0.41.74.21.10.29.5.10.0.60.80_da1.0.0.100_db_dd11.3.30.35.59.50_dh1.30.50.50.0_di7_qa_qb_dc50.1.1.1.1_eh_ea34.eae2d5.EAE2D5.56.0.0_ec10.61.eae2d5.eae2d5.56.62.51.1_ed21.58.1.1.eae2d5.7E7E7E_ef_eg_r00_fa4.50.50.50.37.51.000000_fb7_fh_fc2.DE0000.55.2.DE0000.55.56.61.61.56.50.50_fj0.0.0_fd1.0.10.eae2d5.56_fe56.62_ff0000000000_fg1.51.56.0.0.1.0.0_fi_pa3.0.0.0.4.61.100.73.0.0_t00_pb_pc_pd_pe_ga0_gb1_gc80.0_ge0000000000_gh_gf_gg_gd0000000_ha82.82_hb100.1.0.80_hc4.63.45.4.63.45_hd33.1.49.49_ia_if_ib_id_ic_jc_ie_ja_jb_jd_je_jf_jg_ka_kb_kc_kd_ke_kf_la_lb_oa_os_ob_oc_od_oe_of_lc_m00_n00_s00_og_oh_oo_op_oq_or_om_on_ok_ol_oi_oj_ad0.0.0.0.0.0.0.0.0.0
6-calm=54**aa6.58.1.16.45.6.58.1.49.35_ab_ac_ba59_bb77.0_bc185.200.0.0.1.0_bd77_be180_ca74.0.41.74.21.10.29.5.10.0.60.80_da1.0.0.100_db_dd11.3.30.35.59.50_dh1.30.50.50.0_di7_qa_qb_dc50.1.1.1.1_eh_ea34.eae2d5.EAE2D5.56.0.0_ec10.61.eae2d5.eae2d5.56.62.51.1_ed21.58.1.1.eae2d5.7E7E7E_ef_eg_r00_fa4.50.50.50.37.51.000000_fb7_fh_fc2.DE0000.55.2.DE0000.55.56.61.61.56.50.50_fj0.0.0_fd1.0.10.eae2d5.56_fe56.62_ff0000000000_fg1.51.56.0.0.1.0.0_fi_pa3.0.0.0.4.61.100.73.0.0_t00_pb_pc_pd_pe_ga0_gb1_gc75.0_ge0000000000_gh_gf_gg_gd0000000_ha0.0_hb49.1.50.80_hc0.55.33.0.55.33_hd0.1.46.32_ia_if_ib_id_ic_jc_ie_ja_jb_jd_je_jf_jg_ka_kb_kc_kd_ke_kf_la_lb_oa_os_ob_oc_od_oe_of_lc_m00_n00_s00_og_oh_oo_op_oq_or_om_on_ok_ol_oi_oj_ad0.0.0.0.0.0.0.0.0.0
6-cheer=54**aa10.98.1.4.97.17.47.1.34.36_ab_ac_ba59_bb76.0_bc185.200.0.0.1.0_bd76_be180_ca74.0.41.74.21.10.29.5.10.0.60.80_da1.0.0.100_db_dd11.3.30.35.59.50_dh1.30.50.50.0_di7_qa_qb_dc50.1.1.1.1_eh_ea34.eae2d5.EAE2D5.56.0.0_ec10.61.eae2d5.eae2d5.56.62.51.1_ed21.58.1.1.eae2d5.7E7E7E_ef_eg_r00_fa4.50.50.50.37.51.000000_fb7_fh_fc2.DE0000.55.2.DE0000.55.56.61.61.56.50.50_fj0.0.0_fd1.0.10.eae2d5.56_fe56.62_ff0000000000_fg1.51.56.0.0.1.0.0_fi_pa3.0.0.0.4.61.100.73.0.0_t00_pb_pc_pd_pe_ga0_gb1_gc75.0_ge0000000000_gh_gf_gg_gd0000000_ha0.0_hb54.1.33.76_hc0.76.13.0.76.13_hd23.1.46.32_ia_if_ib_id_ic_jc_ie_ja_jb_jd_je_jf_jg_ka_kb_kc_kd_ke_kf_la_lb_oa_os_ob_oc_od_oe_of_lc_m00_n00_s00_og_oh_oo_op_oq_or_om_on_ok_ol_oi_oj_ad0.0.0.0.0.0.0.0.0.0

6-disappointed=54**aa12.58.1.16.40.12.58.1.42.40_ab_ac_ba44_bb75.1_bc185.200.0.0.1.0_bd61_be178_ca74.0.41.74.21.10.29.5.10.0.60.80_da1.0.0.100_db_dd11.3.30.35.59.50_dh1.30.50.50.0_di7_qa_qb_dc50.1.1.1.1_eh_ea34.eae2d5.EAE2D5.56.0.0_ec10.61.eae2d5.eae2d5.56.62.51.1_ed21.58.1.1.eae2d5.7E7E7E_ef_eg_r00_fa4.50.50.50.37.51.000000_fb7_fh_fc2.DE0000.55.2.DE0000.55.56.61.61.56.50.50_fj0.0.0_fd1.0.10.eae2d5.56_fe56.62_ff0000000000_fg1.51.56.0.0.1.0.0_fi_pa3.0.0.0.4.61.100.73.0.0_t00_pb_pc_pd_pe_ga0_gb1_gc75.0_ge0000000000_gh_gf_gg_gd0000000_ha67.67_hb23.1.6.80_hc3.78.19.3.78.19_hd4.1.46.32_ia_if_ib_id_ic_jc_ie_ja_jb_jd_je_jf_jg_ka_kb_kc_kd_ke_kf_la_lb_oa_os_ob_oc_od_oe_of_lc_m00_n00_s00_og_oh_oo_op_oq_or_om_on_ok_ol_oi_oj_ad0.0.0.0.0.0.0.0.0.0

6-finished=54**aa14.1.1.4.75.14.1.1.4.75_ab_ac_ba50_bb67.0_bc185.200.0.0.1.0_bd67_be180_ca74.0.41.74.21.10.29.5.10.0.60.80_da1.0.0.100_db_dd11.3.30.35.59.50_dh1.30.50.50.0_di7_qa_qb_dc50.1.1.1.1_eh_ea34.eae2d5.EAE2D5.56.0.0_ec10.61.eae2d5.eae2d5.56.62.51.1_ed21.58.1.1.eae2d5.7E7E7E_ef_eg_r00_fa4.50.50.50.37.51.000000_fb_fh_fc2.DE0000.55.2.DE0000.55.56.61.61.56.50.50_fj0.0.0_fd1.0.10.eae2d5.56_fe56.62_ff0000000000_fg1.51.56.0.0.1.0.0_fi_pa3.0.0.0.4.61.100.73.0.0_t00_pb_pc_pd_pe_ga0_gb1_gc93.0_ge0000000001_gh_gf_gg_gd0000100_ha29.29_hb32.0.94.56_hc0.71.37.0.71.37_hd25.1.53.31_ia_if_ib_id_ic_jc_ie_ja_jb_jd_je_jf_jg_ka_kb_kc_kd_ke_kf_la_lb_oa_os_ob_oc_od_oe_of_lc_m00_n00_s00_og_oh_oo_op_oq_or_om_on_ok_ol_oi_oj_ad0.0.0.0.0.0.0.0.0.0

6-happy=54**aa13.47.1.8.40.13.47.1.8.40_ab_ac_ba50_bb76.0_bc185.200.0.0.1.0_bd76_be180_ca74.0.41.74.21.10.29.5.10.0.60.80_da1.0.0.100_db_dd11.3.30.35.59.50_dh1.30.50.50.0_di7_qa_qb_dc50.1.1.1.1_eh_ea34.eae2d5.EAE2D5.56.0.0_ec10.61.eae2d5.eae2d5.56.62.51.1_ed21.58.1.1.eae2d5.7E7E7E_ef_eg_r00_fa4.50.50.50.37.51.000000_fb7_fh_fc2.DE0000.55.2.DE0000.55.56.61.61.56.50.50_fj0.0.0_fd1.0.10.eae2d5.56_fe56.62_ff0000000000_fg1.51.56.0.0.1.0.0_fi_pa3.0.0.0.4.61.100.73.0.0_t00_pb_pc_pd_pe_ga0_gb1_gc75.0_ge0000000000_gh_gf_gg_gd0000000_ha3.3_hb54.1.33.76_hc0.55.13.0.55.13_hd25.1.46.36_ia_if_ib_id_ic_jc_ie_ja_jb_jd_je_jf_jg_ka_kb_kc_kd_ke_kf_la_lb_oa_os_ob_oc_od_oe_of_lc_m00_n00_s00_og_oh_oo_op_oq_or_om_on_ok_ol_oi_oj_ad0.0.0.0.0.0.0.0.0.0
6-horny=54**aa14.81.1.47.93.16.75.1.28.39_ab_ac_ba46_bb64.0_bc185.200.0.0.1.0_bd64_be180_ca74.0.41.74.21.10.29.5.10.0.60.80_da1.0.0.100_db_dd14.3.30.35.59.50_dh1.30.50.50.0_di7_qa_qb_dc60.1.1.1.1_eh_ea34.eae2d5.EAE2D5.56.0.0_ec10.61.eae2d5.eae2d5.56.62.51.1_ed21.58.1.1.eae2d5.7E7E7E_ef_eg_r00_fa4.50.50.50.37.51.000000_fb7_fh_fc2.DE0000.55.2.DE0000.55.56.61.61.56.50.50_fj0.0.0_fd1.0.10.eae2d5.56_fe56.62_ff0000000000_fg1.51.56.0.0.1.0.0_fi_pa3.0.0.0.4.61.100.73.0.0_t00_pb_pc_pd_pe_ga0_gb1_gc80.0_ge0000000000_gh_gf_gg_gd0000000_ha36.36_hb54.1.43.80_hc4.85.23.4.85.23_hd22.1.46.32_ia_if_ib_id_ic_jc_ie_ja_jb_jd_je_jf_jg_ka_kb_kc_kd_ke_kf_la_lb_oa_os_ob_oc_od_oe_of_lc_m00_n00_s00_og_oh_oo_op_oq_or_om_on_ok_ol_oi_oj_ad0.0.0.0.0.0.0.0.0.0

6-invite=54**aa17.78.1.22.100.6.61.1.24.38_ab_ac_ba65_bb67.1_bc185.200.0.0.1.0_bd67_be180_ca74.0.41.74.21.10.29.5.10.0.60.80_da1.0.0.100_db_dd13.3.30.35.59.50_dh1.30.50.50.0_di7_qa_qb_dc65.1.1.1.1_eh_ea34.eae2d5.EAE2D5.56.0.0_ec10.61.eae2d5.eae2d5.56.62.51.1_ed21.58.1.1.eae2d5.7E7E7E_ef_eg_r00_fa4.50.50.50.37.51.000000_fb7_fh_fc2.DE0000.55.2.DE0000.55.56.61.61.56.50.50_fj0.0.0_fd1.0.10.eae2d5.56_fe56.62_ff0000000000_fg1.51.56.0.0.1.0.0_fi_pa3.0.0.0.4.61.100.73.0.0_t00_pb_pc_pd_pe_ga0_gb1_gc75.0_ge0000000000_gh_gf_gg_gd0000000_ha81.81_hb50.1.63.80_hc0.55.42.0.55.42_hd23.1.46.32_ia_if_ib_id_ic_jc_ie_ja_jb_jd_je_jf_jg_ka_kb_kc_kd_ke_kf_la_lb_oa_os_ob_oc_od_oe_of_lc_m00_n00_s00_og_oh_oo_op_oq_or_om_on_ok_ol_oi_oj_ad0.0.0.0.0.0.0.0.0.0

6-sad=54**aa7.71.1.16.58.6.3.0.4.86_ab_ac_ba57_bb72.0_bc185.200.0.0.1.0_bd72_be180_ca74.0.41.74.21.10.29.5.10.0.60.80_da1.0.0.100_db_dd11.3.30.35.59.50_dh1.30.50.50.0_di7_qa_qb_dc50.1.1.1.1_eh_ea34.eae2d5.EAE2D5.56.0.0_ec10.61.eae2d5.eae2d5.56.62.51.1_ed21.58.1.1.eae2d5.7E7E7E_ef_eg_r00_fa4.50.50.50.37.51.000000_fb7_fh_fc2.DE0000.55.2.DE0000.55.56.61.61.56.50.50_fj0.0.0_fd1.0.10.eae2d5.56_fe56.62_ff0000000000_fg1.51.56.0.0.1.0.0_fi_pa3.0.0.0.4.61.100.73.0.0_t00_pb_pc_pd_pe_ga0_gb1_gc75.0_ge0000000000_gh_gf_gg_gd1000000_ha60.60_hb70.1.6.80_hc4.79.13.4.79.13_hd4.1.45.32_ia_if_ib_id_ic_jc_ie_ja_jb_jd_je_jf_jg_ka_kb_kc_kd_ke_kf_la_lb_oa_os_ob_oc_od_oe_of_lc_m00_n00_s00_og_oh_oo_op_oq_or_om_on_ok_ol_oi_oj_ad0.0.0.0.0.0.0.0.0.0
6-shock=54**aa77.31.1.42.28.77.31.1.42.28_ab_ac_ba53_bb64.1_bc185.200.0.0.1.0_bd64_be178_ca74.0.41.74.21.10.29.5.10.0.60.80_da1.0.0.100_db_dd13.3.30.35.59.50_dh1.30.50.50.0_di7_qa_qb_dc50.1.1.1.1_eh_ea34.eae2d5.EAE2D5.56.0.0_ec10.61.eae2d5.eae2d5.56.62.51.1_ed21.58.1.1.eae2d5.7E7E7E_ef_eg_r00_fa4.50.50.50.37.51.000000_fb7_fh_fc2.DE0000.55.2.DE0000.55.56.61.61.56.50.50_fj0.0.0_fd1.0.10.eae2d5.56_fe56.62_ff0000000000_fg1.51.56.0.0.1.0.0_fi_pa3.0.0.0.4.61.100.73.0.0_t00_pb_pc_pd_pe_ga0_gb1_gc80.0_ge0000000000_gh_gf_gg_gd0000000_ha99.99_hb49.1.60.61_hc0.78.71.0.78.71_hd41.1.49.49_ia_if_ib_id_ic_jc_ie_ja_jb_jd_je_jf_jg_ka_kb_kc_kd_ke_kf_la_lb_oa_os_ob_oc_od_oe_of_lc_m00_n00_s00_og_oh_oo_op_oq_or_om_on_ok_ol_oi_oj_ad0.0.0.0.0.0.0.0.0.0
6-unsure=54**aa10.0.1.4.84.6.73.1.17.41_ab_ac_ba57_bb60.1_bc185.200.0.0.1.0_bd60_be180_ca74.0.41.74.21.10.29.5.10.0.60.80_da1.0.0.100_db_dd11.3.30.35.59.50_dh1.30.50.50.0_di7_qa_qb_dc50.1.1.1.1_eh_ea34.eae2d5.EAE2D5.56.0.0_ec10.61.eae2d5.eae2d5.56.62.51.1_ed21.58.1.1.eae2d5.7E7E7E_ef_eg_r00_fa4.50.50.50.37.51.000000_fb7_fh_fc2.DE0000.55.2.DE0000.55.56.61.61.56.50.50_fj0.0.0_fd1.0.10.eae2d5.56_fe56.62_ff0000000000_fg1.51.56.0.0.1.0.0_fi_pa3.0.0.0.4.61.100.73.0.0_t00_pb_pc_pd_pe_ga0_gb1_gc75.0_ge0000000000_gh_gf_gg_gd0000000_ha66.66_hb84.1.34.80_hc3.58.13.3.58.13_hd5.1.46.31_ia_if_ib_id_ic_jc_ie_ja_jb_jd_je_jf_jg_ka_kb_kc_kd_ke_kf_la_lb_oa_os_ob_oc_od_oe_of_lc_m00_n00_s00_og_oh_oo_op_oq_or_om_on_ok_ol_oi_oj_ad0.0.0.0.0.0.0.0.0.0

crop_pixels=0,0,800,1400

5-finishing=47***aa19.0.1.0.50.6.100.0.0.50_ab_ac_ba50_bb98.1_bc217.200.0.0.1_bd17_be180_ca70.0.46.62.18.32.34.0.0_cb0_da1.0.0.100_db_dd0.1.34.50.50.50_dh4.30.50.57.4_di7_qa_qb_dc0.1.1.1.1_eh4.40_ea24.40.40.56.0.0_ec_ed0.16.1.1.40.56_ef0.0.50.40.40.56_eg0.0.50.40.40.56_r00_fa2.50.57.12.64.65.56_fb7_fh2_fc0.19.55.0.19.55.44.61.61.50.50.50_fd1.1.41.40.56_fe50.61_ff0000000000_fg0.50_pa0.0.0.0.40.50.85.85.0.0_t00_pb_pc_pd_pe_ga0_gb1_gc0.0_ge0000000000_gh_gf_gg_gd10000000_ha89.89_hb49.1.44.99_hc0.59.39.0.59.39_hd0.1.49.49_ia_if_ib7.44.49.60.0.0.0.1.1.0.0.1.0.0.15_id_ic_jc_ie4.56.56.0.2.60.60.0.2.60.60.0.0_ja13.60.2.0_jb13.60.2.0_jd_je14.55.44.60_jf_jg_ka0.43.43.0.0_kb_kc_kd_ke_kf_la18.67CD5F.55.0.1_lb_oa_os_ob_oc_od_oe_of_lc_m013.4EBA43.3.0.2.0.44.0.0.79.3.61_n00_s003.34.34.34.0.38.0.573.534.3.0.0.38.4.61_og_oh_oo_op_oq_or_om_on_ok_ol_oi7.55.60.34.0_oj7.55.60.34.0_ad0.0.0.0.0.0.0.0.0.0*0*0*0*0*0*0*0*0#/]a00_b00_c00_d00_w00_x00_e00_y00_z00_ua1.0.0.0.100_uf0.3.0.0_ue_ub_u0_v0_uc7.0.30_ud7.8
5-finishing=54**aa16.84.1.25.20.14.80.1.28.53_ab_ac_ba50_bb68.1_bc185.200.0.0.1.0_bd68_be180_ca74.0.41.74.21.10.29.5.10.0.60.80_da1.0.0.100_db_dd15.3.30.35.59.50_dh1.30.50.50.0_di7_qa_qb_dc90.1.1.1.1_eh_ea34.eae2d5.EAE2D5.56.0.0_ec10.61.eae2d5.eae2d5.56.62.51.1_ed21.58.1.1.eae2d5.7E7E7E_ef_eg_r00_fa4.50.50.50.37.51.000000_fb7_fh_fc2.DE0000.55.2.DE0000.55.56.61.61.56.50.50_fj0.0.0_fd1.0.10.eae2d5.56_fe56.62_ff0000000000_fg1.51.56.0.0.1.0.0_fi_pa3.0.0.0.4.61.100.73.0.0_t00_pb_pc_pd_pe_ga0_gb1_gc100.0_ge0000000000_gh_gf_gg_gd0000100_ha0.0_hb32.0.94.56_hc4.77.21.4.77.21_hd25.1.57.41_ia_if_ib_id_ic_jc_ie_ja_jb_jd_je_jf_jg_ka_kb_kc_kd_ke_kf_la_lb_oa_os_ob_oc_od_oe_of_lc_m00_n00_s00_og_oh_oo_op_oq_or_om_on_ok_ol_oi_oj_ad0.0.0.0.0.0.0.0.0.0
