#The following code is to reframe sitting images. Note that 3-strip appears to be created here, but the next image replaces it with the real one.
1-strip=47***aa11.61.1.47.34.11.61.1.47.35_ab_ac_ba50_bb62.1_bc185.200.0.0.1_bd62_be180_ca56.0.36.75.15.34.34.0.10_cb0_da1.0.0.100_db_dd0.3.0.9.17.50_dh1.30.50.50.0_di7_qa_qb_dc2735.3.1.1.1_eh_ea27.55.55.55.1.0_ec7.11.55.55.55.47.64.0_ed0.37.1.1.55.56_ef_eg_r00_fa4.76.87.73.32.65.56_fb7_fh1_fc0.FFDA00.55.0.FFDA00.55.37.61.61.37.48.50_fd1.0.36.55.56_fe50.73_ff0000000000_fg0.52_pa0.0.0.0.40.50.85.85.0.0_t00_pb0.54.54.0_pc_pd_pe_ga0_gb1_gc68.0_ge0000000000_gh_gf_gg_gd11000000_ha72.72_hb50.1.50.99_hc1.43.3.1.43.3_hd38.1.60.38_ia_if_ib_id_ic_jc_ie_ja_jb_jd_je_jf_jg_ka_kb_kc_kd_ke_kf_la_lb_oa_os_ob_oc_od_oe_of_lc_m00_n00_s00_og_oh_oo_op_oq_or_om_on_ok_ol_oi_oj_ad1.1.1.1.1.1.1.1.1.1*0*0*0*0*0*0*0*0#/]a00_b00_c00_d00_w00_x00_e00_y00_z00_ua1.55.0.0.100_uf0.3.0.0_ue_ub_u0_v0_uc7.0.30_ud7.8

1-strip=47**aa35.78.1.3.50.32.76.1.41.50_ab_ac_ba46_bb77.0_bc185.0.0.0.1_bd77_be180_ca66.0.40.66.30.40.50.0.20_cb0_da1.0.0.100_db_dd0.1.40.45.25.50_dh2.45.55.50.0_di7_qa_qb_dc0.3.1.1.1_eh2.23_ea31.22.22.56.0.0_ec20.36.22.22.56.45.49.0_ed41.60.1.1.22.56_ef_eg_r0048.22.22.56.1.0.50.50.328.498.625.0_fa12.50.50.60.50.65.56_fb7_fh_fc0.33.55.0.33.55.50.32.32.50.50.50_fd1.0.40.22.56_fe58.61_ff0000000000_fg2.52_pa0.0.0.0.40.50.85.85.0.0_t00_pb_pc_pd_pe_ga1_gb1_gc12.30_ge0000000000_gh_gf_gg_gd10000000_ha89.89_hb49.1.44.99_hc0.59.39.0.59.39_hd0.1.49.49_ia_if_ib_id_ic_jc_ie_ja_jb_jd2.60.60.50_je2.60.60.50_jf_jg_ka9.4787D0.59.0.0_kb9.4787D0.59.0_kc_kd_ke_kf_la_lb_oa_os_ob_oc_od_oe_of_lc_m0046.55.3.0.1.1.40.1.6.80.3.61_n00_s00_og_oh_oo_op_oq_or_om_on_ok_ol_oi_oj_ad0.0.0.0.0.0.0.0.0.0

7-calm=40**aa17.82.1.22.50.17.82.1.26.50_ab_ac_ba64_bb77.1_bc412.500.8.0.1_bd78_be180_ca66.0.40.66.30.40.50.0.20_cb0_da1.0.0.100_db_dd0.1.40.45.25_dh2.45.55.50.0_di7_qa_qb_dc308.3.1.1.1_eh2.23_ea31.22.22.56.0.0_ec7.36.22.22.56.45.49.0_ed41.60.1.1.22.56_ef_eg_r0_fa12.50.50.60.50.65.56_fb7_fh_fc0.33.55.0.33.55.50.32.32.50.50.50_fd1.0.40.22.56_fe58.61_ff0000000000_fg2.52_pa0.0.0.0.40.50.85.85.0.0_t0_pb_pc_pd_pe_ga0_gb1_gc30.6_ge0000000100_gh_gf_gg_gd10100000_ha89.89_hb49.1.44.99_hc0.59.39.0.59.39_hd64.1.49.49_ia_if_ib_id_ic_jc_ie_ja_jb_jd_je_jf_jg_ka_kb_kc_kd_ke_kf_la_lb_oa_os_ob_oc_od_oe_of_lc_m0_n0_s0_og_oh_oo_op_oq_or_om_on_ok_ol_oi_oj_ad0.0.0.0.0.0.0.0.0.0
7-happy=40**aa17.82.1.22.50.17.82.1.26.50_ab_ac_ba64_bb77.1_bc762.500.8.0.1_bd78_be180_ca66.0.40.66.30.40.50.0.20_cb0_da1.0.0.100_db_dd0.1.40.45.25_dh2.45.55.50.0_di7_qa_qb_dc308.3.1.1.1_eh2.23_ea31.22.22.56.0.0_ec7.36.22.22.56.45.49.0_ed41.60.1.1.22.56_ef_eg_r0_fa12.50.50.60.50.65.56_fb7_fh_fc0.33.55.0.33.55.50.32.32.50.50.50_fd1.0.40.22.56_fe58.61_ff0000000000_fg2.52_pa0.0.0.0.40.50.85.85.0.0_t0_pb_pc_pd_pe_ga0_gb1_gc54.6_ge0000000100_gh_gf_gg_gd10100000_ha89.89_hb49.1.44.99_hc0.59.39.0.59.39_hd71.1.49.49_ia_if_ib_id_ic_jc_ie_ja_jb_jd_je_jf_jg_ka_kb_kc_kd_ke_kf_la_lb_oa_os_ob_oc_od_oe_of_lc_m0_n0_s0_og_oh_oo_op_oq_or_om_on_ok_ol_oi_oj_ad0.0.0.0.0.0.0.0.0.0



