#masturbating
3-starting=47**aa6.88.1.22.80.12.49.1.47.70_ab_ac_ba50_bb56.1_bc150.500.8.0.1_bd56_be180_ca56.0.40.75.50.34.34.0.10_cb0_da1.0.0.100_db_dd12.0.34.30.45.50_dh1.30.50.50.0_di5_qa_qb_dc29.5.1.1.1_eh0.16_ea2.16.16.56.0.0_ec5.47.16.16.56.40.64.1_ed3.50.1.1.16.56_ef3.0.50.16.16.56_eg3.2.50.16.16.56_r00_fa2.50.65.55.65.58.56_fb8_fh_fc2.36.55.2.36.55.55.61.61.55.50.50_fd1.0.25.16.56_fe50.73_ff0000000000_fg0.69_pa0.0.0.0.40.50.85.85.0.0_t00_pb_pc_pd_pe_ga0_gb1_gc55.0_ge0000000000_gh_gf_gg_gd10000000_ha62.62_hb49.1.30.99_hc0.52.39.0.52.39_hd31.1.49.49_ia_if_ib_id_ic_jc_ie_ja_jb_jd_je_jf_jg_ka_kb_kc_kd_ke_kf_la_lb_oa_os_ob_oc_od_oe_of_lc_m0037.43.3.0.0.2.17.13.57.53.3.61_n00_s00_og_oh_oo_op_oq_or_om_on_ok_ol_oi_oj_ad0.0.0.0.0.0.0.0.0.0

4-heavy=40**aa6.91.1.45.58.10.67.1.6.55_ab_ac_ba50_bb58.1_bc237.500.8.0.1_bd58_be180_ca56.0.40.75.50.34.34.0.10_cb0_da1.0.0.100_db_dd13.0.34.30.45_dh1.30.50.50.0_di5_qa_qb_dc100.5.1.1.1_eh0.16_ea2.16.16.56.0.0_ec5.47.16.16.56.40.64.1_ed3.50.1.1.16.56_ef3.0.50.16.16.56_eg3.0.50.16.16.56_r0_fa2.50.65.55.65.65.56_fb8_fh_fc2.36.55.2.36.55.55.61.61.55.50.50_fd1.0.25.16.56_fe50.73_ff0000000000_fg0.69_pa0.0.0.0.40.50.85.85.0.0_t0_pb_pc_pd_pe_ga0_gb1_gc85.0_ge0000000000_gh_gf_gg_gd10000000_ha65.65_hb49.1.2.80_hc0.59.39.0.59.39_hd32.1.49.49_ia_if_ib_id_ic_jc_ie_ja_jb_jd_je_jf_jg_ka_kb_kc_kd_ke_kf_la_lb_oa_os_ob_oc_od_oe_of_lc_m037.43.3.0.0.2.17.13.57.53.3.61_n0_s0_og_oh_oo_op_oq_or_om_on_ok_ol_oi_oj_ad0.0.0.0.0.0.0.0.0.0

4-finishing=40**aa6.91.1.45.58.10.67.1.49.59_ab_ac_ba50_bb57.1_bc325.500.8.0.1_bd57_be180_ca56.0.40.75.50.34.34.0.10_cb0_da1.0.0.100_db_dd14.0.34.30.45_dh1.30.50.50.0_di5_qa_qb_dc100.5.1.1.1_eh0.16_ea2.16.16.56.0.0_ec5.47.16.16.56.40.64.1_ed3.50.1.1.16.56_ef3.0.50.16.16.56_eg3.0.50.16.16.56_r0_fa2.50.65.55.65.65.56_fb8_fh_fc2.36.55.2.36.55.55.61.61.55.50.50_fd1.0.25.16.56_fe50.73_ff0000000000_fg0.69_pa0.0.0.0.40.50.85.85.0.0_t0_pb_pc_pd_pe_ga0_gb1_gc92.0_ge0000000000_gh_gf_gg_gd10000000_ha16.16_hb49.1.2.80_hc0.32.39.0.32.39_hd36.1.49.49_ia_if_ib_id_ic_jc_ie_ja_jb_jd_je_jf_jg_ka_kb_kc_kd_ke_kf_la_lb_oa_os_ob_oc_od_oe_of_lc_m037.43.3.0.0.2.17.13.57.53.3.61_n0_s0_og_oh_oo_op_oq_or_om_on_ok_ol_oi_oj_ad0.0.0.0.0.0.0.0.0.0


4-calm=40**aa6.92.1.47.52.25.82.0.41.43_ab_ac_ba50_bb58.1_bc412.500.8.0.1_bd58_be180_ca56.0.40.75.50.34.34.0.10_cb0_da1.0.0.100_db_dd10.0.34.30.45_dh1.30.50.50.0_di5_qa_qb_dc80.5.1.1.1_eh0.16_ea2.16.16.56.0.0_ec5.47.16.16.56.40.64.1_ed3.50.1.1.16.56_ef3.0.50.16.16.56_eg3.0.50.16.16.56_r0_fa2.50.65.55.65.65.56_fb8_fh_fc2.36.55.2.36.55.55.61.61.55.50.50_fd1.0.25.16.56_fe50.73_ff0000000000_fg0.69_pa0.0.0.0.40.50.85.85.0.0_t0_pb_pc_pd_pe_ga0_gb1_gc20.0_ge0000000000_gh_gf_gg_gd10000000_ha70.70_hb49.1.44.99_hc0.59.39.0.59.39_hd0.1.49.49_ia_if_ib_id_ic_jc_ie_ja_jb_jd_je_jf_jg_ka_kb_kc_kd_ke_kf_la_lb_oa_os_ob_oc_od_oe_of_lc_m037.43.3.0.0.2.17.13.57.53.3.61_n0_s0_og_oh_oo_op_oq_or_om_on_ok_ol_oi_oj_ad0.0.0.0.0.0.0.0.0.0

4-happy=40**aa7.91.1.49.52.17.41.0.16.51_ab_ac_ba50_bb58.1_bc500.500.8.0.1_bd58_be180_ca56.0.40.75.50.34.34.0.10_cb0_da1.0.0.100_db_dd10.0.34.30.45_dh1.30.50.50.0_di5_qa_qb_dc82.5.1.1.1_eh0.16_ea2.16.16.56.0.0_ec5.47.16.16.56.40.64.1_ed3.50.1.1.16.56_ef3.0.50.16.16.56_eg3.0.50.16.16.56_r0_fa2.50.65.55.65.65.56_fb8_fh_fc2.36.55.2.36.55.55.61.61.55.50.50_fd1.0.25.16.56_fe50.73_ff0000000000_fg0.69_pa0.0.0.0.40.50.85.85.0.0_t0_pb_pc_pd_pe_ga0_gb1_gc40.0_ge0000000000_gh_gf_gg_gd10000000_ha75.75_hb49.1.44.99_hc0.59.39.0.59.39_hd27.1.49.49_ia_if_ib_id_ic_jc_ie_ja_jb_jd_je_jf_jg_ka_kb_kc_kd_ke_kf_la_lb_oa_os_ob_oc_od_oe_of_lc_m037.43.3.0.0.2.17.13.57.53.3.61_n0_s0_og_oh_oo_op_oq_or_om_on_ok_ol_oi_oj_ad0.0.0.0.0.0.0.0.0.0

4-sad=40**aa13.95.1.42.42.13.95.1.42.42_ab_ac_ba50_bb58.1_bc587.500.8.0.1_bd58_be180_ca56.0.40.75.50.34.34.0.10_cb0_da1.0.0.100_db_dd10.0.34.30.45_dh1.30.50.50.0_di5_qa_qb_dc80.5.1.1.1_eh0.16_ea2.16.16.56.0.0_ec5.47.16.16.56.40.64.1_ed3.50.1.1.16.56_ef3.0.50.16.16.56_eg3.0.50.16.16.56_r0_fa2.50.65.55.65.80.56_fb8_fh_fc2.36.55.2.36.55.55.61.61.55.50.50_fd1.0.25.16.56_fe50.73_ff0000000000_fg0.69_pa0.0.0.0.40.50.85.85.0.0_t0_pb_pc_pd_pe_ga0_gb1_gc40.0_ge0000000000_gh_gf_gg_gd10000000_ha66.66_hb49.1.40.99_hc0.59.39.0.59.39_hd39.1.49.49_ia_if_ib_id_ic_jc_ie_ja_jb_jd_je_jf_jg_ka_kb_kc_kd_ke_kf_la_lb_oa_os_ob_oc_od_oe_of_lc_m037.43.3.0.0.2.17.13.57.53.3.61_n0_s0_og_oh_oo_op_oq_or_om_on_ok_ol_oi_oj_ad0.0.0.0.0.0.0.0.0.0

4-interested=40**aa10.70.1.4.23.7.91.1.45.58_ab_ac_ba50_bb58.1_bc675.500.8.0.1_bd58_be180_ca56.0.40.75.50.34.34.0.10_cb0_da1.0.0.100_db_dd12.0.34.30.45_dh1.30.50.50.0_di5_qa_qb_dc80.5.1.1.1_eh0.16_ea2.16.16.56.0.0_ec5.47.16.16.56.40.64.1_ed3.50.1.1.16.56_ef3.0.50.16.16.56_eg3.0.50.16.16.56_r0_fa2.50.65.55.65.65.56_fb8_fh_fc2.36.55.2.36.55.55.61.61.55.50.50_fd1.0.25.16.56_fe50.73_ff0000000000_fg0.69_pa0.0.0.0.40.50.85.85.0.0_t0_pb_pc_pd_pe_ga0_gb1_gc50.0_ge0000000000_gh_gf_gg_gd10000000_ha11.80_hb49.1.44.99_hc0.73.39.0.73.39_hd20.1.49.49_ia_if_ib_id_ic_jc_ie_ja_jb_jd_je_jf_jg_ka_kb_kc_kd_ke_kf_la_lb_oa_os_ob_oc_od_oe_of_lc_m037.43.3.0.0.2.17.13.57.53.3.61_n0_s0_og_oh_oo_op_oq_or_om_on_ok_ol_oi_oj_ad0.0.0.0.0.0.0.0.0.0

4-horny=40**aa6.91.1.45.58.11.67.1.47.49_ab_ac_ba50_bb58.1_bc762.500.8.0.1_bd58_be180_ca56.0.40.75.50.34.34.0.10_cb0_da1.0.0.100_db_dd13.0.34.30.45_dh1.30.50.50.0_di5_qa_qb_dc80.5.1.1.1_eh0.16_ea2.16.16.56.0.0_ec5.47.16.16.56.40.64.1_ed3.50.1.1.16.56_ef3.0.50.16.16.56_eg3.0.50.16.16.56_r0_fa2.50.65.55.65.65.56_fb8_fh_fc2.36.55.2.36.55.55.61.61.55.50.50_fd1.0.25.16.56_fe50.73_ff0000000000_fg0.69_pa0.0.0.0.40.50.85.85.0.0_t0_pb_pc_pd_pe_ga0_gb1_gc80.0_ge0000000000_gh_gf_gg_gd10000000_ha85.85_hb49.1.44.99_hc0.59.39.0.59.39_hd24.1.49.49_ia_if_ib_id_ic_jc_ie_ja_jb_jd_je_jf_jg_ka_kb_kc_kd_ke_kf_la_lb_oa_os_ob_oc_od_oe_of_lc_m037.43.3.0.0.2.17.13.57.53.3.61_n0_s0_og_oh_oo_op_oq_or_om_on_ok_ol_oi_oj_ad0.0.0.0.0.0.0.0.0.0

4-shocked=40**aa9.100.1.42.58.9.100.1.42.58_ab_ac_ba50_bb58.1_bc850.500.8.0.1_bd58_be180_ca56.0.40.75.50.34.34.0.10_cb0_da1.0.0.100_db_dd13.0.34.30.45_dh1.30.50.50.0_di5_qa_qb_dc80.5.1.1.1_eh0.16_ea2.16.16.56.0.0_ec5.47.16.16.56.40.64.1_ed3.50.1.1.16.56_ef3.0.50.16.16.56_eg3.0.50.16.16.56_r0_fa2.50.65.55.65.48.56_fb8_fh_fc2.36.55.2.36.55.55.61.61.55.50.50_fd1.0.25.16.56_fe50.73_ff0000000000_fg0.69_pa0.0.0.0.40.50.85.85.0.0_t0_pb_pc_pd_pe_ga0_gb1_gc80.0_ge0000000000_gh_gf_gg_gd10000000_ha85.85_hb49.1.44.50_hc0.59.39.0.59.39_hd41.1.49.49_ia_if_ib_id_ic_jc_ie_ja_jb_jd_je_jf_jg_ka_kb_kc_kd_ke_kf_la_lb_oa_os_ob_oc_od_oe_of_lc_m037.43.3.0.0.2.17.13.57.53.3.61_n0_s0_og_oh_oo_op_oq_or_om_on_ok_ol_oi_oj_ad0.0.0.0.0.0.0.0.0.0

4-awkward=40**aa9.91.1.28.34.20.81.1.28.36_ab_ac_ba50_bb58.1_bc150.500.8.0.1_bd58_be180_ca56.0.40.75.50.34.34.0.10_cb0_da1.0.0.100_db_dd12.0.34.30.45_dh1.30.50.50.0_di5_qa_qb_dc80.5.1.1.1_eh0.16_ea2.16.16.56.0.0_ec5.47.16.16.56.40.64.1_ed3.50.1.1.16.56_ef3.0.50.16.16.56_eg3.0.50.16.16.56_r0_fa2.50.65.55.65.65.56_fb8_fh_fc2.36.55.2.36.55.55.61.61.55.50.50_fd1.0.25.16.56_fe50.73_ff0000000000_fg0.69_pa0.0.0.0.40.50.85.85.0.0_t0_pb_pc_pd_pe_ga0_gb1_gc50.0_ge0000000000_gh_gf_gg_gd10000000_ha60.60_hb0.1.25.60_hc0.70.39.0.70.39_hd47.1.49.49_ia_if_ib_id_ic_jc_ie_ja_jb_jd_je_jf_jg_ka_kb_kc_kd_ke_kf_la_lb_oa_os_ob_oc_od_oe_of_lc_m037.43.3.0.0.2.17.13.57.53.3.61_n0_s0_og_oh_oo_op_oq_or_om_on_ok_ol_oi_oj_ad0.0.0.0.0.0.0.0.0.0

4-angry=40**aa9.55.1.42.34.9.55.1.42.34_ab_ac_ba50_bb58.1_bc237.500.8.0.1_bd58_be180_ca56.0.40.75.50.34.34.0.10_cb0_da1.0.0.100_db_dd10.0.34.30.45_dh1.30.50.50.0_di5_qa_qb_dc80.5.1.1.1_eh0.16_ea2.16.16.56.0.0_ec5.47.16.16.56.40.64.1_ed3.50.1.1.16.56_ef3.0.50.16.16.56_eg3.0.50.16.16.56_r0_fa2.50.65.55.65.18.56_fb8_fh_fc2.36.55.2.36.55.55.61.61.55.50.50_fd1.0.25.16.56_fe50.73_ff0000000000_fg0.69_pa0.0.0.0.40.50.85.85.0.0_t0_pb_pc_pd_pe_ga0_gb1_gc40.0_ge0000000000_gh_gf_gg_gd10000000_ha68.68_hb50.1.50.60_hc0.19.39.0.19.39_hd48.1.49.49_ia_if_ib_id_ic_jc_ie_ja_jb_jd_je_jf_jg_ka_kb_kc_kd_ke_kf_la_lb_oa_os_ob_oc_od_oe_of_lc_m037.43.3.0.0.2.17.13.57.53.3.61_n0_s0_og_oh_oo_op_oq_or_om_on_ok_ol_oi_oj_ad0.0.0.0.0.0.0.0.0.0

4-excited=40**aa91.0.1.39.32.6.91.1.45.58_ab_ac_ba50_bb58.1_bc325.500.8.0.1_bd58_be180_ca56.0.40.75.50.34.34.0.10_cb0_da1.0.0.100_db_dd13.0.34.30.45_dh1.30.50.50.0_di5_qa_qb_dc80.5.1.1.1_eh0.16_ea2.16.16.56.0.0_ec5.47.16.16.56.40.64.1_ed3.50.1.1.16.56_ef3.0.50.16.16.56_eg3.0.50.16.16.56_r0_fa2.50.65.55.65.65.56_fb8_fh_fc2.36.55.2.36.55.55.61.61.55.50.50_fd1.0.25.16.56_fe50.73_ff0000000000_fg0.69_pa0.0.0.0.40.50.85.85.0.0_t0_pb_pc_pd_pe_ga0_gb1_gc80.0_ge0000000000_gh_gf_gg_gd10000000_ha90.90_hb49.1.44.99_hc0.59.39.0.59.39_hd25.1.49.49_ia_if_ib_id_ic_jc_ie_ja_jb_jd_je_jf_jg_ka_kb_kc_kd_ke_kf_la_lb_oa_os_ob_oc_od_oe_of_lc_m037.43.3.0.0.2.17.13.57.53.3.61_n0_s0_og_oh_oo_op_oq_or_om_on_ok_ol_oi_oj_ad0.0.0.0.0.0.0.0.0.0
