7-stripped=47**aa26.51.0.49.50.26.51.0.49.50_ab_ac_ba50_bb4.1_bc185.500.0.0.1_bd4_be180_ca54.0.21.54.0.0.24.0.0_cb0_da1.0.0.100_db_dd0.1.28.34.8.50_dh1.12.50.50.0_di7_qa_qb_dc0.3.1.1.1_eh1.56_ea34.Ecc457.ECC457.56.1.0_ec_ed4.8.1.1.Ecc457.56_ef_eg_r0052.Ecc457.Ecc457.56.0.1.42.42.5.413.453.0_fa7.57.68.60.50.50.56_fb_fh_fc2.36.55.2.36.55.34.24.24.50.50.50_fd1.0.19.Ecc457.56_fe56.56_ff0000000000_fg1.54_pa0.0.0.0.40.50.85.85.0.0_t00_pb_pc_pd_pe_ga0_gb1_gc41.0_ge0000000000_gh_gf_gg_gd10000000_ha89.89_hb50.1.50.100_hc0.15.40.0.19.68_hd35.1.36.82_ia_if_ib_id_ic_jc_ie_ja_jb_jd_je_jf_jg_ka_kb4.19.19.19_kc_kd_ke_kf_la11.B0B2B7.55.0.1_lb_oa_os_ob_oc_od_oe_of_lc_m00_n00_s00_og_oh_oo_op_oq_or_om_on_ok_ol_oi_oj_ad0.0.0.0.0.0.0.0.0.0

7-sad=33**aa9.98.1.42.50.9.98.1.42.50_ab_ac_ba50_bb3.1_bc506.500.8.0.1_bd3_be180_ca54.0.21.54.0.0.24.0.0_cb0_da1.0.0.100_db_dd0.1.28.34.8_dh1.12.50.50.0_di7_qa_qb_dc0.3.1.1.1_eh1.56_ea34.Ecc457.ECC457.56.1.0_ec_ed4.8.1.1.Ecc457.56_ef_eg_r052.Ecc457.Ecc457.56.0.1.42.42.5.413.453.0_fa7.57.68.60.50.50.56_fb00_fc2.36.55.2.36.55.34.24.24_fd1.0.19.Ecc457.56_fe56.56_ff0000000000_fg1.54_t0_pa0.0.0.0.40.50.85.85.0.0_pb_pc_pd_pe_ga0_gb1_gc40.0_ge0000000000_gh_gf_gg_gd10000000_ha29.29_hb50.1.41.100_hc3.91.0.3.91.0_hd4.1.26.69_ia_ib_id_if_ic_jc_ie_ja_jb_jd_je_jf_jg_ka_kb4.19.19.19_kc_kd_ke_kf_la11.B0B2B7.55.0.1_lb_oa_os_ob_oc_od_oe_of_lc_m0_n0_s0_og_oh_oo_op_oq_or_om_on_ok_ol_oi_oj_ad0.0.0.0.0.0.0.0.0.0

8-sad=33**aa9.98.1.42.50.9.98.1.42.50_ab_ac_ba50_bb3.1_bc506.500.8.0.1_bd3_be180_ca54.0.21.54.0.0.24.0.0_cb0_da1.0.0.100_db_dd0.1.28.34.8_dh1.12.50.50.0_di7_qa_qb_dc0.3.1.1.1_eh1.56_ea34.Ecc457.ECC457.56.1.0_ec_ed4.8.1.1.Ecc457.56_ef_eg_r052.Ecc457.Ecc457.56.0.1.42.42.5.413.453.0_fa7.57.68.60.50.50.56_fb00_fc2.36.55.2.36.55.34.24.24_fd1.0.19.Ecc457.56_fe56.56_ff0000000000_fg1.54_t0_pa0.0.0.0.40.50.85.85.0.0_pb_pc_pd_pe_ga0_gb1_gc50.0_ge0000000000_gh_gf_gg_gd10000000_ha29.29_hb50.1.41.100_hc3.91.0.3.91.0_hd4.1.26.69_ia_ib_id_if_ic_jc_ie_ja_jb_jd_je_jf_jg_ka_kb_kc_kd_ke_kf_la11.B0B2B7.55.0.1_lb_oa_os_ob_oc_od_oe_of_lc_m0_n0_s0_og_oh_oo_op_oq_or_om_on_ok_ol_oi_oj_ad0.0.0.0.0.0.0.0.0.0

9-sad=33**aa7.91.1.42.50.7.99.1.42.50_ab_ac_ba50_bb10.1_bc506.500.8.0.1_bd10_be180_ca54.0.21.54.0.0.24.0.0_cb0_da1.0.0.100_db_dd0.1.28.34.8_dh1.12.50.50.0_di7_qa_qb_dc0.3.1.1.1_eh1.56_ea34.Ecc457.ECC457.56.1.0_ec_ed4.8.1.1.Ecc457.56_ef_eg_r052.Ecc457.Ecc457.56.0.1.42.42.5.413.453.0_fa7.57.68.60.50.50.56_fb00_fc2.36.55.2.36.55.34.24.24_fd1.0.19.Ecc457.56_fe56.56_ff0000000000_fg1.54_t0_pa0.0.0.0.40.50.85.85.0.0_pb_pc_pd_pe_ga0_gb1_gc70.0_ge0000000000_gh_gf_gg_gd10000000_ha74.74_hb50.1.41.100_hc3.88.36.3.88.36_hd4.1.26.69_ia_ib_id_if_ic_jc_ie_ja_jb_jd_je_jf_jg_ka_kb_kc_kd_ke_kf_la11.B0B2B7.55.0.1_lb_oa_os_ob_oc_od_oe_of_lc_m0_n0_s0_og_oh_oo_op_oq_or_om_on_ok_ol_oi_oj_ad0.0.0.0.0.0.0.0.0.0

